<?xml version="1.0" encoding="utf-8"?>
<!-- Generator: Adobe Illustrator 19.1.0, SVG Export Plug-In . SVG Version: 6.00 Build 0)  -->
<svg version="1.1" id="Layer_1" xmlns="http://www.w3.org/2000/svg" xmlns:xlink="http://www.w3.org/1999/xlink" x="0px" y="0px"
	 viewBox="0 0 1152 864" enable-background="new 0 0 1152 864" xml:space="preserve">
<g>
	<rect x="0" fill="#3E4F5B" width="1152" height="190"/>
	<g>
		<path fill="#3E4F5B" d="M215.4,234.2h9.3c4.4,0,7.5,0.7,9.5,2c1.9,1.3,2.9,3.4,2.9,6.2c0,1.9-0.5,3.6-1.6,4.8
			c-1.1,1.3-2.7,2.1-4.8,2.5v0.2c5,0.9,7.5,3.5,7.5,7.9c0,2.9-1,5.2-3,6.9s-4.8,2.5-8.3,2.5h-11.5V234.2z M219.2,248.3h6.3
			c2.7,0,4.6-0.4,5.8-1.3c1.2-0.8,1.8-2.3,1.8-4.3c0-1.8-0.7-3.2-2-4c-1.3-0.8-3.4-1.2-6.3-1.2h-5.6V248.3z M219.2,251.5v12.3h6.9
			c2.7,0,4.6-0.5,6-1.5c1.3-1,2-2.6,2-4.8c0-2-0.7-3.5-2.1-4.5s-3.5-1.4-6.3-1.4H219.2z"/>
		<path fill="#3E4F5B" d="M254.8,267.5c-3.6,0-6.5-1.1-8.6-3.3c-2.1-2.2-3.2-5.3-3.2-9.2c0-4,1-7.1,2.9-9.5s4.6-3.5,7.9-3.5
			c3.1,0,5.5,1,7.3,3s2.7,4.7,2.7,8v2.4h-17c0.1,2.9,0.8,5.1,2.2,6.6c1.4,1.5,3.3,2.2,5.9,2.2c2.7,0,5.3-0.6,7.9-1.7v3.3
			c-1.3,0.6-2.6,1-3.7,1.2C257.9,267.4,256.5,267.5,254.8,267.5z M253.8,245.1c-2,0-3.6,0.6-4.7,1.9c-1.2,1.3-1.9,3.1-2.1,5.3h12.9
			c0-2.4-0.5-4.2-1.6-5.4C257.2,245.8,255.7,245.1,253.8,245.1z"/>
		<path fill="#3E4F5B" d="M290.1,242.5v2.4l-4.6,0.5c0.4,0.5,0.8,1.2,1.1,2.1c0.3,0.8,0.5,1.8,0.5,2.9c0,2.4-0.8,4.3-2.5,5.8
			c-1.6,1.4-3.9,2.2-6.8,2.2c-0.7,0-1.4-0.1-2.1-0.2c-1.6,0.8-2.4,1.9-2.4,3.2c0,0.7,0.3,1.2,0.8,1.5c0.6,0.3,1.5,0.5,2.9,0.5h4.4
			c2.7,0,4.7,0.6,6.1,1.7s2.1,2.8,2.1,4.9c0,2.7-1.1,4.8-3.3,6.2c-2.2,1.4-5.4,2.1-9.6,2.1c-3.2,0-5.7-0.6-7.4-1.8s-2.6-2.9-2.6-5.1
			c0-1.5,0.5-2.8,1.4-3.9c1-1.1,2.3-1.8,4-2.2c-0.6-0.3-1.2-0.7-1.6-1.3c-0.4-0.6-0.6-1.3-0.6-2.1c0-0.9,0.2-1.7,0.7-2.4
			c0.5-0.7,1.2-1.3,2.3-2c-1.3-0.5-2.3-1.4-3.1-2.7s-1.2-2.7-1.2-4.3c0-2.7,0.8-4.8,2.4-6.2c1.6-1.5,3.9-2.2,6.9-2.2
			c1.3,0,2.4,0.1,3.5,0.4H290.1z M270.5,271.2c0,1.3,0.6,2.3,1.7,3c1.1,0.7,2.7,1,4.8,1c3.1,0,5.4-0.5,7-1.4s2.3-2.2,2.3-3.8
			c0-1.3-0.4-2.3-1.2-2.8c-0.8-0.5-2.4-0.8-4.6-0.8h-4.5c-1.7,0-3,0.4-4,1.2S270.5,269.7,270.5,271.2z M272.5,250.3
			c0,1.7,0.5,3,1.5,3.9c1,0.9,2.3,1.3,4.1,1.3c3.6,0,5.5-1.8,5.5-5.3c0-3.7-1.8-5.5-5.5-5.5c-1.8,0-3.1,0.5-4,1.4
			S272.5,248.5,272.5,250.3z"/>
		<path fill="#3E4F5B" d="M294.6,235.8c0-0.9,0.2-1.5,0.6-1.9s0.9-0.6,1.6-0.6c0.6,0,1.1,0.2,1.5,0.6s0.7,1,0.7,1.9
			c0,0.8-0.2,1.5-0.7,1.9c-0.4,0.4-1,0.6-1.5,0.6c-0.6,0-1.2-0.2-1.6-0.6C294.8,237.3,294.6,236.6,294.6,235.8z M298.7,267.1H295
			v-24.6h3.7V267.1z"/>
		<path fill="#3E4F5B" d="M323.2,267.1v-15.9c0-2-0.5-3.5-1.4-4.5c-0.9-1-2.3-1.5-4.3-1.5c-2.6,0-4.5,0.7-5.7,2.1
			c-1.2,1.4-1.8,3.7-1.8,6.9v12.9h-3.7v-24.6h3l0.6,3.4h0.2c0.8-1.2,1.8-2.2,3.2-2.8c1.4-0.7,2.9-1,4.6-1c3,0,5.2,0.7,6.7,2.1
			c1.5,1.4,2.2,3.7,2.2,6.9v16.1H323.2z"/>
		<path fill="#3E4F5B" d="M344,256.5V253h19.3v3.4H344z"/>
		<path fill="#3E4F5B" d="M396.5,260.4c0,2.3-0.9,4.1-2.6,5.3c-1.7,1.2-4.1,1.9-7.2,1.9c-3.3,0-5.8-0.5-7.6-1.5v-3.5
			c1.2,0.6,2.5,1.1,3.8,1.4s2.7,0.5,3.9,0.5c1.9,0,3.4-0.3,4.5-0.9c1-0.6,1.6-1.6,1.6-2.8c0-1-0.4-1.8-1.2-2.5s-2.5-1.5-4.9-2.4
			c-2.3-0.9-3.9-1.6-4.9-2.2c-1-0.6-1.7-1.4-2.2-2.2s-0.7-1.8-0.7-2.9c0-2,0.8-3.6,2.4-4.8c1.6-1.2,3.9-1.7,6.7-1.7
			c2.7,0,5.2,0.5,7.8,1.6l-1.3,3c-2.5-1-4.7-1.5-6.7-1.5c-1.8,0-3.1,0.3-4,0.8s-1.3,1.3-1.3,2.3c0,0.7,0.2,1.2,0.5,1.7
			c0.3,0.5,0.9,0.9,1.6,1.3c0.7,0.4,2.2,1,4.3,1.8c2.9,1.1,4.9,2.1,5.9,3.2S396.5,258.7,396.5,260.4z"/>
		<path fill="#3E4F5B" d="M410.2,264.4c0.7,0,1.3,0,1.9-0.1c0.6-0.1,1.1-0.2,1.5-0.3v2.9c-0.4,0.2-1,0.4-1.8,0.5
			c-0.8,0.1-1.5,0.2-2.1,0.2c-4.8,0-7.1-2.5-7.1-7.5v-14.6H399v-1.8l3.5-1.5l1.6-5.3h2.2v5.7h7.1v2.9h-7.1v14.5
			c0,1.5,0.4,2.6,1.1,3.4S409,264.4,410.2,264.4z"/>
		<path fill="#3E4F5B" d="M433.4,267.1l-0.7-3.5h-0.2c-1.2,1.5-2.5,2.6-3.7,3.1c-1.2,0.5-2.7,0.8-4.6,0.8c-2.4,0-4.4-0.6-5.7-1.9
			s-2.1-3-2.1-5.4c0-5,4-7.6,11.9-7.8l4.2-0.1v-1.5c0-1.9-0.4-3.4-1.2-4.3c-0.8-0.9-2.2-1.4-4-1.4c-2.1,0-4.4,0.6-7,1.9l-1.1-2.9
			c1.2-0.7,2.5-1.2,4-1.5c1.4-0.4,2.9-0.6,4.3-0.6c2.9,0,5.1,0.7,6.5,2s2.1,3.4,2.1,6.3v16.8H433.4z M425,264.4
			c2.3,0,4.1-0.6,5.5-1.9s2-3.1,2-5.3V255l-3.7,0.2c-3,0.1-5.1,0.6-6.4,1.4s-2,2.1-2,3.8c0,1.3,0.4,2.4,1.2,3.1
			S423.5,264.4,425,264.4z"/>
		<path fill="#3E4F5B" d="M454.9,242c1.1,0,2.1,0.1,2.9,0.3l-0.5,3.5c-1-0.2-1.9-0.3-2.7-0.3c-2,0-3.7,0.8-5.1,2.4s-2.1,3.6-2.1,6
			v13.2h-3.7v-24.6h3.1l0.4,4.6h0.2c0.9-1.6,2-2.8,3.3-3.7S453.3,242,454.9,242z"/>
		<path fill="#3E4F5B" d="M470.1,264.4c0.7,0,1.3,0,1.9-0.1c0.6-0.1,1.1-0.2,1.5-0.3v2.9c-0.4,0.2-1,0.4-1.8,0.5
			c-0.8,0.1-1.5,0.2-2.1,0.2c-4.8,0-7.1-2.5-7.1-7.5v-14.6h-3.5v-1.8l3.5-1.5l1.6-5.3h2.2v5.7h7.1v2.9h-7.1v14.5
			c0,1.5,0.4,2.6,1.1,3.4C468,264.1,468.9,264.4,470.1,264.4z"/>
		<path fill="#3E4F5B" d="M490.7,234.2l-12.2,32.8h-3.7l12.2-32.8H490.7z"/>
		<path fill="#3E4F5B" d="M510.7,260.4c0,2.3-0.9,4.1-2.6,5.3c-1.7,1.2-4.1,1.9-7.2,1.9c-3.3,0-5.8-0.5-7.6-1.5v-3.5
			c1.2,0.6,2.5,1.1,3.8,1.4c1.4,0.3,2.7,0.5,3.9,0.5c1.9,0,3.4-0.3,4.5-0.9s1.6-1.6,1.6-2.8c0-1-0.4-1.8-1.2-2.5s-2.5-1.5-4.9-2.4
			c-2.3-0.9-3.9-1.6-4.9-2.2c-1-0.6-1.7-1.4-2.2-2.2s-0.7-1.8-0.7-2.9c0-2,0.8-3.6,2.4-4.8s3.9-1.7,6.7-1.7c2.7,0,5.2,0.5,7.8,1.6
			l-1.3,3c-2.5-1-4.7-1.5-6.7-1.5c-1.8,0-3.1,0.3-4,0.8s-1.3,1.3-1.3,2.3c0,0.7,0.2,1.2,0.5,1.7c0.3,0.5,0.9,0.9,1.6,1.3
			s2.2,1,4.3,1.8c2.9,1.1,4.9,2.1,5.9,3.2C510.2,257.4,510.7,258.7,510.7,260.4z"/>
		<path fill="#3E4F5B" d="M524.5,264.4c0.7,0,1.3,0,1.9-0.1c0.6-0.1,1.1-0.2,1.5-0.3v2.9c-0.4,0.2-1,0.4-1.8,0.5
			c-0.8,0.1-1.5,0.2-2.1,0.2c-4.8,0-7.1-2.5-7.1-7.5v-14.6h-3.5v-1.8l3.5-1.5l1.6-5.3h2.2v5.7h7.1v2.9h-7.1v14.5
			c0,1.5,0.4,2.6,1.1,3.4C522.3,264.1,523.3,264.4,524.5,264.4z"/>
		<path fill="#3E4F5B" d="M553.8,254.7c0,4-1,7.1-3,9.4s-4.8,3.4-8.4,3.4c-2.2,0-4.2-0.5-5.9-1.5s-3-2.5-4-4.4s-1.4-4.2-1.4-6.8
			c0-4,1-7.1,3-9.4s4.8-3.4,8.4-3.4c3.4,0,6.2,1.1,8.2,3.4C552.8,247.7,553.8,250.8,553.8,254.7z M535.1,254.7
			c0,3.1,0.6,5.5,1.9,7.2c1.3,1.6,3.1,2.5,5.5,2.5s4.3-0.8,5.6-2.5c1.3-1.6,1.9-4,1.9-7.2c0-3.1-0.6-5.5-1.9-7.1
			c-1.3-1.6-3.1-2.4-5.6-2.4c-2.4,0-4.3,0.8-5.5,2.4S535.1,251.6,535.1,254.7z"/>
		<path fill="#3E4F5B" d="M571.6,267.5c-1.6,0-3.1-0.3-4.4-0.9c-1.3-0.6-2.4-1.5-3.3-2.7h-0.3c0.2,1.4,0.3,2.8,0.3,4.1v10.1h-3.7
			v-35.7h3l0.5,3.4h0.2c1-1.3,2.1-2.3,3.3-2.9c1.3-0.6,2.7-0.9,4.4-0.9c3.3,0,5.8,1.1,7.6,3.3c1.8,2.2,2.7,5.4,2.7,9.4
			c0,4-0.9,7.2-2.7,9.4C577.3,266.4,574.8,267.5,571.6,267.5z M571.1,245.2c-2.5,0-4.3,0.7-5.5,2.1s-1.7,3.6-1.7,6.6v0.8
			c0,3.5,0.6,5.9,1.7,7.4c1.2,1.5,3,2.2,5.5,2.2c2.1,0,3.8-0.9,5-2.6s1.8-4.1,1.8-7.1c0-3.1-0.6-5.4-1.8-7.1
			C574.9,246,573.2,245.2,571.1,245.2z"/>
		<path fill="#3E4F5B" d="M615,267.1l-0.7-3.5H614c-1.2,1.5-2.5,2.6-3.7,3.1c-1.2,0.5-2.7,0.8-4.6,0.8c-2.4,0-4.4-0.6-5.7-1.9
			s-2.1-3-2.1-5.4c0-5,4-7.6,11.9-7.8l4.2-0.1v-1.5c0-1.9-0.4-3.4-1.2-4.3c-0.8-0.9-2.2-1.4-4-1.4c-2.1,0-4.4,0.6-7,1.9l-1.1-2.9
			c1.2-0.7,2.5-1.2,4-1.5c1.4-0.4,2.9-0.6,4.3-0.6c2.9,0,5.1,0.7,6.5,2s2.1,3.4,2.1,6.3v16.8H615z M606.5,264.4
			c2.3,0,4.1-0.6,5.5-1.9s2-3.1,2-5.3V255l-3.7,0.2c-3,0.1-5.1,0.6-6.4,1.4s-2,2.1-2,3.8c0,1.3,0.4,2.4,1.2,3.1
			S605.1,264.4,606.5,264.4z"/>
		<path fill="#3E4F5B" d="M642,267.1v-15.9c0-2-0.5-3.5-1.4-4.5s-2.3-1.5-4.3-1.5c-2.6,0-4.5,0.7-5.7,2.1s-1.8,3.7-1.8,6.9v12.9
			h-3.7v-24.6h3l0.6,3.4h0.2c0.8-1.2,1.8-2.2,3.2-2.8c1.4-0.7,2.9-1,4.6-1c3,0,5.2,0.7,6.7,2.1s2.2,3.7,2.2,6.9v16.1H642z"/>
		<path fill="#3E4F5B" d="M669.9,263.8h-0.2c-1.7,2.5-4.3,3.8-7.7,3.8c-3.2,0-5.7-1.1-7.5-3.3s-2.7-5.3-2.7-9.4
			c0-4.1,0.9-7.2,2.7-9.5s4.3-3.4,7.5-3.4c3.3,0,5.9,1.2,7.7,3.6h0.3l-0.2-1.8l-0.1-1.7v-10h3.7v34.9h-3L669.9,263.8z M662.5,264.4
			c2.5,0,4.4-0.7,5.5-2.1c1.1-1.4,1.7-3.6,1.7-6.7v-0.8c0-3.5-0.6-6-1.7-7.5c-1.2-1.5-3-2.2-5.6-2.2c-2.2,0-3.9,0.8-5,2.5
			c-1.2,1.7-1.7,4.1-1.7,7.2c0,3.1,0.6,5.5,1.7,7.1C658.6,263.6,660.2,264.4,662.5,264.4z"/>
		<path fill="#3E4F5B" d="M702.7,267.5c-3.6,0-6.3-1.1-8.3-3.3s-2.9-5.3-2.9-9.3c0-4.1,1-7.3,3-9.5s4.8-3.4,8.5-3.4
			c1.2,0,2.4,0.1,3.5,0.4c1.2,0.3,2.1,0.6,2.8,0.9l-1.1,3.2c-0.8-0.3-1.7-0.6-2.7-0.8c-1-0.2-1.8-0.3-2.6-0.3c-5,0-7.5,3.2-7.5,9.6
			c0,3,0.6,5.3,1.8,7s3,2.4,5.4,2.4c2.1,0,4.2-0.4,6.3-1.3v3.3C707.3,267.1,705.2,267.5,702.7,267.5z"/>
		<path fill="#3E4F5B" d="M735.8,254.7c0,4-1,7.1-3,9.4s-4.8,3.4-8.4,3.4c-2.2,0-4.2-0.5-5.9-1.5s-3-2.5-4-4.4s-1.4-4.2-1.4-6.8
			c0-4,1-7.1,3-9.4s4.8-3.4,8.4-3.4c3.4,0,6.2,1.1,8.2,3.4C734.8,247.7,735.8,250.8,735.8,254.7z M717,254.7c0,3.1,0.6,5.5,1.9,7.2
			c1.3,1.6,3.1,2.5,5.5,2.5c2.4,0,4.3-0.8,5.6-2.5c1.3-1.6,1.9-4,1.9-7.2c0-3.1-0.6-5.5-1.9-7.1s-3.1-2.4-5.6-2.4
			c-2.4,0-4.3,0.8-5.5,2.4S717,251.6,717,254.7z"/>
		<path fill="#3E4F5B" d="M758.9,267.1v-15.9c0-2-0.5-3.5-1.4-4.5s-2.3-1.5-4.3-1.5c-2.6,0-4.5,0.7-5.7,2.1s-1.8,3.7-1.8,6.9v12.9
			h-3.7v-24.6h3l0.6,3.4h0.2c0.8-1.2,1.8-2.2,3.2-2.8c1.4-0.7,2.9-1,4.6-1c3,0,5.2,0.7,6.7,2.1s2.2,3.7,2.2,6.9v16.1H758.9z"/>
		<path fill="#3E4F5B" d="M778,264.4c0.7,0,1.3,0,1.9-0.1c0.6-0.1,1.1-0.2,1.5-0.3v2.9c-0.4,0.2-1,0.4-1.8,0.5
			c-0.8,0.1-1.5,0.2-2.1,0.2c-4.8,0-7.1-2.5-7.1-7.5v-14.6h-3.5v-1.8l3.5-1.5l1.6-5.3h2.2v5.7h7.1v2.9h-7.1v14.5
			c0,1.5,0.4,2.6,1.1,3.4S776.8,264.4,778,264.4z"/>
		<path fill="#3E4F5B" d="M785.8,235.8c0-0.9,0.2-1.5,0.6-1.9s0.9-0.6,1.6-0.6c0.6,0,1.1,0.2,1.5,0.6s0.7,1,0.7,1.9
			c0,0.8-0.2,1.5-0.7,1.9c-0.4,0.4-1,0.6-1.5,0.6c-0.6,0-1.2-0.2-1.6-0.6C786,237.3,785.8,236.6,785.8,235.8z M789.8,267.1h-3.7
			v-24.6h3.7V267.1z"/>
		<path fill="#3E4F5B" d="M814.3,267.1v-15.9c0-2-0.5-3.5-1.4-4.5s-2.3-1.5-4.3-1.5c-2.6,0-4.5,0.7-5.7,2.1s-1.8,3.7-1.8,6.9v12.9
			h-3.7v-24.6h3l0.6,3.4h0.2c0.8-1.2,1.8-2.2,3.2-2.8c1.4-0.7,2.9-1,4.6-1c3,0,5.2,0.7,6.7,2.1s2.2,3.7,2.2,6.9v16.1H814.3z"/>
		<path fill="#3E4F5B" d="M829,242.5v16c0,2,0.5,3.5,1.4,4.5s2.3,1.5,4.3,1.5c2.6,0,4.5-0.7,5.6-2.1c1.2-1.4,1.8-3.7,1.8-6.9v-12.9
			h3.7v24.6h-3.1l-0.5-3.3H842c-0.8,1.2-1.8,2.1-3.2,2.8c-1.4,0.6-2.9,1-4.6,1c-3,0-5.2-0.7-6.7-2.1c-1.5-1.4-2.2-3.7-2.2-6.8v-16.1
			H829z"/>
		<path fill="#3E4F5B" d="M863.9,267.5c-3.6,0-6.5-1.1-8.6-3.3c-2.1-2.2-3.2-5.3-3.2-9.2c0-4,1-7.1,2.9-9.5c2-2.3,4.6-3.5,7.9-3.5
			c3.1,0,5.5,1,7.3,3s2.7,4.7,2.7,8v2.4h-17c0.1,2.9,0.8,5.1,2.2,6.6c1.4,1.5,3.3,2.2,5.9,2.2c2.7,0,5.3-0.6,7.9-1.7v3.3
			c-1.3,0.6-2.6,1-3.7,1.2C867,267.4,865.6,267.5,863.9,267.5z M862.9,245.1c-2,0-3.6,0.6-4.7,1.9c-1.2,1.3-1.9,3.1-2.1,5.3H869
			c0-2.4-0.5-4.2-1.6-5.4C866.3,245.8,864.8,245.1,862.9,245.1z"/>
		<path fill="#3E4F5B" d="M225.9,300.6h-6.3v21.7h-3.7v-21.7h-4.4v-1.7l4.4-1.3v-1.4c0-6,2.6-9.1,7.9-9.1c1.3,0,2.8,0.3,4.6,0.8
			l-1,3c-1.4-0.5-2.7-0.7-3.7-0.7c-1.4,0-2.4,0.5-3.1,1.4c-0.7,0.9-1,2.4-1,4.5v1.6h6.3V300.6z"/>
		<path fill="#3E4F5B" d="M251.4,309.9c0,4-1,7.1-3,9.4s-4.8,3.4-8.4,3.4c-2.2,0-4.2-0.5-5.9-1.6s-3-2.5-4-4.4s-1.4-4.2-1.4-6.8
			c0-4,1-7.1,3-9.4s4.8-3.4,8.4-3.4c3.4,0,6.2,1.1,8.2,3.4C250.4,302.9,251.4,306,251.4,309.9z M232.7,309.9c0,3.1,0.6,5.5,1.9,7.2
			c1.3,1.6,3.1,2.5,5.5,2.5s4.3-0.8,5.6-2.5c1.3-1.6,1.9-4,1.9-7.2c0-3.1-0.6-5.5-1.9-7.1c-1.3-1.6-3.1-2.4-5.6-2.4
			c-2.4,0-4.3,0.8-5.5,2.4C233.3,304.4,232.7,306.8,232.7,309.9z"/>
		<path fill="#3E4F5B" d="M269,297.2c1.1,0,2.1,0.1,2.9,0.3l-0.5,3.5c-1-0.2-1.9-0.3-2.7-0.3c-2,0-3.7,0.8-5.1,2.4s-2.1,3.6-2.1,6
			v13.2h-3.7v-24.6h3.1l0.4,4.6h0.2c0.9-1.6,2-2.8,3.3-3.7C266,297.6,267.4,297.2,269,297.2z"/>
		<path fill="#3E4F5B" d="M307.7,322.3v-16c0-2-0.4-3.4-1.3-4.4c-0.8-1-2.1-1.5-3.9-1.5c-2.3,0-4,0.7-5.1,2
			c-1.1,1.3-1.7,3.4-1.7,6.2v13.7H292v-16c0-2-0.4-3.4-1.3-4.4c-0.8-1-2.1-1.5-3.9-1.5c-2.3,0-4,0.7-5.1,2.1
			c-1.1,1.4-1.6,3.7-1.6,6.9v12.9h-3.7v-24.6h3l0.6,3.4h0.2c0.7-1.2,1.7-2.1,3-2.8s2.7-1,4.3-1c3.8,0,6.4,1.4,7.5,4.2h0.2
			c0.7-1.3,1.8-2.3,3.2-3.1c1.4-0.7,3-1.1,4.8-1.1c2.8,0,4.9,0.7,6.3,2.1c1.4,1.4,2.1,3.7,2.1,6.9v16.1H307.7z"/>
		<path fill="#3E4F5B" d="M334,322.3l-0.7-3.5h-0.2c-1.2,1.5-2.5,2.6-3.7,3.1s-2.7,0.8-4.6,0.8c-2.4,0-4.4-0.6-5.7-1.9
			s-2.1-3-2.1-5.4c0-5,4-7.6,11.9-7.8l4.2-0.1V306c0-1.9-0.4-3.4-1.2-4.3s-2.2-1.4-4-1.4c-2.1,0-4.4,0.6-7,1.9l-1.1-2.9
			c1.2-0.7,2.5-1.2,4-1.6c1.4-0.4,2.9-0.6,4.3-0.6c2.9,0,5.1,0.7,6.5,2s2.1,3.4,2.1,6.3v16.8H334z M325.6,319.6
			c2.3,0,4.1-0.6,5.5-1.9c1.3-1.3,2-3.1,2-5.3v-2.2l-3.7,0.2c-3,0.1-5.1,0.6-6.4,1.4s-2,2.1-2,3.8c0,1.3,0.4,2.4,1.2,3.1
			C323,319.3,324.1,319.6,325.6,319.6z"/>
		<path fill="#3E4F5B" d="M347.9,322.3h-3.7v-34.9h3.7V322.3z"/>
		<path fill="#3E4F5B" d="M371.7,308.6v13.7h-3.8v-32.8h9c4,0,7,0.8,8.9,2.3c1.9,1.5,2.9,3.9,2.9,7c0,4.3-2.2,7.3-6.6,8.8l8.9,14.8
			h-4.5l-8-13.7H371.7z M371.7,305.3h5.2c2.7,0,4.7-0.5,5.9-1.6c1.3-1.1,1.9-2.7,1.9-4.8c0-2.2-0.6-3.7-1.9-4.7
			c-1.3-1-3.3-1.4-6.2-1.4h-5V305.3z"/>
		<path fill="#3E4F5B" d="M417.9,322.3h-4.3l-8.8-14.4l-9,14.4h-4l10.9-17.2l-10.2-15.7h4.2l8.2,13l8.2-13h4.1L407,305L417.9,322.3z
			"/>
		<path fill="#3E4F5B" d="M441.5,319.6c0.7,0,1.3,0,1.9-0.1c0.6-0.1,1.1-0.2,1.5-0.3v2.9c-0.4,0.2-1,0.4-1.8,0.5s-1.5,0.2-2.1,0.2
			c-4.8,0-7.1-2.5-7.1-7.5v-14.6h-3.5v-1.8l3.5-1.5l1.6-5.3h2.2v5.7h7.1v2.9h-7.1V315c0,1.5,0.4,2.6,1.1,3.4
			C439.3,319.3,440.3,319.6,441.5,319.6z"/>
		<path fill="#3E4F5B" d="M460.8,297.2c1.1,0,2.1,0.1,2.9,0.3l-0.5,3.5c-1-0.2-1.9-0.3-2.7-0.3c-2,0-3.7,0.8-5.1,2.4s-2.1,3.6-2.1,6
			v13.2h-3.7v-24.6h3.1l0.4,4.6h0.2c0.9-1.6,2-2.8,3.3-3.7C457.9,297.6,459.3,297.2,460.8,297.2z"/>
		<path fill="#3E4F5B" d="M478.5,322.7c-3.6,0-6.5-1.1-8.6-3.3c-2.1-2.2-3.2-5.3-3.2-9.2c0-4,1-7.1,2.9-9.5s4.6-3.5,7.9-3.5
			c3.1,0,5.5,1,7.3,3s2.7,4.7,2.7,8v2.4h-17c0.1,2.9,0.8,5.1,2.2,6.6c1.4,1.5,3.3,2.2,5.9,2.2c2.7,0,5.3-0.6,7.9-1.7v3.3
			c-1.3,0.6-2.6,1-3.7,1.2S480.2,322.7,478.5,322.7z M477.5,300.3c-2,0-3.6,0.6-4.7,1.9c-1.2,1.3-1.9,3.1-2.1,5.3h12.9
			c0-2.3-0.5-4.2-1.6-5.4C481,301,479.5,300.3,477.5,300.3z"/>
		<path fill="#3E4F5B" d="M508.8,322.3l-0.7-3.5h-0.2c-1.2,1.5-2.5,2.6-3.7,3.1s-2.7,0.8-4.6,0.8c-2.4,0-4.4-0.6-5.7-1.9
			s-2.1-3-2.1-5.4c0-5,4-7.6,11.9-7.8l4.2-0.1V306c0-1.9-0.4-3.4-1.2-4.3s-2.2-1.4-4-1.4c-2.1,0-4.4,0.6-7,1.9l-1.1-2.9
			c1.2-0.7,2.5-1.2,4-1.6c1.4-0.4,2.9-0.6,4.3-0.6c2.9,0,5.1,0.7,6.5,2s2.1,3.4,2.1,6.3v16.8H508.8z M500.4,319.6
			c2.3,0,4.1-0.6,5.5-1.9c1.3-1.3,2-3.1,2-5.3v-2.2l-3.7,0.2c-3,0.1-5.1,0.6-6.4,1.4s-2,2.1-2,3.8c0,1.3,0.4,2.4,1.2,3.1
			C497.8,319.3,499,319.6,500.4,319.6z"/>
		<path fill="#3E4F5B" d="M527,319.6c0.7,0,1.3,0,1.9-0.1c0.6-0.1,1.1-0.2,1.5-0.3v2.9c-0.4,0.2-1,0.4-1.8,0.5s-1.5,0.2-2.1,0.2
			c-4.8,0-7.1-2.5-7.1-7.5v-14.6h-3.5v-1.8l3.5-1.5l1.6-5.3h2.2v5.7h7.1v2.9h-7.1V315c0,1.5,0.4,2.6,1.1,3.4
			C524.8,319.3,525.8,319.6,527,319.6z"/>
		<path fill="#3E4F5B" d="M566.4,322.3v-16c0-2-0.4-3.4-1.3-4.4c-0.8-1-2.1-1.5-3.9-1.5c-2.3,0-4,0.7-5.1,2
			c-1.1,1.3-1.7,3.4-1.7,6.2v13.7h-3.7v-16c0-2-0.4-3.4-1.3-4.4c-0.8-1-2.1-1.5-3.9-1.5c-2.3,0-4,0.7-5.1,2.1
			c-1.1,1.4-1.6,3.7-1.6,6.9v12.9h-3.7v-24.6h3l0.6,3.4h0.2c0.7-1.2,1.7-2.1,3-2.8s2.7-1,4.3-1c3.8,0,6.4,1.4,7.5,4.2h0.2
			c0.7-1.3,1.8-2.3,3.2-3.1c1.4-0.7,3-1.1,4.8-1.1c2.8,0,4.9,0.7,6.3,2.1s2.1,3.7,2.1,6.9v16.1H566.4z"/>
		<path fill="#3E4F5B" d="M588,322.7c-3.6,0-6.5-1.1-8.6-3.3c-2.1-2.2-3.2-5.3-3.2-9.2c0-4,1-7.1,2.9-9.5s4.6-3.5,7.9-3.5
			c3.1,0,5.5,1,7.3,3s2.7,4.7,2.7,8v2.4h-17c0.1,2.9,0.8,5.1,2.2,6.6c1.4,1.5,3.3,2.2,5.9,2.2c2.7,0,5.3-0.6,7.9-1.7v3.3
			c-1.3,0.6-2.6,1-3.7,1.2C591.1,322.6,589.7,322.7,588,322.7z M587,300.3c-2,0-3.6,0.6-4.7,1.9c-1.2,1.3-1.9,3.1-2.1,5.3h12.9
			c0-2.3-0.5-4.2-1.6-5.4C590.5,301,589,300.3,587,300.3z"/>
		<path fill="#3E4F5B" d="M620,322.3v-15.9c0-2-0.5-3.5-1.4-4.5c-0.9-1-2.3-1.5-4.3-1.5c-2.6,0-4.5,0.7-5.7,2.1
			c-1.2,1.4-1.8,3.7-1.8,6.9v12.9h-3.7v-24.6h3l0.6,3.4h0.2c0.8-1.2,1.8-2.2,3.2-2.8c1.4-0.7,2.9-1,4.6-1c3,0,5.2,0.7,6.7,2.1
			c1.5,1.4,2.2,3.7,2.2,6.9v16.1H620z"/>
		<path fill="#3E4F5B" d="M639.2,319.6c0.7,0,1.3,0,1.9-0.1c0.6-0.1,1.1-0.2,1.5-0.3v2.9c-0.4,0.2-1,0.4-1.8,0.5s-1.5,0.2-2.1,0.2
			c-4.8,0-7.1-2.5-7.1-7.5v-14.6h-3.5v-1.8l3.5-1.5l1.6-5.3h2.2v5.7h7.1v2.9h-7.1V315c0,1.5,0.4,2.6,1.1,3.4
			C637,319.3,637.9,319.6,639.2,319.6z"/>
	</g>
	<g>
		<path fill="#3E4F5B" d="M237.6,484.5c0,4.7-1.3,8.3-3.8,10.8s-6.2,3.7-11,3.7h-7.9v-28.6h8.8c4.4,0,7.9,1.2,10.4,3.7
			S237.6,480,237.6,484.5z M234.1,484.6c0-3.7-0.9-6.5-2.8-8.4s-4.6-2.8-8.3-2.8h-4.8v22.8h4c4,0,6.9-1,8.9-2.9
			S234.1,488.4,234.1,484.6z"/>
		<path fill="#3E4F5B" d="M252.3,499.4c-3.2,0-5.7-1-7.5-2.9s-2.7-4.6-2.7-8c0-3.5,0.8-6.2,2.5-8.2s4-3,6.8-3c2.7,0,4.8,0.9,6.4,2.6
			s2.3,4.1,2.3,7v2.1h-14.7c0.1,2.5,0.7,4.4,1.9,5.7s2.9,2,5.1,2c2.3,0,4.6-0.5,6.8-1.4v2.9c-1.1,0.5-2.2,0.8-3.3,1.1
			C255,499.3,253.8,499.4,252.3,499.4z M251.4,479.9c-1.7,0-3.1,0.6-4.1,1.7s-1.6,2.7-1.8,4.6h11.2c0-2-0.5-3.6-1.4-4.7
			C254.4,480.5,253.1,479.9,251.4,479.9z"/>
		<path fill="#3E4F5B" d="M272.4,496.7c0.6,0,1.1,0,1.7-0.1c0.5-0.1,1-0.2,1.3-0.3v2.5c-0.4,0.2-0.9,0.3-1.6,0.4s-1.3,0.2-1.8,0.2
			c-4.1,0-6.2-2.2-6.2-6.5v-12.7h-3.1v-1.6l3.1-1.3l1.4-4.6h1.9v5h6.2v2.5H269v12.6c0,1.3,0.3,2.3,0.9,3
			C270.5,496.4,271.4,496.7,272.4,496.7z"/>
		<path fill="#3E4F5B" d="M288.5,499.4c-3.2,0-5.7-1-7.5-2.9c-1.8-1.9-2.7-4.6-2.7-8c0-3.5,0.8-6.2,2.5-8.2s4-3,6.8-3
			c2.7,0,4.8,0.9,6.4,2.6s2.3,4.1,2.3,7v2.1h-14.7c0.1,2.5,0.7,4.4,1.9,5.7c1.2,1.3,2.9,2,5.1,2c2.3,0,4.6-0.5,6.8-1.4v2.9
			c-1.1,0.5-2.2,0.8-3.3,1.1C291.2,499.3,289.9,499.4,288.5,499.4z M287.6,479.9c-1.7,0-3.1,0.6-4.1,1.7c-1,1.1-1.6,2.7-1.8,4.6
			h11.2c0-2-0.5-3.6-1.4-4.7C290.6,480.5,289.3,479.9,287.6,479.9z"/>
		<path fill="#3E4F5B" d="M311.4,477.2c1,0,1.8,0.1,2.6,0.2l-0.4,3c-0.9-0.2-1.7-0.3-2.3-0.3c-1.7,0-3.2,0.7-4.4,2.1
			s-1.8,3.2-1.8,5.3V499h-3.2v-21.4h2.7l0.4,4h0.2c0.8-1.4,1.8-2.5,2.9-3.2S310.1,477.2,311.4,477.2z"/>
		<path fill="#3E4F5B" d="M345.1,499v-13.9c0-1.7-0.4-3-1.1-3.8s-1.9-1.3-3.4-1.3c-2,0-3.5,0.6-4.5,1.7s-1.4,2.9-1.4,5.4v12h-3.2
			v-13.9c0-1.7-0.4-3-1.1-3.8s-1.9-1.3-3.4-1.3c-2,0-3.5,0.6-4.5,1.8s-1.4,3.2-1.4,6V499h-3.2v-21.4h2.6l0.5,2.9h0.2
			c0.6-1,1.5-1.9,2.6-2.4s2.4-0.9,3.7-0.9c3.3,0,5.5,1.2,6.6,3.6h0.2c0.6-1.1,1.6-2,2.8-2.7s2.6-1,4.1-1c2.4,0,4.2,0.6,5.4,1.9
			s1.8,3.2,1.8,6v14H345.1z"/>
		<path fill="#3E4F5B" d="M354.5,471.8c0-0.7,0.2-1.3,0.5-1.6s0.8-0.5,1.4-0.5c0.5,0,1,0.2,1.3,0.5s0.6,0.9,0.6,1.6
			s-0.2,1.3-0.6,1.6s-0.8,0.5-1.3,0.5c-0.5,0-1-0.2-1.4-0.5S354.5,472.5,354.5,471.8z M358.1,499h-3.2v-21.4h3.2V499z"/>
		<path fill="#3E4F5B" d="M379.4,499v-13.8c0-1.7-0.4-3-1.2-3.9c-0.8-0.9-2-1.3-3.7-1.3c-2.2,0-3.9,0.6-4.9,1.8
			c-1,1.2-1.6,3.2-1.6,6V499h-3.2v-21.4h2.6l0.5,2.9h0.2c0.7-1.1,1.6-1.9,2.8-2.5c1.2-0.6,2.5-0.9,4-0.9c2.6,0,4.5,0.6,5.8,1.9
			c1.3,1.2,2,3.2,2,6v14H379.4z"/>
		<path fill="#3E4F5B" d="M398.1,499.4c-3.2,0-5.7-1-7.5-2.9c-1.8-1.9-2.7-4.6-2.7-8c0-3.5,0.8-6.2,2.5-8.2s4-3,6.8-3
			c2.7,0,4.8,0.9,6.4,2.6s2.3,4.1,2.3,7v2.1h-14.7c0.1,2.5,0.7,4.4,1.9,5.7c1.2,1.3,2.9,2,5.1,2c2.3,0,4.6-0.5,6.8-1.4v2.9
			c-1.1,0.5-2.2,0.8-3.3,1.1C400.8,499.3,399.6,499.4,398.1,499.4z M397.2,479.9c-1.7,0-3.1,0.6-4.1,1.7c-1,1.1-1.6,2.7-1.8,4.6
			h11.2c0-2-0.5-3.6-1.4-4.7C400.2,480.5,398.9,479.9,397.2,479.9z"/>
		<path fill="#3E4F5B" d="M425.9,496.1h-0.2c-1.5,2.2-3.7,3.3-6.7,3.3c-2.8,0-5-1-6.5-2.9s-2.3-4.6-2.3-8.2s0.8-6.3,2.3-8.2
			s3.7-2.9,6.5-2.9c2.9,0,5.1,1.1,6.7,3.2h0.3l-0.1-1.5l-0.1-1.5v-8.7h3.2V499h-2.6L425.9,496.1z M419.4,496.7
			c2.2,0,3.8-0.6,4.8-1.8s1.5-3.1,1.5-5.8v-0.7c0-3-0.5-5.2-1.5-6.5s-2.6-1.9-4.8-1.9c-1.9,0-3.4,0.7-4.4,2.2s-1.5,3.6-1.5,6.3
			c0,2.7,0.5,4.8,1.5,6.2S417.5,496.7,419.4,496.7z"/>
		<path fill="#3E4F5B" d="M455.8,477.2c2.8,0,5,1,6.6,2.9s2.3,4.6,2.3,8.2s-0.8,6.2-2.4,8.2s-3.7,2.9-6.5,2.9
			c-1.4,0-2.7-0.3-3.8-0.8s-2.1-1.3-2.9-2.4h-0.2l-0.7,2.8h-2.3v-30.4h3.2v7.4c0,1.7-0.1,3.1-0.2,4.5h0.2
			C450.6,478.3,452.8,477.2,455.8,477.2z M455.3,480c-2.2,0-3.8,0.6-4.8,1.9s-1.5,3.4-1.5,6.4s0.5,5.2,1.5,6.5s2.6,1.9,4.8,1.9
			c2,0,3.5-0.7,4.5-2.2s1.5-3.5,1.5-6.3c0-2.8-0.5-4.9-1.5-6.2S457.4,480,455.3,480z"/>
		<path fill="#3E4F5B" d="M466.7,477.6h3.5l4.7,12.2c1,2.8,1.7,4.8,1.9,6h0.2c0.2-0.7,0.5-1.8,1.1-3.4c0.5-1.6,2.3-6.6,5.3-14.8h3.5
			l-9.2,24.4c-0.9,2.4-2,4.1-3.2,5.1c-1.2,1-2.7,1.5-4.5,1.5c-1,0-2-0.1-2.9-0.3v-2.6c0.7,0.2,1.5,0.2,2.4,0.2
			c2.2,0,3.8-1.2,4.8-3.8l1.2-3L466.7,477.6z"/>
		<path fill="#3E4F5B" d="M522.5,499h-3.3v-13.4h-15V499h-3.3v-28.6h3.3v12.1h15v-12.1h3.3V499z"/>
		<path fill="#3E4F5B" d="M542.3,473c-3.1,0-5.6,1-7.4,3.1s-2.7,5-2.7,8.6c0,3.7,0.9,6.6,2.6,8.7s4.2,3.1,7.5,3.1
			c2,0,4.3-0.4,6.8-1.1v2.9c-2,0.7-4.4,1.1-7.3,1.1c-4.2,0-7.5-1.3-9.7-3.8s-3.4-6.2-3.4-10.9c0-2.9,0.5-5.5,1.7-7.7
			s2.7-3.9,4.8-5.1s4.5-1.8,7.3-1.8c3,0,5.6,0.5,7.9,1.6l-1.4,2.9C546.6,473.5,544.5,473,542.3,473z"/>
		<path fill="#3E4F5B" d="M573.2,478.8c0,2.9-1,5.1-3,6.7s-4.8,2.3-8.5,2.3h-3.4V499h-3.3v-28.6h7.4
			C569.7,470.4,573.2,473.2,573.2,478.8z M558.4,484.9h3c2.9,0,5.1-0.5,6.4-1.4s2-2.5,2-4.6c0-1.9-0.6-3.3-1.9-4.2s-3.2-1.4-5.8-1.4
			h-3.7V484.9z"/>
	</g>
	<g>
		<path fill="#25B4FF" d="M232,428.5l-2.1-6.8h-10.4l-2.1,6.8h-6.5l10.1-28.7h7.4l10.1,28.7H232z M228.4,416.6
			c-1.9-6.2-3-9.6-3.2-10.4c-0.2-0.8-0.4-1.4-0.5-1.9c-0.4,1.7-1.7,5.8-3.7,12.4H228.4z"/>
		<path fill="#25B4FF" d="M267.2,428.5h-7.7l-12.4-21.6h-0.2c0.2,3.8,0.4,6.5,0.4,8.2v13.4h-5.4V400h7.6l12.4,21.4h0.1
			c-0.2-3.7-0.3-6.3-0.3-7.9V400h5.4V428.5z"/>
		<path fill="#25B4FF" d="M291.7,428.5l-2.1-6.8h-10.4l-2.1,6.8h-6.5l10.1-28.7h7.4l10.1,28.7H291.7z M288.2,416.6
			c-1.9-6.2-3-9.6-3.2-10.4c-0.2-0.8-0.4-1.4-0.5-1.9c-0.4,1.7-1.7,5.8-3.7,12.4H288.2z"/>
		<path fill="#25B4FF" d="M301.6,428.5V400h6.1v23.6h11.6v5H301.6z"/>
		<path fill="#25B4FF" d="M349.9,414.2c0,4.7-1.2,8.4-3.5,10.9s-5.7,3.8-10.1,3.8s-7.7-1.3-10.1-3.8s-3.5-6.2-3.5-10.9
			c0-4.8,1.2-8.4,3.5-10.9c2.3-2.5,5.7-3.8,10.1-3.8c4.4,0,7.7,1.3,10.1,3.8C348.7,405.8,349.9,409.5,349.9,414.2z M329.1,414.2
			c0,3.2,0.6,5.6,1.8,7.2c1.2,1.6,3,2.4,5.4,2.4c4.8,0,7.2-3.2,7.2-9.6c0-6.4-2.4-9.6-7.2-9.6c-2.4,0-4.2,0.8-5.4,2.4
			C329.7,408.6,329.1,411,329.1,414.2z"/>
		<path fill="#25B4FF" d="M366.5,412.5h11.3v14.8c-1.8,0.6-3.6,1-5.2,1.3c-1.6,0.2-3.3,0.4-5,0.4c-4.3,0-7.6-1.3-9.9-3.8
			c-2.3-2.5-3.4-6.2-3.4-10.9c0-4.6,1.3-8.2,4-10.8s6.3-3.9,11-3.9c2.9,0,5.8,0.6,8.5,1.8l-2,4.8c-2.1-1-4.3-1.6-6.5-1.6
			c-2.6,0-4.7,0.9-6.3,2.6c-1.6,1.8-2.4,4.1-2.4,7.1c0,3.1,0.6,5.5,1.9,7.1c1.3,1.6,3.1,2.5,5.5,2.5c1.3,0,2.5-0.1,3.8-0.4v-6h-5.4
			V412.5z"/>
		<path fill="#25B4FF" d="M407.6,400v18.5c0,2.1-0.5,4-1.4,5.5c-0.9,1.6-2.3,2.8-4.1,3.7c-1.8,0.8-3.9,1.3-6.3,1.3
			c-3.7,0-6.5-0.9-8.6-2.8c-2-1.9-3-4.5-3-7.7V400h6v17.5c0,2.2,0.4,3.8,1.3,4.8c0.9,1,2.3,1.5,4.4,1.5c2,0,3.4-0.5,4.3-1.6
			c0.9-1,1.3-2.7,1.3-4.9V400H407.6z"/>
		<path fill="#25B4FF" d="M430.9,428.5h-16.4V400h16.4v5h-10.4v6.3h9.7v5h-9.7v7.4h10.4V428.5z"/>
		<path fill="#25B4FF" d="M464.3,428.5l-2.1-6.8h-10.4l-2.1,6.8h-6.5l10.1-28.7h7.4l10.1,28.7H464.3z M460.8,416.6
			c-1.9-6.2-3-9.6-3.2-10.4c-0.2-0.8-0.4-1.4-0.5-1.9c-0.4,1.7-1.7,5.8-3.7,12.4H460.8z"/>
		<path fill="#25B4FF" d="M485,412.5h11.3v14.8c-1.8,0.6-3.6,1-5.2,1.3c-1.6,0.2-3.3,0.4-5,0.4c-4.3,0-7.6-1.3-9.9-3.8
			c-2.3-2.5-3.4-6.2-3.4-10.9c0-4.6,1.3-8.2,4-10.8s6.3-3.9,11-3.9c2.9,0,5.8,0.6,8.5,1.8l-2,4.8c-2.1-1-4.3-1.6-6.5-1.6
			c-2.6,0-4.7,0.9-6.3,2.6c-1.6,1.8-2.4,4.1-2.4,7.1c0,3.1,0.6,5.5,1.9,7.1c1.3,1.6,3.1,2.5,5.5,2.5c1.3,0,2.5-0.1,3.8-0.4v-6H485
			V412.5z"/>
		<path fill="#25B4FF" d="M519.4,428.5H503V400h16.4v5H509v6.3h9.7v5H509v7.4h10.4V428.5z"/>
	</g>
	
		<line fill="none" stroke="#3A4F5A" stroke-width="2" stroke-linecap="round" stroke-miterlimit="10" x1="166.6" y1="445.3" x2="1018.9" y2="445.3"/>
	<g>
		<path fill="#3E4F5B" d="M239.6,714.6c0,4.6-1.2,8.2-3.5,10.8s-5.5,3.9-9.6,3.9c-4.2,0-7.5-1.3-9.7-3.9s-3.4-6.2-3.4-10.9
			c0-4.6,1.1-8.3,3.4-10.8s5.5-3.8,9.8-3.8c4.1,0,7.3,1.3,9.6,3.9S239.6,710,239.6,714.6z M216.8,714.6c0,3.9,0.8,6.8,2.5,8.8
			s4,3,7.2,3c3.2,0,5.6-1,7.2-3s2.4-4.9,2.4-8.8c0-3.8-0.8-6.8-2.4-8.7s-4-3-7.1-3c-3.2,0-5.6,1-7.2,3S216.8,710.8,216.8,714.6z"/>
		<path fill="#3E4F5B" d="M255.2,729.3c-1.4,0-2.7-0.3-3.8-0.8s-2.1-1.3-2.9-2.4h-0.2c0.2,1.2,0.2,2.4,0.2,3.6v8.8h-3.2v-31h2.6
			l0.4,2.9h0.2c0.8-1.2,1.8-2,2.9-2.5s2.4-0.8,3.8-0.8c2.8,0,5,1,6.6,2.9s2.3,4.7,2.3,8.2c0,3.5-0.8,6.2-2.4,8.2
			S258,729.3,255.2,729.3z M254.8,709.9c-2.2,0-3.8,0.6-4.7,1.8s-1.5,3.1-1.5,5.8v0.7c0,3,0.5,5.2,1.5,6.5s2.6,1.9,4.8,1.9
			c1.8,0,3.3-0.7,4.3-2.2s1.6-3.6,1.6-6.2c0-2.7-0.5-4.7-1.6-6.1S256.7,709.9,254.8,709.9z"/>
		<path fill="#3E4F5B" d="M269.3,701.7c0-0.7,0.2-1.3,0.5-1.6c0.4-0.3,0.8-0.5,1.4-0.5c0.5,0,1,0.2,1.3,0.5c0.4,0.4,0.6,0.9,0.6,1.6
			s-0.2,1.3-0.6,1.6c-0.4,0.4-0.8,0.5-1.3,0.5c-0.5,0-1-0.2-1.4-0.5C269.5,703,269.3,702.5,269.3,701.7z M272.8,728.9h-3.2v-21.4
			h3.2V728.9z"/>
		<path fill="#3E4F5B" d="M294.1,728.9v-13.8c0-1.7-0.4-3-1.2-3.9c-0.8-0.9-2-1.3-3.7-1.3c-2.2,0-3.9,0.6-4.9,1.8
			c-1,1.2-1.6,3.2-1.6,6v11.2h-3.2v-21.4h2.6l0.5,2.9h0.2c0.7-1.1,1.6-1.9,2.8-2.5c1.2-0.6,2.5-0.9,4-0.9c2.6,0,4.5,0.6,5.8,1.9
			c1.3,1.2,2,3.2,2,6v14H294.1z"/>
		<path fill="#3E4F5B" d="M303.6,701.7c0-0.7,0.2-1.3,0.5-1.6s0.8-0.5,1.4-0.5c0.5,0,1,0.2,1.3,0.5s0.6,0.9,0.6,1.6
			s-0.2,1.3-0.6,1.6s-0.8,0.5-1.3,0.5c-0.5,0-1-0.2-1.4-0.5S303.6,702.5,303.6,701.7z M307.1,728.9h-3.2v-21.4h3.2V728.9z"/>
		<path fill="#3E4F5B" d="M332.2,718.2c0,3.5-0.9,6.2-2.6,8.2s-4.2,2.9-7.3,2.9c-1.9,0-3.6-0.4-5.1-1.3s-2.6-2.2-3.4-3.9
			s-1.2-3.6-1.2-5.9c0-3.5,0.9-6.2,2.6-8.2s4.2-2.9,7.3-2.9c3,0,5.4,1,7.1,3S332.2,714.8,332.2,718.2z M315.9,718.2
			c0,2.7,0.5,4.8,1.6,6.2s2.7,2.1,4.8,2.1s3.7-0.7,4.8-2.1s1.7-3.5,1.7-6.3c0-2.7-0.5-4.8-1.7-6.2s-2.7-2.1-4.9-2.1
			c-2.1,0-3.7,0.7-4.8,2.1S315.9,715.5,315.9,718.2z"/>
		<path fill="#3E4F5B" d="M352.4,728.9v-13.8c0-1.7-0.4-3-1.2-3.9s-2-1.3-3.7-1.3c-2.2,0-3.9,0.6-4.9,1.8s-1.6,3.2-1.6,6v11.2h-3.2
			v-21.4h2.6l0.5,2.9h0.2c0.7-1.1,1.6-1.9,2.8-2.5s2.5-0.9,4-0.9c2.6,0,4.5,0.6,5.8,1.9s2,3.2,2,6v14H352.4z"/>
		<path fill="#3E4F5B" d="M375.9,723.1c0,2-0.7,3.5-2.2,4.6s-3.6,1.6-6.2,1.6c-2.8,0-5.1-0.4-6.6-1.3v-3c1,0.5,2.1,0.9,3.3,1.2
			c1.2,0.3,2.3,0.4,3.4,0.4c1.7,0,3-0.3,3.9-0.8c0.9-0.5,1.4-1.4,1.4-2.5c0-0.8-0.4-1.5-1.1-2.1s-2.1-1.3-4.2-2.1
			c-2-0.7-3.4-1.4-4.2-1.9s-1.5-1.2-1.9-1.9s-0.6-1.5-0.6-2.5c0-1.7,0.7-3.1,2.1-4.1c1.4-1,3.4-1.5,5.8-1.5c2.3,0,4.6,0.5,6.8,1.4
			l-1.2,2.6c-2.1-0.9-4.1-1.3-5.8-1.3c-1.5,0-2.7,0.2-3.5,0.7s-1.2,1.1-1.2,2c0,0.6,0.1,1.1,0.4,1.5s0.8,0.8,1.4,1.2
			c0.7,0.4,1.9,0.9,3.8,1.6c2.5,0.9,4.3,1.9,5.1,2.8C375.4,720.5,375.9,721.7,375.9,723.1z"/>
		<path fill="#3E4F5B" d="M404.3,728.9l-0.6-3h-0.2c-1.1,1.3-2.1,2.2-3.2,2.7s-2.4,0.7-4,0.7c-2.1,0-3.8-0.5-5-1.6s-1.8-2.6-1.8-4.7
			c0-4.3,3.5-6.6,10.4-6.8l3.6-0.1v-1.3c0-1.7-0.4-2.9-1.1-3.7s-1.9-1.2-3.5-1.2c-1.8,0-3.8,0.5-6.1,1.6l-1-2.5
			c1.1-0.6,2.2-1,3.5-1.3s2.5-0.5,3.8-0.5c2.6,0,4.4,0.6,5.7,1.7s1.8,2.9,1.8,5.4v14.6H404.3z M397,726.7c2,0,3.6-0.6,4.8-1.7
			s1.7-2.7,1.7-4.6v-1.9l-3.2,0.1c-2.6,0.1-4.4,0.5-5.6,1.2s-1.7,1.8-1.7,3.3c0,1.2,0.4,2.1,1.1,2.7S395.7,726.7,397,726.7z"/>
		<path fill="#3E4F5B" d="M427.8,728.9v-13.8c0-1.7-0.4-3-1.2-3.9s-2-1.3-3.7-1.3c-2.2,0-3.9,0.6-4.9,1.8s-1.6,3.2-1.6,6v11.2h-3.2
			v-21.4h2.6l0.5,2.9h0.2c0.7-1.1,1.6-1.9,2.8-2.5s2.5-0.9,4-0.9c2.6,0,4.5,0.6,5.8,1.9s2,3.2,2,6v14H427.8z"/>
		<path fill="#3E4F5B" d="M452.1,726.1h-0.2c-1.5,2.2-3.7,3.3-6.7,3.3c-2.8,0-5-1-6.5-2.9s-2.3-4.6-2.3-8.2s0.8-6.3,2.3-8.2
			s3.7-2.9,6.5-2.9c2.9,0,5.1,1.1,6.7,3.2h0.3l-0.1-1.5l-0.1-1.5v-8.7h3.2v30.4h-2.6L452.1,726.1z M445.6,726.6
			c2.2,0,3.8-0.6,4.8-1.8s1.5-3.1,1.5-5.8v-0.7c0-3-0.5-5.2-1.5-6.5s-2.6-1.9-4.8-1.9c-1.9,0-3.4,0.7-4.4,2.2s-1.5,3.6-1.5,6.3
			c0,2.7,0.5,4.8,1.5,6.2S443.7,726.6,445.6,726.6z"/>
		<path fill="#3E4F5B" d="M481.1,729.3c-3.2,0-5.7-1-7.5-2.9c-1.8-1.9-2.7-4.6-2.7-8c0-3.5,0.8-6.2,2.5-8.2s4-3,6.8-3
			c2.7,0,4.8,0.9,6.4,2.6s2.3,4.1,2.3,7v2.1h-14.7c0.1,2.5,0.7,4.4,1.9,5.7c1.2,1.3,2.9,2,5.1,2c2.3,0,4.6-0.5,6.8-1.4v2.9
			c-1.1,0.5-2.2,0.8-3.3,1.1C483.8,729.2,482.5,729.3,481.1,729.3z M480.2,709.9c-1.7,0-3.1,0.6-4.1,1.7c-1,1.1-1.6,2.7-1.8,4.6
			h11.2c0-2-0.5-3.6-1.4-4.7C483.2,710.4,481.9,709.9,480.2,709.9z"/>
		<path fill="#3E4F5B" d="M499,728.9l-8.1-21.4h3.5l4.6,12.7c1,3,1.7,4.9,1.8,5.8h0.2c0.1-0.7,0.6-2.1,1.4-4.3s2.5-6.9,5.1-14.2h3.5
			l-8.1,21.4H499z"/>
		<path fill="#3E4F5B" d="M527.3,728.9l-0.6-3h-0.2c-1.1,1.3-2.1,2.2-3.2,2.7s-2.4,0.7-4,0.7c-2.1,0-3.8-0.5-5-1.6s-1.8-2.6-1.8-4.7
			c0-4.3,3.5-6.6,10.4-6.8l3.6-0.1v-1.3c0-1.7-0.4-2.9-1.1-3.7s-1.9-1.2-3.5-1.2c-1.8,0-3.8,0.5-6.1,1.6l-1-2.5
			c1.1-0.6,2.2-1,3.5-1.3s2.5-0.5,3.8-0.5c2.6,0,4.4,0.6,5.7,1.7s1.8,2.9,1.8,5.4v14.6H527.3z M520,726.7c2,0,3.6-0.6,4.8-1.7
			s1.7-2.7,1.7-4.6v-1.9l-3.2,0.1c-2.6,0.1-4.4,0.5-5.6,1.2s-1.7,1.8-1.7,3.3c0,1.2,0.4,2.1,1.1,2.7S518.7,726.7,520,726.7z"/>
		<path fill="#3E4F5B" d="M539.4,728.9h-3.2v-30.4h3.2V728.9z"/>
		<path fill="#3E4F5B" d="M549.1,707.5v13.9c0,1.7,0.4,3,1.2,3.9c0.8,0.9,2,1.3,3.7,1.3c2.2,0,3.9-0.6,4.9-1.8s1.6-3.2,1.6-6v-11.2
			h3.2v21.4h-2.7l-0.5-2.9h-0.2c-0.7,1.1-1.6,1.9-2.8,2.4c-1.2,0.6-2.5,0.8-4,0.8c-2.6,0-4.6-0.6-5.8-1.9c-1.3-1.2-1.9-3.2-1.9-5.9
			v-14H549.1z"/>
		<path fill="#3E4F5B" d="M583.6,728.9l-0.6-3h-0.2c-1.1,1.3-2.1,2.2-3.2,2.7c-1.1,0.5-2.4,0.7-4,0.7c-2.1,0-3.8-0.5-5-1.6
			c-1.2-1.1-1.8-2.6-1.8-4.7c0-4.3,3.5-6.6,10.4-6.8l3.6-0.1v-1.3c0-1.7-0.4-2.9-1.1-3.7s-1.9-1.2-3.5-1.2c-1.8,0-3.8,0.5-6.1,1.6
			l-1-2.5c1.1-0.6,2.2-1,3.5-1.3c1.3-0.3,2.5-0.5,3.8-0.5c2.6,0,4.4,0.6,5.7,1.7s1.8,2.9,1.8,5.4v14.6H583.6z M576.3,726.7
			c2,0,3.6-0.6,4.8-1.7s1.7-2.7,1.7-4.6v-1.9l-3.2,0.1c-2.6,0.1-4.4,0.5-5.6,1.2c-1.1,0.7-1.7,1.8-1.7,3.3c0,1.2,0.4,2.1,1.1,2.7
			C574,726.4,575,726.7,576.3,726.7z"/>
		<path fill="#3E4F5B" d="M599.4,726.7c0.6,0,1.1,0,1.7-0.1s1-0.2,1.3-0.3v2.5c-0.4,0.2-0.9,0.3-1.6,0.4s-1.3,0.2-1.8,0.2
			c-4.1,0-6.2-2.2-6.2-6.5v-12.7h-3.1v-1.6l3.1-1.3l1.4-4.6h1.9v5h6.2v2.5H596v12.6c0,1.3,0.3,2.3,0.9,3S598.3,726.7,599.4,726.7z"
			/>
		<path fill="#3E4F5B" d="M615.5,729.3c-3.2,0-5.7-1-7.5-2.9s-2.7-4.6-2.7-8c0-3.5,0.8-6.2,2.5-8.2s4-3,6.8-3c2.7,0,4.8,0.9,6.4,2.6
			s2.3,4.1,2.3,7v2.1h-14.7c0.1,2.5,0.7,4.4,1.9,5.7s2.9,2,5.1,2c2.3,0,4.6-0.5,6.8-1.4v2.9c-1.1,0.5-2.2,0.8-3.3,1.1
			S616.9,729.3,615.5,729.3z M614.6,709.9c-1.7,0-3.1,0.6-4.1,1.7s-1.6,2.7-1.8,4.6h11.2c0-2-0.5-3.6-1.4-4.7
			S616.3,709.9,614.6,709.9z"/>
		<path fill="#3E4F5B" d="M653.4,726.1h-0.2c-1.5,2.2-3.7,3.3-6.7,3.3c-2.8,0-5-1-6.5-2.9c-1.6-1.9-2.3-4.6-2.3-8.2s0.8-6.3,2.3-8.2
			s3.7-2.9,6.5-2.9c2.9,0,5.1,1.1,6.7,3.2h0.3l-0.1-1.5l-0.1-1.5v-8.7h3.2v30.4h-2.6L653.4,726.1z M646.9,726.6
			c2.2,0,3.8-0.6,4.8-1.8s1.5-3.1,1.5-5.8v-0.7c0-3-0.5-5.2-1.5-6.5c-1-1.3-2.6-1.9-4.8-1.9c-1.9,0-3.4,0.7-4.4,2.2
			c-1,1.5-1.5,3.6-1.5,6.3c0,2.7,0.5,4.8,1.5,6.2C643.5,725.9,645,726.6,646.9,726.6z"/>
		<path fill="#3E4F5B" d="M672.9,707.1c1,0,1.8,0.1,2.6,0.2l-0.4,3c-0.9-0.2-1.7-0.3-2.3-0.3c-1.7,0-3.2,0.7-4.4,2.1
			s-1.8,3.2-1.8,5.3v11.5h-3.2v-21.4h2.7l0.4,4h0.2c0.8-1.4,1.8-2.5,2.9-3.2C670.3,707.5,671.6,707.1,672.9,707.1z"/>
		<path fill="#3E4F5B" d="M682.3,707.5v13.9c0,1.7,0.4,3,1.2,3.9s2,1.3,3.7,1.3c2.2,0,3.9-0.6,4.9-1.8s1.6-3.2,1.6-6v-11.2h3.2v21.4
			h-2.7l-0.5-2.9h-0.2c-0.7,1.1-1.6,1.9-2.8,2.4s-2.5,0.8-4,0.8c-2.6,0-4.6-0.6-5.8-1.9s-1.9-3.2-1.9-5.9v-14H682.3z"/>
		<path fill="#3E4F5B" d="M721.2,707.5v2.1l-4,0.5c0.4,0.5,0.7,1.1,1,1.8s0.4,1.6,0.4,2.5c0,2.1-0.7,3.8-2.1,5s-3.4,1.9-5.9,1.9
			c-0.6,0-1.2-0.1-1.8-0.2c-1.4,0.7-2.1,1.6-2.1,2.8c0,0.6,0.2,1,0.7,1.3s1.3,0.4,2.5,0.4h3.8c2.3,0,4.1,0.5,5.3,1.5
			s1.9,2.4,1.9,4.3c0,2.4-1,4.2-2.9,5.4s-4.7,1.9-8.3,1.9c-2.8,0-5-0.5-6.5-1.6s-2.3-2.5-2.3-4.4c0-1.3,0.4-2.4,1.2-3.4
			s2-1.6,3.5-1.9c-0.5-0.2-1-0.6-1.4-1.2s-0.6-1.1-0.6-1.8c0-0.8,0.2-1.5,0.6-2.1s1.1-1.2,2-1.7c-1.1-0.5-2-1.2-2.7-2.3
			s-1-2.3-1-3.8c0-2.3,0.7-4.2,2.1-5.4s3.4-1.9,6-1.9c1.1,0,2.1,0.1,3,0.4H721.2z M704.1,732.5c0,1.2,0.5,2,1.5,2.6s2.4,0.9,4.2,0.9
			c2.7,0,4.7-0.4,6-1.2s2-1.9,2-3.3c0-1.2-0.4-2-1.1-2.4s-2.1-0.7-4-0.7h-3.9c-1.5,0-2.6,0.4-3.4,1.1S704.1,731.2,704.1,732.5z
			 M705.8,714.4c0,1.5,0.4,2.6,1.3,3.4s2,1.2,3.5,1.2c3.2,0,4.7-1.5,4.7-4.6c0-3.2-1.6-4.8-4.8-4.8c-1.5,0-2.7,0.4-3.5,1.2
			S705.8,712.8,705.8,714.4z"/>
		<path fill="#3E4F5B" d="M754,718.2c0,3.5-0.9,6.2-2.6,8.2s-4.2,2.9-7.3,2.9c-1.9,0-3.6-0.4-5.1-1.3s-2.6-2.2-3.4-3.9
			s-1.2-3.6-1.2-5.9c0-3.5,0.9-6.2,2.6-8.2s4.2-2.9,7.3-2.9c3,0,5.4,1,7.1,3S754,714.8,754,718.2z M737.7,718.2
			c0,2.7,0.5,4.8,1.6,6.2s2.7,2.1,4.8,2.1s3.7-0.7,4.8-2.1s1.7-3.5,1.7-6.3c0-2.7-0.5-4.8-1.7-6.2s-2.7-2.1-4.9-2.1
			c-2.1,0-3.7,0.7-4.8,2.1S737.7,715.5,737.7,718.2z"/>
		<path fill="#3E4F5B" d="M774.1,728.9v-13.8c0-1.7-0.4-3-1.2-3.9s-2-1.3-3.7-1.3c-2.2,0-3.9,0.6-4.9,1.8s-1.6,3.2-1.6,6v11.2h-3.2
			v-21.4h2.6l0.5,2.9h0.2c0.7-1.1,1.6-1.9,2.8-2.5s2.5-0.9,4-0.9c2.6,0,4.5,0.6,5.8,1.9s2,3.2,2,6v14H774.1z"/>
		<path fill="#3E4F5B" d="M787.1,728.9h-3.2v-30.4h3.2V728.9z"/>
		<path fill="#3E4F5B" d="M793.5,701.7c0-0.7,0.2-1.3,0.5-1.6s0.8-0.5,1.4-0.5c0.5,0,1,0.2,1.3,0.5s0.6,0.9,0.6,1.6
			s-0.2,1.3-0.6,1.6s-0.8,0.5-1.3,0.5c-0.5,0-1-0.2-1.4-0.5S793.5,702.5,793.5,701.7z M797,728.9h-3.2v-21.4h3.2V728.9z"/>
		<path fill="#3E4F5B" d="M818.3,728.9v-13.8c0-1.7-0.4-3-1.2-3.9s-2-1.3-3.7-1.3c-2.2,0-3.9,0.6-4.9,1.8s-1.6,3.2-1.6,6v11.2h-3.2
			v-21.4h2.6l0.5,2.9h0.2c0.7-1.1,1.6-1.9,2.8-2.5s2.5-0.9,4-0.9c2.6,0,4.5,0.6,5.8,1.9s2,3.2,2,6v14H818.3z"/>
		<path fill="#3E4F5B" d="M837.1,729.3c-3.2,0-5.7-1-7.5-2.9s-2.7-4.6-2.7-8c0-3.5,0.8-6.2,2.5-8.2s4-3,6.8-3c2.7,0,4.8,0.9,6.4,2.6
			s2.3,4.1,2.3,7v2.1h-14.7c0.1,2.5,0.7,4.4,1.9,5.7s2.9,2,5.1,2c2.3,0,4.6-0.5,6.8-1.4v2.9c-1.1,0.5-2.2,0.8-3.3,1.1
			S838.5,729.3,837.1,729.3z M836.2,709.9c-1.7,0-3.1,0.6-4.1,1.7s-1.6,2.7-1.8,4.6h11.2c0-2-0.5-3.6-1.4-4.7
			S837.9,709.9,836.2,709.9z"/>
		<path fill="#3E4F5B" d="M214,749.7c0-0.7,0.2-1.3,0.5-1.6s0.8-0.5,1.4-0.5c0.5,0,1,0.2,1.3,0.5s0.6,0.9,0.6,1.6s-0.2,1.3-0.6,1.6
			s-0.8,0.5-1.3,0.5c-0.5,0-1-0.2-1.4-0.5S214,750.5,214,749.7z M217.6,776.9h-3.2v-21.4h3.2V776.9z"/>
		<path fill="#3E4F5B" d="M238.9,776.9v-13.8c0-1.7-0.4-3-1.2-3.9s-2-1.3-3.7-1.3c-2.2,0-3.9,0.6-4.9,1.8s-1.6,3.2-1.6,6v11.2h-3.2
			v-21.4h2.6l0.5,2.9h0.2c0.7-1.1,1.6-1.9,2.8-2.5s2.5-0.9,4-0.9c2.6,0,4.5,0.6,5.8,1.9s2,3.2,2,6v14H238.9z"/>
		<path fill="#3E4F5B" d="M258.2,758.1h-5.4v18.9h-3.2v-18.9h-3.8v-1.5l3.8-1.2v-1.2c0-5.3,2.3-7.9,6.9-7.9c1.1,0,2.5,0.2,4,0.7
			l-0.8,2.6c-1.2-0.4-2.3-0.6-3.2-0.6c-1.2,0-2.1,0.4-2.7,1.2s-0.9,2.1-0.9,3.9v1.4h5.4V758.1z M265.4,776.9h-3.2v-30.4h3.2V776.9z"
			/>
		<path fill="#3E4F5B" d="M275.1,755.5v13.9c0,1.7,0.4,3,1.2,3.9c0.8,0.9,2,1.3,3.7,1.3c2.2,0,3.9-0.6,4.9-1.8s1.6-3.2,1.6-6v-11.2
			h3.2v21.4h-2.7l-0.5-2.9h-0.2c-0.7,1.1-1.6,1.9-2.8,2.4c-1.2,0.6-2.5,0.8-4,0.8c-2.6,0-4.6-0.6-5.8-1.9c-1.3-1.2-1.9-3.2-1.9-5.9
			v-14H275.1z"/>
		<path fill="#3E4F5B" d="M305.4,777.3c-3.2,0-5.7-1-7.5-2.9s-2.7-4.6-2.7-8c0-3.5,0.8-6.2,2.5-8.2s4-3,6.8-3c2.7,0,4.8,0.9,6.4,2.6
			s2.3,4.1,2.3,7v2.1h-14.7c0.1,2.5,0.7,4.4,1.9,5.7s2.9,2,5.1,2c2.3,0,4.6-0.5,6.8-1.4v2.9c-1.1,0.5-2.2,0.8-3.3,1.1
			S306.9,777.3,305.4,777.3z M304.6,757.9c-1.7,0-3.1,0.6-4.1,1.7s-1.6,2.7-1.8,4.6h11.2c0-2-0.5-3.6-1.4-4.7
			S306.3,757.9,304.6,757.9z"/>
		<path fill="#3E4F5B" d="M333.3,776.9v-13.8c0-1.7-0.4-3-1.2-3.9s-2-1.3-3.7-1.3c-2.2,0-3.9,0.6-4.9,1.8s-1.6,3.2-1.6,6v11.2h-3.2
			v-21.4h2.6l0.5,2.9h0.2c0.7-1.1,1.6-1.9,2.8-2.5s2.5-0.9,4-0.9c2.6,0,4.5,0.6,5.8,1.9s2,3.2,2,6v14H333.3z"/>
		<path fill="#3E4F5B" d="M351.6,777.3c-3.1,0-5.5-1-7.2-2.9s-2.5-4.6-2.5-8.1c0-3.6,0.9-6.3,2.6-8.3s4.2-2.9,7.4-2.9
			c1,0,2.1,0.1,3.1,0.3s1.8,0.5,2.4,0.8l-1,2.8c-0.7-0.3-1.5-0.5-2.3-0.7s-1.6-0.3-2.2-0.3c-4.3,0-6.5,2.8-6.5,8.3
			c0,2.6,0.5,4.6,1.6,6.1s2.6,2.1,4.7,2.1c1.8,0,3.6-0.4,5.5-1.2v2.9C355.5,777,353.7,777.3,351.6,777.3z"/>
		<path fill="#3E4F5B" d="M370.9,777.3c-3.2,0-5.7-1-7.5-2.9c-1.8-1.9-2.7-4.6-2.7-8c0-3.5,0.8-6.2,2.5-8.2s4-3,6.8-3
			c2.7,0,4.8,0.9,6.4,2.6s2.3,4.1,2.3,7v2.1H364c0.1,2.5,0.7,4.4,1.9,5.7c1.2,1.3,2.9,2,5.1,2c2.3,0,4.6-0.5,6.8-1.4v2.9
			c-1.1,0.5-2.2,0.8-3.3,1.1C373.6,777.2,372.3,777.3,370.9,777.3z M370,757.9c-1.7,0-3.1,0.6-4.1,1.7c-1,1.1-1.6,2.7-1.8,4.6h11.2
			c0-2-0.5-3.6-1.4-4.7C373,758.4,371.7,757.9,370,757.9z"/>
		<path fill="#3E4F5B" d="M401.2,774.7c0.6,0,1.1,0,1.7-0.1s1-0.2,1.3-0.3v2.5c-0.4,0.2-0.9,0.3-1.6,0.4s-1.3,0.2-1.8,0.2
			c-4.1,0-6.2-2.2-6.2-6.5v-12.7h-3.1v-1.6l3.1-1.3l1.4-4.6h1.9v5h6.2v2.5h-6.2v12.6c0,1.3,0.3,2.3,0.9,3S400.1,774.7,401.2,774.7z"
			/>
		<path fill="#3E4F5B" d="M418,755.1c1,0,1.8,0.1,2.6,0.2l-0.4,3c-0.9-0.2-1.7-0.3-2.3-0.3c-1.7,0-3.2,0.7-4.4,2.1s-1.8,3.2-1.8,5.3
			v11.5h-3.2v-21.4h2.7l0.4,4h0.2c0.8-1.4,1.8-2.5,2.9-3.2S416.6,755.1,418,755.1z"/>
		<path fill="#3E4F5B" d="M433.4,777.3c-3.2,0-5.7-1-7.5-2.9s-2.7-4.6-2.7-8c0-3.5,0.8-6.2,2.5-8.2s4-3,6.8-3c2.7,0,4.8,0.9,6.4,2.6
			s2.3,4.1,2.3,7v2.1h-14.7c0.1,2.5,0.7,4.4,1.9,5.7s2.9,2,5.1,2c2.3,0,4.6-0.5,6.8-1.4v2.9c-1.1,0.5-2.2,0.8-3.3,1.1
			S434.8,777.3,433.4,777.3z M432.5,757.9c-1.7,0-3.1,0.6-4.1,1.7s-1.6,2.7-1.8,4.6h11.2c0-2-0.5-3.6-1.4-4.7
			S434.2,757.9,432.5,757.9z"/>
		<path fill="#3E4F5B" d="M459.7,776.9l-0.6-3h-0.2c-1.1,1.3-2.1,2.2-3.2,2.7c-1.1,0.5-2.4,0.7-4,0.7c-2.1,0-3.8-0.5-5-1.6
			c-1.2-1.1-1.8-2.6-1.8-4.7c0-4.3,3.5-6.6,10.4-6.8l3.6-0.1v-1.3c0-1.7-0.4-2.9-1.1-3.7s-1.9-1.2-3.5-1.2c-1.8,0-3.8,0.5-6.1,1.6
			l-1-2.5c1.1-0.6,2.2-1,3.5-1.3c1.3-0.3,2.5-0.5,3.8-0.5c2.6,0,4.4,0.6,5.7,1.7s1.8,2.9,1.8,5.4v14.6H459.7z M452.4,774.7
			c2,0,3.6-0.6,4.8-1.7s1.7-2.7,1.7-4.6v-1.9l-3.2,0.1c-2.6,0.1-4.4,0.5-5.6,1.2c-1.1,0.7-1.7,1.8-1.7,3.3c0,1.2,0.4,2.1,1.1,2.7
			C450.1,774.4,451.1,774.7,452.4,774.7z"/>
		<path fill="#3E4F5B" d="M475.5,774.7c0.6,0,1.1,0,1.7-0.1c0.5-0.1,1-0.2,1.3-0.3v2.5c-0.4,0.2-0.9,0.3-1.6,0.4s-1.3,0.2-1.8,0.2
			c-4.1,0-6.2-2.2-6.2-6.5v-12.7h-3.1v-1.6l3.1-1.3l1.4-4.6h1.9v5h6.2v2.5h-6.2v12.6c0,1.3,0.3,2.3,0.9,3
			C473.6,774.3,474.5,774.7,475.5,774.7z"/>
		<path fill="#3E4F5B" d="M509.8,776.9V763c0-1.7-0.4-3-1.1-3.8s-1.9-1.3-3.4-1.3c-2,0-3.5,0.6-4.5,1.7s-1.4,2.9-1.4,5.4v12h-3.2
			V763c0-1.7-0.4-3-1.1-3.8s-1.9-1.3-3.4-1.3c-2,0-3.5,0.6-4.5,1.8s-1.4,3.2-1.4,6v11.2h-3.2v-21.4h2.6l0.5,2.9h0.2
			c0.6-1,1.5-1.9,2.6-2.4s2.4-0.9,3.7-0.9c3.3,0,5.5,1.2,6.6,3.6h0.2c0.6-1.1,1.6-2,2.8-2.7s2.6-1,4.1-1c2.4,0,4.2,0.6,5.4,1.9
			c1.2,1.2,1.8,3.2,1.8,6v14H509.8z"/>
		<path fill="#3E4F5B" d="M528.6,777.3c-3.2,0-5.7-1-7.5-2.9s-2.7-4.6-2.7-8c0-3.5,0.8-6.2,2.5-8.2s4-3,6.8-3c2.7,0,4.8,0.9,6.4,2.6
			s2.3,4.1,2.3,7v2.1h-14.7c0.1,2.5,0.7,4.4,1.9,5.7s2.9,2,5.1,2c2.3,0,4.6-0.5,6.8-1.4v2.9c-1.1,0.5-2.2,0.8-3.3,1.1
			S530,777.3,528.6,777.3z M527.7,757.9c-1.7,0-3.1,0.6-4.1,1.7s-1.6,2.7-1.8,4.6H533c0-2-0.5-3.6-1.4-4.7S529.4,757.9,527.7,757.9z
			"/>
		<path fill="#3E4F5B" d="M556.4,776.9v-13.8c0-1.7-0.4-3-1.2-3.9s-2-1.3-3.7-1.3c-2.2,0-3.9,0.6-4.9,1.8s-1.6,3.2-1.6,6v11.2h-3.2
			v-21.4h2.6l0.5,2.9h0.2c0.7-1.1,1.6-1.9,2.8-2.5s2.5-0.9,4-0.9c2.6,0,4.5,0.6,5.8,1.9s2,3.2,2,6v14H556.4z"/>
		<path fill="#3E4F5B" d="M573,774.7c0.6,0,1.1,0,1.7-0.1c0.5-0.1,1-0.2,1.3-0.3v2.5c-0.4,0.2-0.9,0.3-1.6,0.4s-1.3,0.2-1.8,0.2
			c-4.1,0-6.2-2.2-6.2-6.5v-12.7h-3.1v-1.6l3.1-1.3l1.4-4.6h1.9v5h6.2v2.5h-6.2v12.6c0,1.3,0.3,2.3,0.9,3
			C571.1,774.3,572,774.7,573,774.7z"/>
		<path fill="#3E4F5B" d="M590.9,748.4l-10.6,28.6H577l10.6-28.6H590.9z"/>
		<path fill="#3E4F5B" d="M607.7,776.9l-0.6-3h-0.2c-1.1,1.3-2.1,2.2-3.2,2.7s-2.4,0.7-4,0.7c-2.1,0-3.8-0.5-5-1.6s-1.8-2.6-1.8-4.7
			c0-4.3,3.5-6.6,10.4-6.8l3.6-0.1v-1.3c0-1.7-0.4-2.9-1.1-3.7s-1.9-1.2-3.5-1.2c-1.8,0-3.8,0.5-6.1,1.6l-1-2.5
			c1.1-0.6,2.2-1,3.5-1.3s2.5-0.5,3.8-0.5c2.6,0,4.4,0.6,5.7,1.7s1.8,2.9,1.8,5.4v14.6H607.7z M600.4,774.7c2,0,3.6-0.6,4.8-1.7
			s1.7-2.7,1.7-4.6v-1.9l-3.2,0.1c-2.6,0.1-4.4,0.5-5.6,1.2s-1.7,1.8-1.7,3.3c0,1.2,0.4,2.1,1.1,2.7S599.1,774.7,600.4,774.7z"/>
		<path fill="#3E4F5B" d="M631.2,774.1H631c-1.5,2.2-3.7,3.3-6.7,3.3c-2.8,0-5-1-6.5-2.9s-2.3-4.6-2.3-8.2s0.8-6.3,2.3-8.2
			s3.7-2.9,6.5-2.9c2.9,0,5.1,1.1,6.7,3.2h0.3l-0.1-1.5l-0.1-1.5v-8.7h3.2v30.4h-2.6L631.2,774.1z M624.7,774.6
			c2.2,0,3.8-0.6,4.8-1.8s1.5-3.1,1.5-5.8v-0.7c0-3-0.5-5.2-1.5-6.5s-2.6-1.9-4.8-1.9c-1.9,0-3.4,0.7-4.4,2.2s-1.5,3.6-1.5,6.3
			c0,2.7,0.5,4.8,1.5,6.2S622.7,774.6,624.7,774.6z"/>
		<path fill="#3E4F5B" d="M655.5,776.9v-13.8c0-1.7-0.4-3-1.2-3.9s-2-1.3-3.7-1.3c-2.3,0-3.9,0.6-4.9,1.8s-1.6,3.2-1.6,6v11.2h-3.2
			v-30.4h3.2v9.2c0,1.1-0.1,2-0.2,2.8h0.2c0.6-1,1.5-1.8,2.7-2.4s2.5-0.9,4-0.9c2.6,0,4.6,0.6,5.9,1.9s2,3.2,2,5.9v14H655.5z"/>
		<path fill="#3E4F5B" d="M674.3,777.3c-3.2,0-5.7-1-7.5-2.9c-1.8-1.9-2.7-4.6-2.7-8c0-3.5,0.8-6.2,2.5-8.2s4-3,6.8-3
			c2.7,0,4.8,0.9,6.4,2.6s2.3,4.1,2.3,7v2.1h-14.7c0.1,2.5,0.7,4.4,1.9,5.7c1.2,1.3,2.9,2,5.1,2c2.3,0,4.6-0.5,6.8-1.4v2.9
			c-1.1,0.5-2.2,0.8-3.3,1.1C677,777.2,675.7,777.3,674.3,777.3z M673.4,757.9c-1.7,0-3.1,0.6-4.1,1.7c-1,1.1-1.6,2.7-1.8,4.6h11.2
			c0-2-0.5-3.6-1.4-4.7C676.4,758.4,675.1,757.9,673.4,757.9z"/>
		<path fill="#3E4F5B" d="M697.3,755.1c1,0,1.8,0.1,2.6,0.2l-0.4,3c-0.9-0.2-1.7-0.3-2.3-0.3c-1.7,0-3.2,0.7-4.4,2.1
			s-1.8,3.2-1.8,5.3v11.5h-3.2v-21.4h2.7l0.4,4h0.2c0.8-1.4,1.8-2.5,2.9-3.2C694.7,755.5,695.9,755.1,697.3,755.1z"/>
		<path fill="#3E4F5B" d="M712.7,777.3c-3.2,0-5.7-1-7.5-2.9s-2.7-4.6-2.7-8c0-3.5,0.8-6.2,2.5-8.2s4-3,6.8-3c2.7,0,4.8,0.9,6.4,2.6
			s2.3,4.1,2.3,7v2.1h-14.7c0.1,2.5,0.7,4.4,1.9,5.7s2.9,2,5.1,2c2.3,0,4.6-0.5,6.8-1.4v2.9c-1.1,0.5-2.2,0.8-3.3,1.1
			S714.1,777.3,712.7,777.3z M711.8,757.9c-1.7,0-3.1,0.6-4.1,1.7s-1.6,2.7-1.8,4.6h11.2c0-2-0.5-3.6-1.4-4.7
			S713.5,757.9,711.8,757.9z"/>
		<path fill="#3E4F5B" d="M740.5,776.9v-13.8c0-1.7-0.4-3-1.2-3.9s-2-1.3-3.7-1.3c-2.2,0-3.9,0.6-4.9,1.8s-1.6,3.2-1.6,6v11.2h-3.2
			v-21.4h2.6l0.5,2.9h0.2c0.7-1.1,1.6-1.9,2.8-2.5s2.5-0.9,4-0.9c2.6,0,4.5,0.6,5.8,1.9s2,3.2,2,6v14H740.5z"/>
		<path fill="#3E4F5B" d="M758.8,777.3c-3.1,0-5.5-1-7.2-2.9s-2.5-4.6-2.5-8.1c0-3.6,0.9-6.3,2.6-8.3s4.2-2.9,7.4-2.9
			c1,0,2.1,0.1,3.1,0.3s1.8,0.5,2.4,0.8l-1,2.8c-0.7-0.3-1.5-0.5-2.3-0.7s-1.6-0.3-2.2-0.3c-4.3,0-6.5,2.8-6.5,8.3
			c0,2.6,0.5,4.6,1.6,6.1s2.6,2.1,4.7,2.1c1.8,0,3.6-0.4,5.5-1.2v2.9C762.7,777,760.9,777.3,758.8,777.3z"/>
		<path fill="#3E4F5B" d="M778.1,777.3c-3.2,0-5.7-1-7.5-2.9s-2.7-4.6-2.7-8c0-3.5,0.8-6.2,2.5-8.2s4-3,6.8-3c2.7,0,4.8,0.9,6.4,2.6
			s2.3,4.1,2.3,7v2.1h-14.7c0.1,2.5,0.7,4.4,1.9,5.7s2.9,2,5.1,2c2.3,0,4.6-0.5,6.8-1.4v2.9c-1.1,0.5-2.2,0.8-3.3,1.1
			S779.5,777.3,778.1,777.3z M777.2,757.9c-1.7,0-3.1,0.6-4.1,1.7s-1.6,2.7-1.8,4.6h11.2c0-2-0.5-3.6-1.4-4.7
			S778.9,757.9,777.2,757.9z"/>
	</g>
	<g>
		<path fill="#25B4FF" d="M238.2,643.9c0,4.7-1.3,8.3-4,10.8s-6.5,3.8-11.6,3.8h-8.1v-28.6h9c4.7,0,8.3,1.2,10.9,3.7
			S238.2,639.5,238.2,643.9z M231.9,644.1c0-6.1-2.7-9.2-8.1-9.2h-3.2v18.6h2.6C229,653.5,231.9,650.3,231.9,644.1z"/>
		<path fill="#25B4FF" d="M243.9,658.5v-28.6h6.1v28.6H243.9z"/>
		<path fill="#25B4FF" d="M267.8,642.4h11.3v14.8c-1.8,0.6-3.6,1-5.2,1.3s-3.3,0.4-5,0.4c-4.3,0-7.6-1.3-9.9-3.8s-3.4-6.2-3.4-10.9
			c0-4.6,1.3-8.2,4-10.8s6.3-3.9,11-3.9c2.9,0,5.8,0.6,8.5,1.8l-2,4.8c-2.1-1-4.3-1.6-6.5-1.6c-2.6,0-4.7,0.9-6.3,2.6
			s-2.4,4.1-2.4,7.1c0,3.1,0.6,5.5,1.9,7.1s3.1,2.5,5.5,2.5c1.3,0,2.5-0.1,3.8-0.4v-6h-5.4V642.4z"/>
		<path fill="#25B4FF" d="M285.7,658.5v-28.6h6.1v28.6H285.7z"/>
		<path fill="#25B4FF" d="M309.7,658.5h-6.1v-23.5h-7.8v-5h21.6v5h-7.8V658.5z"/>
		<path fill="#25B4FF" d="M339.2,658.5l-2.1-6.8h-10.4l-2.1,6.8h-6.5l10.1-28.7h7.4l10.1,28.7H339.2z M335.7,646.6
			c-1.9-6.2-3-9.6-3.2-10.4c-0.2-0.8-0.4-1.4-0.5-1.9c-0.4,1.7-1.7,5.8-3.7,12.4H335.7z"/>
		<path fill="#25B4FF" d="M349.1,658.5v-28.6h6.1v23.6h11.6v5H349.1z"/>
		<path fill="#25B4FF" d="M399.2,658.5l-2.1-6.8h-10.4l-2.1,6.8h-6.5l10.1-28.7h7.4l10.1,28.7H399.2z M395.6,646.6
			c-1.9-6.2-3-9.6-3.2-10.4s-0.4-1.4-0.5-1.9c-0.4,1.7-1.7,5.8-3.7,12.4H395.6z"/>
		<path fill="#25B4FF" d="M419.9,642.4h11.3v14.8c-1.8,0.6-3.6,1-5.2,1.3s-3.3,0.4-5,0.4c-4.3,0-7.6-1.3-9.9-3.8
			c-2.3-2.5-3.4-6.2-3.4-10.9c0-4.6,1.3-8.2,4-10.8s6.3-3.9,11-3.9c2.9,0,5.8,0.6,8.5,1.8l-2,4.8c-2.1-1-4.3-1.6-6.5-1.6
			c-2.6,0-4.7,0.9-6.3,2.6c-1.6,1.8-2.4,4.1-2.4,7.1c0,3.1,0.6,5.5,1.9,7.1s3.1,2.5,5.5,2.5c1.3,0,2.5-0.1,3.8-0.4v-6h-5.4V642.4z"
			/>
		<path fill="#25B4FF" d="M454.3,658.5h-16.4v-28.6h16.4v5h-10.4v6.3h9.7v5h-9.7v7.4h10.4V658.5z"/>
	</g>
	
		<line fill="none" stroke="#3A4F5A" stroke-width="2" stroke-linecap="round" stroke-miterlimit="10" x1="166.6" y1="675.2" x2="1018.9" y2="675.2"/>
	<g>
		<circle fill="#5AB0E3" cx="100.9" cy="446" r="46.5"/>
	</g>
	<g>
		<path fill="#3E4F5B" d="M100.9,395.4c27.9,0,50.6,22.6,50.6,50.6s-22.6,50.6-50.6,50.6S50.4,473.9,50.4,446S73,395.4,100.9,395.4
			 M100.9,393.4c-29,0-52.6,23.6-52.6,52.6c0,29,23.6,52.6,52.6,52.6s52.6-23.6,52.6-52.6C153.5,417,129.9,393.4,100.9,393.4
			L100.9,393.4z"/>
	</g>
	<g>
		<circle fill="#5AB0E3" cx="100.9" cy="670.2" r="46.5"/>
	</g>
	<g>
		<path fill="#3E4F5B" d="M100.9,619.6c27.9,0,50.6,22.6,50.6,50.6s-22.6,50.6-50.6,50.6s-50.6-22.6-50.6-50.6S73,619.6,100.9,619.6
			 M100.9,617.6c-29,0-52.6,23.6-52.6,52.6s23.6,52.6,52.6,52.6s52.6-23.6,52.6-52.6S129.9,617.6,100.9,617.6L100.9,617.6z"/>
	</g>
	<g>
		<path fill="#FFFFFF" d="M109.4,432.2H92.5c-1.2,0-2.1,0.9-2.1,2.1v10.6c0,1.2,0.9,2.1,2.1,2.1h2.1v4.2l4.8-4.2h10
			c1.2,0,2.1-0.9,2.1-2.1v-10.6C111.5,433.2,110.6,432.2,109.4,432.2z"/>
		<path fill="#FFFFFF" d="M122.1,421.7H79.8c-2.3,0-4.2,1.9-4.2,4.2v31.7c0,2.3,1.9,4.2,4.2,4.2H84v8.5l9-8.5h29.1
			c2.3,0,4.2-1.9,4.2-4.2v-31.7C126.3,423.6,124.4,421.7,122.1,421.7z M117.8,451.3c0,1.2-0.9,2.1-2.1,2.1h-4.2v5.8l-5.8-5.8H86.1
			c-1.2,0-2.1-0.9-2.1-2.1v-21.2c0-1.2,0.9-2.1,2.1-2.1h29.6c1.2,0,2.1,0.9,2.1,2.1V451.3z"/>
	</g>
	<g>
		<polygon fill="#FFFFFF" points="95.9,660.9 95.9,674.7 98.8,669.8 103.3,677.6 105.9,675.9 101.6,668.4 107.2,668.4 		"/>
		<path fill="#FFFFFF" d="M121,649.6H80.9c-2.8,0-5,2.2-5,5v32.6H126v-32.6C126,651.9,123.7,649.6,121,649.6z M121,680.9
			c0,0.7-0.6,1.3-1.3,1.3H82.1c-0.7,0-1.3-0.6-1.3-1.3v-25.1c0-0.7,0.6-1.3,1.3-1.3h37.6c0.7,0,1.3,0.6,1.3,1.3V680.9z"/>
		<path fill="#FFFFFF" d="M105.9,689.7v1.3c0,0.7-0.6,1.3-1.3,1.3h-7.5c-0.7,0-1.3-0.6-1.3-1.3v-1.3H70.8c0,0,0,1.1,0,2.5
			s1.1,2.5,2.5,2.5h55.1c1.4,0,2.5-1.1,2.5-2.5s0-2.5,0-2.5H105.9z M124.7,693.8c-0.9,0-1.6-0.7-1.6-1.6s0.7-1.6,1.6-1.6
			s1.6,0.7,1.6,1.6S125.6,693.8,124.7,693.8z"/>
	</g>
	<g>
		<g>
			<path fill="#FBFAFA" d="M91.3,53.7c0-1.2,0.7-2.1,1.6-2.1h15c0.9,0,1.6,0.9,1.6,2.1v9.2h8.6V49.2c0-1.5-1.4-2.7-3.1-2.7H86.7
				c-1.7,0-3.1,1.2-3.1,2.7v13.6h7.7V53.7z"/>
			<path fill="#FBFAFA" d="M137.6,65.9h-24h-6.3H93.9h-5.7h-24c-4.4,0-8,3.6-8,8v47.9c0,4.4,3.6,8,8,8h73.4c4.4,0,8-3.6,8-8V73.9
				C145.6,69.5,142,65.9,137.6,65.9z M100.9,121.1c-12.8,0-23.2-10.4-23.2-23.2c0-12.8,10.4-23.2,23.2-23.2
				c12.8,0,23.2,10.4,23.2,23.2C124.1,110.7,113.7,121.1,100.9,121.1z"/>
			<path fill="#FBFAFA" d="M106.9,91.9v-9.1c0-1.2-0.5-2.2-1.1-2.2H96c-0.6,0-1.1,1-1.1,2.2v9.1h-9.1c-1.2,0-2.2,0.5-2.2,1.1v9.8
				c0,0.6,1,1.1,2.2,1.1h9.1v9.1c0,1.2,0.5,2.2,1.1,2.2h9.8c0.6,0,1.1-1,1.1-2.2v-9.1h9.1c1.2,0,2.2-0.5,2.2-1.1V93
				c0-0.6-1-1.1-2.2-1.1H106.9z"/>
		</g>
	</g>
	<g>
		<path fill="#FFFFFF" d="M224.1,101.4v15.1h-8.3V77.2h11.4c5.3,0,9.3,1,11.8,2.9c2.6,1.9,3.8,4.9,3.8,8.8c0,2.3-0.6,4.4-1.9,6.2
			c-1.3,1.8-3.1,3.2-5.4,4.2c5.9,8.8,9.8,14.5,11.5,17.1h-9.2l-9.4-15.1H224.1z M224.1,94.7h2.7c2.6,0,4.6-0.4,5.8-1.3
			c1.3-0.9,1.9-2.3,1.9-4.1c0-1.9-0.6-3.2-1.9-4s-3.3-1.2-5.9-1.2h-2.5V94.7z"/>
		<path fill="#FFFFFF" d="M283.6,116.5h-9.5l-9.1-14.9l-9.1,14.9h-8.9l13-20.2l-12.2-19h9.2l8.5,14.1l8.3-14.1h9l-12.3,19.5
			L283.6,116.5z"/>
		<path fill="#FFFFFF" d="M317.4,116.5h-8.3V84.2h-10.7v-6.9h29.6v6.9h-10.7V116.5z"/>
		<path fill="#FFFFFF" d="M342.2,101.4v15.1h-8.3V77.2h11.4c5.3,0,9.3,1,11.8,2.9c2.6,1.9,3.8,4.9,3.8,8.8c0,2.3-0.6,4.4-1.9,6.2
			c-1.3,1.8-3.1,3.2-5.4,4.2c5.9,8.8,9.8,14.5,11.5,17.1H356l-9.4-15.1H342.2z M342.2,94.7h2.7c2.6,0,4.6-0.4,5.8-1.3
			c1.3-0.9,1.9-2.3,1.9-4.1c0-1.9-0.6-3.2-1.9-4s-3.3-1.2-5.9-1.2h-2.5V94.7z"/>
		<path fill="#FFFFFF" d="M392.5,116.5h-22.6V77.2h22.6v6.8h-14.3v8.6h13.3v6.8h-13.3v10.1h14.3V116.5z"/>
		<path fill="#FFFFFF" d="M424.4,116.5l-2.8-9.3h-14.3l-2.8,9.3h-9l13.9-39.4h10.2l13.9,39.4H424.4z M419.6,100.2
			c-2.6-8.5-4.1-13.3-4.4-14.4c-0.3-1.1-0.6-2-0.7-2.6c-0.6,2.3-2.3,8-5.1,17H419.6z"/>
		<path fill="#FFFFFF" d="M453.2,116.5h-8.3V84.2h-10.7v-6.9h29.6v6.9h-10.7V116.5z"/>
		<path fill="#FFFFFF" d="M486.3,116.5l-9.5-30.8h-0.2c0.3,6.3,0.5,10.4,0.5,12.5v18.3h-7.4V77.2H481l9.3,30h0.2l9.9-30h11.3v39.3
			h-7.8V97.9c0-0.9,0-1.9,0-3c0-1.1,0.1-4.2,0.4-9.1H504l-10.1,30.7H486.3z"/>
		<path fill="#FFFFFF" d="M543.9,116.5h-22.6V77.2h22.6v6.8h-14.3v8.6h13.3v6.8h-13.3v10.1h14.3V116.5z"/>
		<path fill="#FFFFFF" d="M586.6,116.5H576l-17.1-29.7h-0.2c0.3,5.2,0.5,9,0.5,11.2v18.5h-7.4V77.2h10.5l17.1,29.4h0.2
			c-0.3-5.1-0.4-8.7-0.4-10.8V77.2h7.5V116.5z"/>
		<path fill="#FFFFFF" d="M611.4,116.5H603V84.2h-10.7v-6.9H622v6.9h-10.7V116.5z"/>
	</g>
</g>
</svg>
