<?xml version="1.0" encoding="utf-8"?>
<!-- Generator: Adobe Illustrator 19.1.0, SVG Export Plug-In . SVG Version: 6.00 Build 0)  -->
<svg version="1.1" id="Layer_1" xmlns="http://www.w3.org/2000/svg" xmlns:xlink="http://www.w3.org/1999/xlink" x="0px" y="0px"
	 viewBox="0 0 1152 864" enable-background="new 0 0 1152 864" xml:space="preserve">
<g>
	<rect x="0" fill="#3E4F5B" width="1152" height="190"/>
	<g>
		<path fill="#3E4F5B" d="M229.5,237.2c-3.6,0-6.5,1.2-8.5,3.6s-3.1,5.7-3.1,9.9c0,4.3,1,7.6,3,10c2,2.3,4.9,3.5,8.6,3.5
			c2.3,0,4.9-0.4,7.8-1.2v3.3c-2.3,0.9-5.1,1.3-8.4,1.3c-4.8,0-8.6-1.5-11.2-4.4s-3.9-7.1-3.9-12.5c0-3.4,0.6-6.3,1.9-8.9
			s3.1-4.5,5.5-5.9s5.2-2.1,8.4-2.1c3.4,0,6.5,0.6,9,1.9l-1.6,3.3C234.4,237.8,231.9,237.2,229.5,237.2z"/>
		<path fill="#3E4F5B" d="M260.5,267.1v-15.9c0-2-0.5-3.5-1.4-4.5s-2.3-1.5-4.3-1.5c-2.6,0-4.5,0.7-5.7,2.1s-1.8,3.7-1.8,6.9v12.9
			h-3.7v-34.9h3.7v10.6c0,1.3-0.1,2.3-0.2,3.2h0.2c0.7-1.2,1.8-2.1,3.1-2.8c1.4-0.7,2.9-1,4.6-1c3,0,5.3,0.7,6.8,2.1
			c1.5,1.4,2.3,3.7,2.3,6.8v16.1H260.5z"/>
		<path fill="#3E4F5B" d="M286.8,267.1l-0.7-3.5h-0.2c-1.2,1.5-2.5,2.6-3.7,3.1c-1.2,0.5-2.7,0.8-4.6,0.8c-2.4,0-4.4-0.6-5.7-1.9
			s-2.1-3-2.1-5.4c0-5,4-7.6,11.9-7.8l4.2-0.1v-1.5c0-1.9-0.4-3.4-1.2-4.3s-2.2-1.4-4-1.4c-2.1,0-4.4,0.6-7,1.9l-1.1-2.9
			c1.2-0.7,2.5-1.2,4-1.5s2.9-0.6,4.3-0.6c2.9,0,5.1,0.7,6.5,2s2.1,3.4,2.1,6.3v16.8H286.8z M278.3,264.5c2.3,0,4.1-0.6,5.5-1.9
			s2-3.1,2-5.3V255l-3.7,0.2c-3,0.1-5.1,0.6-6.4,1.4c-1.3,0.8-2,2.1-2,3.8c0,1.3,0.4,2.4,1.2,3.1S276.9,264.5,278.3,264.5z"/>
		<path fill="#3E4F5B" d="M313.8,267.1v-15.9c0-2-0.5-3.5-1.4-4.5s-2.3-1.5-4.3-1.5c-2.6,0-4.5,0.7-5.7,2.1s-1.8,3.7-1.8,6.9v12.9
			H297v-24.6h3l0.6,3.4h0.2c0.8-1.2,1.8-2.2,3.2-2.8c1.4-0.7,2.9-1,4.6-1c3,0,5.2,0.7,6.7,2.1c1.5,1.4,2.2,3.7,2.2,6.9v16.1H313.8z"
			/>
		<path fill="#3E4F5B" d="M345.1,242.5v2.4l-4.6,0.5c0.4,0.5,0.8,1.2,1.1,2.1c0.3,0.8,0.5,1.8,0.5,2.9c0,2.4-0.8,4.3-2.5,5.8
			c-1.6,1.4-3.9,2.2-6.8,2.2c-0.7,0-1.4-0.1-2.1-0.2c-1.6,0.8-2.4,1.9-2.4,3.2c0,0.7,0.3,1.2,0.8,1.5c0.6,0.3,1.5,0.5,2.9,0.5h4.4
			c2.7,0,4.7,0.6,6.1,1.7s2.1,2.8,2.1,4.9c0,2.7-1.1,4.8-3.3,6.2c-2.2,1.4-5.4,2.1-9.6,2.1c-3.2,0-5.7-0.6-7.4-1.8
			c-1.7-1.2-2.6-2.9-2.6-5.1c0-1.5,0.5-2.8,1.4-3.9c1-1.1,2.3-1.8,4-2.2c-0.6-0.3-1.2-0.7-1.6-1.3s-0.6-1.3-0.6-2.1
			c0-0.9,0.2-1.7,0.7-2.4c0.5-0.7,1.2-1.3,2.3-2c-1.3-0.5-2.3-1.4-3.1-2.7s-1.2-2.7-1.2-4.3c0-2.7,0.8-4.8,2.4-6.2s3.9-2.2,6.9-2.2
			c1.3,0,2.4,0.1,3.5,0.4H345.1z M325.5,271.2c0,1.3,0.6,2.3,1.7,3c1.1,0.7,2.7,1,4.8,1c3.1,0,5.4-0.5,7-1.4s2.3-2.2,2.3-3.8
			c0-1.3-0.4-2.3-1.2-2.8c-0.8-0.5-2.4-0.8-4.6-0.8h-4.5c-1.7,0-3,0.4-4,1.2S325.5,269.7,325.5,271.2z M327.5,250.3
			c0,1.7,0.5,3,1.5,3.9c1,0.9,2.3,1.3,4.1,1.3c3.6,0,5.5-1.8,5.5-5.3c0-3.7-1.8-5.5-5.5-5.5c-1.8,0-3.1,0.5-4,1.4
			S327.5,248.5,327.5,250.3z"/>
		<path fill="#3E4F5B" d="M360.3,267.5c-3.6,0-6.5-1.1-8.6-3.3c-2.1-2.2-3.2-5.3-3.2-9.2c0-4,1-7.1,2.9-9.5s4.6-3.5,7.9-3.5
			c3.1,0,5.5,1,7.3,3c1.8,2,2.7,4.7,2.7,8v2.4h-17c0.1,2.9,0.8,5.1,2.2,6.6c1.4,1.5,3.3,2.2,5.9,2.2c2.7,0,5.3-0.6,7.9-1.7v3.3
			c-1.3,0.6-2.6,1-3.7,1.2C363.4,267.4,362,267.5,360.3,267.5z M359.3,245.1c-2,0-3.6,0.6-4.7,1.9c-1.2,1.3-1.9,3.1-2.1,5.3h12.9
			c0-2.4-0.5-4.2-1.6-5.4C362.8,245.8,361.3,245.1,359.3,245.1z"/>
		<path fill="#3E4F5B" d="M408.5,254.7c0,4-1,7.1-3,9.4c-2,2.3-4.8,3.4-8.4,3.4c-2.2,0-4.2-0.5-5.9-1.5s-3-2.5-4-4.4
			s-1.4-4.2-1.4-6.8c0-4,1-7.1,3-9.4c2-2.2,4.8-3.4,8.4-3.4c3.4,0,6.2,1.1,8.2,3.4C407.5,247.7,408.5,250.8,408.5,254.7z
			 M389.7,254.7c0,3.1,0.6,5.5,1.9,7.2s3.1,2.5,5.5,2.5s4.3-0.8,5.6-2.5c1.3-1.6,1.9-4,1.9-7.2c0-3.1-0.6-5.5-1.9-7.1
			c-1.3-1.6-3.1-2.4-5.6-2.4c-2.4,0-4.3,0.8-5.5,2.4S389.7,251.6,389.7,254.7z"/>
		<path fill="#3E4F5B" d="M418.3,242.5v16c0,2,0.5,3.5,1.4,4.5c0.9,1,2.3,1.5,4.3,1.5c2.6,0,4.5-0.7,5.6-2.1s1.8-3.7,1.8-6.9v-12.9
			h3.7v24.6h-3.1l-0.5-3.3h-0.2c-0.8,1.2-1.8,2.1-3.2,2.8s-2.9,1-4.6,1c-3,0-5.2-0.7-6.7-2.1s-2.2-3.7-2.2-6.8v-16.1H418.3z"/>
		<path fill="#3E4F5B" d="M454,242c1.1,0,2.1,0.1,2.9,0.3l-0.5,3.5c-1-0.2-1.9-0.3-2.7-0.3c-2,0-3.7,0.8-5.1,2.4s-2.1,3.6-2.1,6
			v13.2h-3.7v-24.6h3.1l0.4,4.6h0.2c0.9-1.6,2-2.8,3.3-3.7S452.5,242,454,242z"/>
		<path fill="#3E4F5B" d="M489.9,267.1v-15.9c0-2-0.5-3.5-1.4-4.5s-2.3-1.5-4.3-1.5c-2.6,0-4.5,0.7-5.7,2.1s-1.8,3.7-1.8,6.9v12.9
			h-3.7v-34.9h3.7v10.6c0,1.3-0.1,2.3-0.2,3.2h0.2c0.7-1.2,1.8-2.1,3.1-2.8c1.4-0.7,2.9-1,4.6-1c3,0,5.3,0.7,6.8,2.1
			c1.5,1.4,2.3,3.7,2.3,6.8v16.1H489.9z"/>
		<path fill="#3E4F5B" d="M516.2,267.1l-0.7-3.5h-0.2c-1.2,1.5-2.5,2.6-3.7,3.1c-1.2,0.5-2.7,0.8-4.6,0.8c-2.4,0-4.4-0.6-5.7-1.9
			s-2.1-3-2.1-5.4c0-5,4-7.6,11.9-7.8l4.2-0.1v-1.5c0-1.9-0.4-3.4-1.2-4.3s-2.2-1.4-4-1.4c-2.1,0-4.4,0.6-7,1.9l-1.1-2.9
			c1.2-0.7,2.5-1.2,4-1.5s2.9-0.6,4.3-0.6c2.9,0,5.1,0.7,6.5,2s2.1,3.4,2.1,6.3v16.8H516.2z M507.8,264.5c2.3,0,4.1-0.6,5.5-1.9
			c1.3-1.3,2-3.1,2-5.3V255l-3.7,0.2c-3,0.1-5.1,0.6-6.4,1.4c-1.3,0.8-2,2.1-2,3.8c0,1.3,0.4,2.4,1.2,3.1S506.3,264.5,507.8,264.5z"
			/>
		<path fill="#3E4F5B" d="M537.9,242.1c3.2,0,5.7,1.1,7.5,3.3c1.8,2.2,2.7,5.3,2.7,9.4s-0.9,7.2-2.7,9.4c-1.8,2.2-4.3,3.4-7.5,3.4
			c-1.6,0-3.1-0.3-4.4-0.9c-1.3-0.6-2.4-1.5-3.3-2.7h-0.3l-0.8,3.2h-2.7v-34.9h3.7v8.5c0,1.9-0.1,3.6-0.2,5.1h0.2
			C531.9,243.3,534.5,242.1,537.9,242.1z M537.3,245.2c-2.5,0-4.4,0.7-5.5,2.2s-1.7,3.9-1.7,7.4s0.6,5.9,1.7,7.4
			c1.2,1.5,3,2.2,5.5,2.2c2.3,0,4-0.8,5.1-2.5c1.1-1.7,1.7-4.1,1.7-7.2c0-3.2-0.6-5.6-1.7-7.2S539.7,245.2,537.3,245.2z"/>
		<path fill="#3E4F5B" d="M554.1,235.8c0-0.9,0.2-1.5,0.6-1.9c0.4-0.4,0.9-0.6,1.6-0.6c0.6,0,1.1,0.2,1.5,0.6s0.7,1,0.7,1.9
			s-0.2,1.5-0.7,1.9c-0.4,0.4-1,0.6-1.5,0.6c-0.6,0-1.2-0.2-1.6-0.6C554.3,237.3,554.1,236.6,554.1,235.8z M558.1,267.1h-3.7v-24.6
			h3.7V267.1z"/>
		<path fill="#3E4F5B" d="M573.7,264.5c0.7,0,1.3,0,1.9-0.1c0.6-0.1,1.1-0.2,1.5-0.3v2.9c-0.4,0.2-1,0.4-1.8,0.5s-1.5,0.2-2.1,0.2
			c-4.8,0-7.1-2.5-7.1-7.5v-14.6h-3.5v-1.8l3.5-1.5l1.6-5.3h2.2v5.7h7.1v2.9h-7.1v14.5c0,1.5,0.4,2.6,1.1,3.4
			C571.5,264.1,572.5,264.5,573.7,264.5z"/>
		<path fill="#3E4F5B" d="M597.7,260.4c0,2.3-0.9,4.1-2.6,5.3s-4.1,1.9-7.2,1.9c-3.3,0-5.8-0.5-7.6-1.5v-3.5
			c1.2,0.6,2.5,1.1,3.8,1.4c1.4,0.3,2.7,0.5,3.9,0.5c1.9,0,3.4-0.3,4.5-0.9c1-0.6,1.6-1.6,1.6-2.8c0-1-0.4-1.8-1.2-2.5
			c-0.8-0.7-2.5-1.5-4.9-2.4c-2.3-0.9-3.9-1.6-4.9-2.2c-1-0.6-1.7-1.4-2.2-2.2s-0.7-1.8-0.7-2.9c0-2,0.8-3.6,2.4-4.8
			c1.6-1.2,3.9-1.7,6.7-1.7c2.7,0,5.2,0.5,7.8,1.6l-1.3,3c-2.5-1-4.7-1.5-6.7-1.5c-1.8,0-3.1,0.3-4,0.8s-1.3,1.3-1.3,2.3
			c0,0.7,0.2,1.2,0.5,1.7s0.9,0.9,1.6,1.3s2.2,1,4.3,1.8c2.9,1.1,4.9,2.1,5.9,3.2C597.2,257.4,597.7,258.7,597.7,260.4z"/>
		<path fill="#3E4F5B" d="M630.4,267.1l-0.7-3.5h-0.2c-1.2,1.5-2.5,2.6-3.7,3.1c-1.2,0.5-2.7,0.8-4.6,0.8c-2.4,0-4.4-0.6-5.7-1.9
			c-1.4-1.3-2.1-3-2.1-5.4c0-5,4-7.6,11.9-7.8l4.2-0.1v-1.5c0-1.9-0.4-3.4-1.2-4.3s-2.2-1.4-4-1.4c-2.1,0-4.4,0.6-7,1.9l-1.1-2.9
			c1.2-0.7,2.5-1.2,4-1.5c1.4-0.4,2.9-0.6,4.3-0.6c2.9,0,5.1,0.7,6.5,2s2.1,3.4,2.1,6.3v16.8H630.4z M621.9,264.5
			c2.3,0,4.1-0.6,5.5-1.9s2-3.1,2-5.3V255l-3.7,0.2c-3,0.1-5.1,0.6-6.4,1.4c-1.3,0.8-2,2.1-2,3.8c0,1.3,0.4,2.4,1.2,3.1
			C619.3,264.1,620.5,264.5,621.9,264.5z"/>
		<path fill="#3E4F5B" d="M657.4,267.1v-15.9c0-2-0.5-3.5-1.4-4.5c-0.9-1-2.3-1.5-4.3-1.5c-2.6,0-4.5,0.7-5.7,2.1
			c-1.2,1.4-1.8,3.7-1.8,6.9v12.9h-3.7v-24.6h3l0.6,3.4h0.2c0.8-1.2,1.8-2.2,3.2-2.8c1.4-0.7,2.9-1,4.6-1c3,0,5.2,0.7,6.7,2.1
			c1.5,1.4,2.2,3.7,2.2,6.9v16.1H657.4z"/>
		<path fill="#3E4F5B" d="M685.3,263.8h-0.2c-1.7,2.5-4.3,3.8-7.7,3.8c-3.2,0-5.7-1.1-7.5-3.3c-1.8-2.2-2.7-5.3-2.7-9.4
			s0.9-7.2,2.7-9.5s4.3-3.4,7.5-3.4c3.3,0,5.9,1.2,7.7,3.6h0.3l-0.2-1.8l-0.1-1.7v-10h3.7v34.9h-3L685.3,263.8z M677.9,264.4
			c2.5,0,4.4-0.7,5.5-2.1c1.1-1.4,1.7-3.6,1.7-6.7v-0.8c0-3.5-0.6-6-1.7-7.5c-1.2-1.5-3-2.2-5.6-2.2c-2.2,0-3.9,0.8-5,2.5
			c-1.2,1.7-1.7,4.1-1.7,7.2c0,3.1,0.6,5.5,1.7,7.1S675.7,264.4,677.9,264.4z"/>
		<path fill="#3E4F5B" d="M708,235.8c0-0.9,0.2-1.5,0.6-1.9c0.4-0.4,0.9-0.6,1.6-0.6c0.6,0,1.1,0.2,1.5,0.6s0.7,1,0.7,1.9
			s-0.2,1.5-0.7,1.9c-0.4,0.4-1,0.6-1.5,0.6c-0.6,0-1.2-0.2-1.6-0.6C708.2,237.3,708,236.6,708,235.8z M712,267.1h-3.7v-24.6h3.7
			V267.1z"/>
		<path fill="#3E4F5B" d="M751.1,267.1v-16c0-2-0.4-3.4-1.3-4.4c-0.8-1-2.1-1.5-3.9-1.5c-2.3,0-4,0.7-5.1,2s-1.7,3.4-1.7,6.2v13.7
			h-3.7v-16c0-2-0.4-3.4-1.3-4.4c-0.8-1-2.1-1.5-3.9-1.5c-2.3,0-4,0.7-5.1,2.1c-1.1,1.4-1.6,3.7-1.6,6.9v12.9h-3.7v-24.6h3l0.6,3.4
			h0.2c0.7-1.2,1.7-2.1,3-2.8c1.3-0.7,2.7-1,4.3-1c3.8,0,6.4,1.4,7.5,4.2h0.2c0.7-1.3,1.8-2.3,3.2-3.1s3-1.1,4.8-1.1
			c2.8,0,4.9,0.7,6.3,2.1c1.4,1.4,2.1,3.7,2.1,6.9v16.1H751.1z"/>
		<path fill="#3E4F5B" d="M773.7,267.5c-1.6,0-3.1-0.3-4.4-0.9c-1.3-0.6-2.4-1.5-3.3-2.7h-0.3c0.2,1.4,0.3,2.8,0.3,4.1v10.1h-3.7
			v-35.7h3l0.5,3.4h0.2c1-1.3,2.1-2.3,3.3-2.9s2.7-0.9,4.4-0.9c3.3,0,5.8,1.1,7.6,3.3c1.8,2.2,2.7,5.4,2.7,9.4c0,4-0.9,7.2-2.7,9.4
			C779.4,266.4,776.9,267.5,773.7,267.5z M773.1,245.2c-2.5,0-4.3,0.7-5.5,2.1s-1.7,3.6-1.7,6.6v0.8c0,3.5,0.6,5.9,1.7,7.4
			c1.2,1.5,3,2.2,5.5,2.2c2.1,0,3.8-0.9,5-2.6c1.2-1.7,1.8-4.1,1.8-7.1c0-3.1-0.6-5.4-1.8-7.1C777,246,775.3,245.2,773.1,245.2z"/>
		<path fill="#3E4F5B" d="M801.4,242c1.1,0,2.1,0.1,2.9,0.3l-0.5,3.5c-1-0.2-1.9-0.3-2.7-0.3c-2,0-3.7,0.8-5.1,2.4
			c-1.4,1.6-2.1,3.6-2.1,6v13.2h-3.7v-24.6h3.1l0.4,4.6h0.2c0.9-1.6,2-2.8,3.3-3.7S799.9,242,801.4,242z"/>
		<path fill="#3E4F5B" d="M830,254.7c0,4-1,7.1-3,9.4c-2,2.3-4.8,3.4-8.4,3.4c-2.2,0-4.2-0.5-5.9-1.5s-3-2.5-4-4.4s-1.4-4.2-1.4-6.8
			c0-4,1-7.1,3-9.4c2-2.2,4.8-3.4,8.4-3.4c3.4,0,6.2,1.1,8.2,3.4C829,247.7,830,250.8,830,254.7z M811.2,254.7
			c0,3.1,0.6,5.5,1.9,7.2s3.1,2.5,5.5,2.5s4.3-0.8,5.6-2.5c1.3-1.6,1.9-4,1.9-7.2c0-3.1-0.6-5.5-1.9-7.1c-1.3-1.6-3.1-2.4-5.6-2.4
			c-2.4,0-4.3,0.8-5.5,2.4S811.2,251.6,811.2,254.7z"/>
		<path fill="#3E4F5B" d="M841.7,267.1l-9.3-24.6h4l5.3,14.6c1.2,3.4,1.9,5.6,2.1,6.6h0.2c0.2-0.8,0.7-2.4,1.6-4.9
			c0.9-2.5,2.8-7.9,5.9-16.3h4l-9.3,24.6H841.7z"/>
		<path fill="#3E4F5B" d="M869.5,267.5c-3.6,0-6.5-1.1-8.6-3.3c-2.1-2.2-3.2-5.3-3.2-9.2c0-4,1-7.1,2.9-9.5c2-2.3,4.6-3.5,7.9-3.5
			c3.1,0,5.5,1,7.3,3c1.8,2,2.7,4.7,2.7,8v2.4h-17c0.1,2.9,0.8,5.1,2.2,6.6c1.4,1.5,3.3,2.2,5.9,2.2c2.7,0,5.3-0.6,7.9-1.7v3.3
			c-1.3,0.6-2.6,1-3.7,1.2C872.6,267.4,871.2,267.5,869.5,267.5z M868.5,245.1c-2,0-3.6,0.6-4.7,1.9c-1.2,1.3-1.9,3.1-2.1,5.3h12.9
			c0-2.4-0.5-4.2-1.6-5.4C871.9,245.8,870.4,245.1,868.5,245.1z"/>
		<path fill="#3E4F5B" d="M236.1,309.9c0,4-1,7.1-3,9.4s-4.8,3.4-8.4,3.4c-2.2,0-4.2-0.5-5.9-1.5s-3-2.5-4-4.4
			c-0.9-1.9-1.4-4.2-1.4-6.8c0-4,1-7.1,3-9.4c2-2.2,4.8-3.4,8.4-3.4c3.4,0,6.2,1.1,8.2,3.4S236.1,306,236.1,309.9z M217.3,309.9
			c0,3.1,0.6,5.5,1.9,7.2c1.3,1.6,3.1,2.5,5.5,2.5c2.4,0,4.3-0.8,5.6-2.5s1.9-4,1.9-7.2c0-3.1-0.6-5.5-1.9-7.1s-3.1-2.4-5.6-2.4
			c-2.4,0-4.3,0.8-5.5,2.4C217.9,304.4,217.3,306.8,217.3,309.9z"/>
		<path fill="#3E4F5B" d="M245.9,297.7v16c0,2,0.5,3.5,1.4,4.5s2.3,1.5,4.3,1.5c2.6,0,4.5-0.7,5.6-2.1c1.2-1.4,1.8-3.7,1.8-6.9
			v-12.9h3.7v24.6h-3.1l-0.5-3.3h-0.2c-0.8,1.2-1.8,2.1-3.2,2.8c-1.4,0.6-2.9,1-4.6,1c-3,0-5.2-0.7-6.7-2.1
			c-1.5-1.4-2.2-3.7-2.2-6.8v-16.1H245.9z"/>
		<path fill="#3E4F5B" d="M281.6,297.2c1.1,0,2.1,0.1,2.9,0.3l-0.5,3.5c-1-0.2-1.9-0.3-2.7-0.3c-2,0-3.7,0.8-5.1,2.4s-2.1,3.6-2.1,6
			v13.2h-3.7v-24.6h3.1l0.4,4.6h0.2c0.9-1.6,2-2.8,3.3-3.7C278.7,297.6,280.1,297.2,281.6,297.2z"/>
		<path fill="#3E4F5B" d="M304.4,322.3h-3.7v-34.9h3.7V322.3z"/>
		<path fill="#3E4F5B" d="M311.7,291c0-0.9,0.2-1.5,0.6-1.9s0.9-0.6,1.6-0.6c0.6,0,1.1,0.2,1.5,0.6s0.7,1,0.7,1.9
			c0,0.8-0.2,1.5-0.7,1.9s-1,0.6-1.5,0.6c-0.6,0-1.2-0.2-1.6-0.6S311.7,291.8,311.7,291z M315.8,322.3h-3.7v-24.6h3.7V322.3z"/>
		<path fill="#3E4F5B" d="M334.6,300.6h-6.3v21.7h-3.7v-21.7h-4.4v-1.7l4.4-1.3v-1.4c0-6,2.6-9.1,7.9-9.1c1.3,0,2.8,0.3,4.6,0.8
			l-1,3c-1.4-0.5-2.7-0.7-3.7-0.7c-1.4,0-2.4,0.5-3.1,1.4s-1,2.4-1,4.5v1.6h6.3V300.6z"/>
		<path fill="#3E4F5B" d="M349.2,322.7c-3.6,0-6.5-1.1-8.6-3.3c-2.1-2.2-3.2-5.3-3.2-9.2c0-4,1-7.1,2.9-9.5s4.6-3.5,7.9-3.5
			c3.1,0,5.5,1,7.3,3s2.7,4.7,2.7,8v2.4h-17c0.1,2.9,0.8,5.1,2.2,6.6c1.4,1.5,3.3,2.2,5.9,2.2c2.7,0,5.3-0.6,7.9-1.7v3.3
			c-1.3,0.6-2.6,1-3.7,1.2C352.3,322.6,350.9,322.7,349.2,322.7z M348.2,300.3c-2,0-3.6,0.6-4.7,1.9c-1.2,1.3-1.9,3.1-2.1,5.3h12.9
			c0-2.4-0.5-4.2-1.6-5.4S350.2,300.3,348.2,300.3z"/>
		<path fill="#3E4F5B" d="M380.3,315.6c0,2.3-0.9,4.1-2.6,5.3c-1.7,1.2-4.1,1.9-7.2,1.9c-3.3,0-5.8-0.5-7.6-1.5v-3.5
			c1.2,0.6,2.5,1.1,3.8,1.4c1.4,0.3,2.7,0.5,3.9,0.5c1.9,0,3.4-0.3,4.5-0.9c1-0.6,1.6-1.6,1.6-2.8c0-1-0.4-1.8-1.2-2.5
			s-2.5-1.5-4.9-2.4c-2.3-0.9-3.9-1.6-4.9-2.2s-1.7-1.4-2.2-2.2s-0.7-1.8-0.7-2.9c0-2,0.8-3.6,2.4-4.8c1.6-1.2,3.9-1.7,6.7-1.7
			c2.7,0,5.2,0.5,7.8,1.6l-1.3,3c-2.5-1-4.7-1.5-6.7-1.5c-1.8,0-3.1,0.3-4,0.8c-0.9,0.6-1.3,1.3-1.3,2.3c0,0.7,0.2,1.2,0.5,1.7
			c0.3,0.5,0.9,0.9,1.6,1.3c0.7,0.4,2.2,1,4.3,1.8c2.9,1.1,4.9,2.1,5.9,3.2S380.3,313.9,380.3,315.6z"/>
		<path fill="#3E4F5B" d="M394.1,319.6c0.7,0,1.3,0,1.9-0.1s1.1-0.2,1.5-0.3v2.9c-0.4,0.2-1,0.4-1.8,0.5c-0.8,0.1-1.5,0.2-2.1,0.2
			c-4.8,0-7.1-2.5-7.1-7.5v-14.6h-3.5v-1.8l3.5-1.5l1.6-5.3h2.2v5.7h7.1v2.9h-7.1V315c0,1.5,0.4,2.6,1.1,3.4
			C391.9,319.3,392.8,319.6,394.1,319.6z"/>
		<path fill="#3E4F5B" d="M398.2,297.7h4l5.4,14c1.2,3.2,1.9,5.5,2.2,6.9h0.2c0.2-0.8,0.6-2.1,1.2-3.9s2.7-7.5,6.1-17.1h4l-10.6,28
			c-1,2.8-2.3,4.7-3.7,5.9c-1.4,1.2-3.1,1.7-5.2,1.7c-1.1,0-2.3-0.1-3.4-0.4v-3c0.8,0.2,1.7,0.3,2.8,0.3c2.6,0,4.4-1.4,5.5-4.3
			l1.4-3.5L398.2,297.7z"/>
		<path fill="#3E4F5B" d="M428.8,322.3h-3.7v-34.9h3.7V322.3z"/>
		<path fill="#3E4F5B" d="M446.9,322.7c-3.6,0-6.5-1.1-8.6-3.3c-2.1-2.2-3.2-5.3-3.2-9.2c0-4,1-7.1,2.9-9.5s4.6-3.5,7.9-3.5
			c3.1,0,5.5,1,7.3,3s2.7,4.7,2.7,8v2.4h-17c0.1,2.9,0.8,5.1,2.2,6.6c1.4,1.5,3.3,2.2,5.9,2.2c2.7,0,5.3-0.6,7.9-1.7v3.3
			c-1.3,0.6-2.6,1-3.7,1.2S448.5,322.7,446.9,322.7z M445.9,300.3c-2,0-3.6,0.6-4.7,1.9c-1.2,1.3-1.9,3.1-2.1,5.3h12.9
			c0-2.4-0.5-4.2-1.6-5.4C449.3,301,447.8,300.3,445.9,300.3z"/>
		<path fill="#3E4F5B" d="M485,297.2c1.1,0,2.1,0.1,2.9,0.3l-0.5,3.5c-1-0.2-1.9-0.3-2.7-0.3c-2,0-3.7,0.8-5.1,2.4s-2.1,3.6-2.1,6
			v13.2h-3.7v-24.6h3.1l0.4,4.6h0.2c0.9-1.6,2-2.8,3.3-3.7C482,297.6,483.5,297.2,485,297.2z"/>
		<path fill="#3E4F5B" d="M492,291c0-0.9,0.2-1.5,0.6-1.9c0.4-0.4,0.9-0.6,1.6-0.6c0.6,0,1.1,0.2,1.5,0.6c0.4,0.4,0.7,1,0.7,1.9
			c0,0.8-0.2,1.5-0.7,1.9c-0.4,0.4-1,0.6-1.5,0.6c-0.6,0-1.2-0.2-1.6-0.6C492.2,292.5,492,291.8,492,291z M496,322.3h-3.7v-24.6h3.7
			V322.3z"/>
		<path fill="#3E4F5B" d="M519.6,315.6c0,2.3-0.9,4.1-2.6,5.3c-1.7,1.2-4.1,1.9-7.2,1.9c-3.3,0-5.8-0.5-7.6-1.5v-3.5
			c1.2,0.6,2.5,1.1,3.8,1.4c1.4,0.3,2.7,0.5,3.9,0.5c1.9,0,3.4-0.3,4.5-0.9s1.6-1.6,1.6-2.8c0-1-0.4-1.8-1.2-2.5s-2.5-1.5-4.9-2.4
			c-2.3-0.9-3.9-1.6-4.9-2.2s-1.7-1.4-2.2-2.2s-0.7-1.8-0.7-2.9c0-2,0.8-3.6,2.4-4.8s3.9-1.7,6.7-1.7c2.7,0,5.2,0.5,7.8,1.6l-1.3,3
			c-2.5-1-4.7-1.5-6.7-1.5c-1.8,0-3.1,0.3-4,0.8c-0.9,0.6-1.3,1.3-1.3,2.3c0,0.7,0.2,1.2,0.5,1.7c0.3,0.5,0.9,0.9,1.6,1.3
			c0.7,0.4,2.2,1,4.3,1.8c2.9,1.1,4.9,2.1,5.9,3.2C519.1,312.6,519.6,313.9,519.6,315.6z"/>
		<path fill="#3E4F5B" d="M529.1,309.7c0.6-0.9,1.6-2.1,2.9-3.6l8-8.4h4.4l-10,10.5l10.7,14.1h-4.5l-8.7-11.6l-2.8,2.4v9.2h-3.7
			v-34.9h3.7v18.5c0,0.8-0.1,2.1-0.2,3.8H529.1z"/>
		<path fill="#3E4F5B" d="M565.2,315.6c0,2.3-0.9,4.1-2.6,5.3c-1.7,1.2-4.1,1.9-7.2,1.9c-3.3,0-5.8-0.5-7.6-1.5v-3.5
			c1.2,0.6,2.5,1.1,3.8,1.4c1.4,0.3,2.7,0.5,3.9,0.5c1.9,0,3.4-0.3,4.5-0.9s1.6-1.6,1.6-2.8c0-1-0.4-1.8-1.2-2.5s-2.5-1.5-4.9-2.4
			c-2.3-0.9-3.9-1.6-4.9-2.2s-1.7-1.4-2.2-2.2s-0.7-1.8-0.7-2.9c0-2,0.8-3.6,2.4-4.8s3.9-1.7,6.7-1.7c2.7,0,5.2,0.5,7.8,1.6l-1.3,3
			c-2.5-1-4.7-1.5-6.7-1.5c-1.8,0-3.1,0.3-4,0.8c-0.9,0.6-1.3,1.3-1.3,2.3c0,0.7,0.2,1.2,0.5,1.7c0.3,0.5,0.9,0.9,1.6,1.3
			c0.7,0.4,2.2,1,4.3,1.8c2.9,1.1,4.9,2.1,5.9,3.2C564.7,312.6,565.2,313.9,565.2,315.6z"/>
	</g>
	<g>
		<path fill="#3E4F5B" d="M223.6,499h-3.3v-25.6h-9v-2.9h21.4v2.9h-9V499z"/>
		<path fill="#3E4F5B" d="M246,477.2c1,0,1.8,0.1,2.6,0.2l-0.4,3c-0.9-0.2-1.7-0.3-2.3-0.3c-1.7,0-3.2,0.7-4.4,2.1s-1.8,3.2-1.8,5.3
			V499h-3.2v-21.4h2.7l0.4,4h0.2c0.8-1.4,1.8-2.5,2.9-3.2C243.4,477.6,244.7,477.2,246,477.2z"/>
		<path fill="#3E4F5B" d="M249,477.6h3.5l4.7,12.2c1,2.8,1.7,4.8,1.9,6h0.2c0.2-0.7,0.5-1.8,1.1-3.4c0.5-1.6,2.3-6.6,5.3-14.8h3.5
			l-9.2,24.4c-0.9,2.4-2,4.1-3.2,5.1c-1.2,1-2.7,1.5-4.5,1.5c-1,0-2-0.1-2.9-0.3v-2.6c0.7,0.2,1.5,0.2,2.4,0.2
			c2.2,0,3.8-1.2,4.8-3.8l1.2-3L249,477.6z"/>
		<path fill="#3E4F5B" d="M296.3,493.2c0,2-0.7,3.5-2.2,4.6c-1.5,1.1-3.6,1.6-6.2,1.6c-2.8,0-5.1-0.4-6.6-1.3v-3
			c1,0.5,2.1,0.9,3.3,1.2c1.2,0.3,2.3,0.4,3.4,0.4c1.7,0,3-0.3,3.9-0.8c0.9-0.5,1.4-1.4,1.4-2.5c0-0.8-0.4-1.5-1.1-2.1
			c-0.7-0.6-2.1-1.3-4.2-2.1c-2-0.7-3.4-1.4-4.2-1.9c-0.8-0.6-1.5-1.2-1.9-1.9s-0.6-1.5-0.6-2.5c0-1.7,0.7-3.1,2.1-4.1
			c1.4-1,3.4-1.5,5.8-1.5c2.3,0,4.6,0.5,6.8,1.4l-1.2,2.6c-2.1-0.9-4.1-1.3-5.8-1.3c-1.5,0-2.7,0.2-3.5,0.7c-0.8,0.5-1.2,1.1-1.2,2
			c0,0.6,0.1,1.1,0.4,1.5c0.3,0.4,0.8,0.8,1.4,1.2c0.7,0.4,1.9,0.9,3.8,1.6c2.5,0.9,4.3,1.9,5.1,2.8S296.3,491.7,296.3,493.2z"/>
		<path fill="#3E4F5B" d="M319.9,488.3c0,3.5-0.9,6.2-2.6,8.2c-1.8,2-4.2,2.9-7.3,2.9c-1.9,0-3.6-0.4-5.1-1.3s-2.6-2.2-3.4-3.9
			s-1.2-3.6-1.2-5.9c0-3.5,0.9-6.2,2.6-8.2c1.7-1.9,4.2-2.9,7.3-2.9c3,0,5.4,1,7.1,3S319.9,484.9,319.9,488.3z M303.6,488.3
			c0,2.7,0.5,4.8,1.6,6.2c1.1,1.4,2.7,2.1,4.8,2.1s3.7-0.7,4.8-2.1s1.7-3.5,1.7-6.3c0-2.7-0.5-4.8-1.7-6.2c-1.1-1.4-2.7-2.1-4.9-2.1
			c-2.1,0-3.7,0.7-4.8,2.1C304.1,483.4,303.6,485.5,303.6,488.3z"/>
		<path fill="#3E4F5B" d="M328.6,499h-3.2v-30.4h3.2V499z"/>
		<path fill="#3E4F5B" d="M338.3,477.6v13.9c0,1.7,0.4,3,1.2,3.9c0.8,0.9,2,1.3,3.7,1.3c2.2,0,3.9-0.6,4.9-1.8c1-1.2,1.6-3.2,1.6-6
			v-11.2h3.2V499h-2.7l-0.5-2.9h-0.2c-0.7,1.1-1.6,1.9-2.8,2.4c-1.2,0.6-2.5,0.8-4,0.8c-2.6,0-4.6-0.6-5.8-1.9
			c-1.3-1.2-1.9-3.2-1.9-5.9v-14H338.3z"/>
		<path fill="#3E4F5B" d="M366.5,496.7c0.6,0,1.1,0,1.7-0.1c0.5-0.1,1-0.2,1.3-0.3v2.5c-0.4,0.2-0.9,0.3-1.6,0.4s-1.3,0.2-1.8,0.2
			c-4.1,0-6.2-2.2-6.2-6.5v-12.7h-3.1v-1.6l3.1-1.3l1.4-4.6h1.9v5h6.2v2.5h-6.2v12.6c0,1.3,0.3,2.3,0.9,3
			C364.6,496.4,365.5,496.7,366.5,496.7z"/>
		<path fill="#3E4F5B" d="M373.3,471.8c0-0.7,0.2-1.3,0.5-1.6c0.4-0.3,0.8-0.5,1.4-0.5c0.5,0,1,0.2,1.3,0.5s0.6,0.9,0.6,1.6
			c0,0.7-0.2,1.3-0.6,1.6c-0.4,0.4-0.8,0.5-1.3,0.5c-0.5,0-1-0.2-1.4-0.5C373.5,473.1,373.3,472.5,373.3,471.8z M376.8,499h-3.2
			v-21.4h3.2V499z"/>
		<path fill="#3E4F5B" d="M401.9,488.3c0,3.5-0.9,6.2-2.6,8.2c-1.8,2-4.2,2.9-7.3,2.9c-1.9,0-3.6-0.4-5.1-1.3s-2.6-2.2-3.4-3.9
			s-1.2-3.6-1.2-5.9c0-3.5,0.9-6.2,2.6-8.2c1.7-1.9,4.2-2.9,7.3-2.9c3,0,5.4,1,7.1,3S401.9,484.9,401.9,488.3z M385.6,488.3
			c0,2.7,0.5,4.8,1.6,6.2c1.1,1.4,2.7,2.1,4.8,2.1s3.7-0.7,4.8-2.1s1.7-3.5,1.7-6.3c0-2.7-0.5-4.8-1.7-6.2c-1.1-1.4-2.7-2.1-4.9-2.1
			c-2.1,0-3.7,0.7-4.8,2.1C386.2,483.4,385.6,485.5,385.6,488.3z"/>
		<path fill="#3E4F5B" d="M422.1,499v-13.8c0-1.7-0.4-3-1.2-3.9s-2-1.3-3.7-1.3c-2.2,0-3.9,0.6-4.9,1.8s-1.6,3.2-1.6,6V499h-3.2
			v-21.4h2.6l0.5,2.9h0.2c0.7-1.1,1.6-1.9,2.8-2.5c1.2-0.6,2.5-0.9,4-0.9c2.6,0,4.5,0.6,5.8,1.9c1.3,1.2,2,3.2,2,6v14H422.1z"/>
		<path fill="#3E4F5B" d="M445.6,493.2c0,2-0.7,3.5-2.2,4.6c-1.5,1.1-3.6,1.6-6.2,1.6c-2.8,0-5.1-0.4-6.6-1.3v-3
			c1,0.5,2.1,0.9,3.3,1.2c1.2,0.3,2.3,0.4,3.4,0.4c1.7,0,3-0.3,3.9-0.8c0.9-0.5,1.4-1.4,1.4-2.5c0-0.8-0.4-1.5-1.1-2.1
			c-0.7-0.6-2.1-1.3-4.2-2.1c-2-0.7-3.4-1.4-4.2-1.9c-0.8-0.6-1.5-1.2-1.9-1.9s-0.6-1.5-0.6-2.5c0-1.7,0.7-3.1,2.1-4.1
			c1.4-1,3.4-1.5,5.8-1.5c2.3,0,4.6,0.5,6.8,1.4l-1.2,2.6c-2.1-0.9-4.1-1.3-5.8-1.3c-1.5,0-2.7,0.2-3.5,0.7c-0.8,0.5-1.2,1.1-1.2,2
			c0,0.6,0.1,1.1,0.4,1.5c0.3,0.4,0.8,0.8,1.4,1.2c0.7,0.4,1.9,0.9,3.8,1.6c2.5,0.9,4.3,1.9,5.1,2.8
			C445.1,490.6,445.6,491.7,445.6,493.2z"/>
		<path fill="#3E4F5B" d="M470.5,480.1H465V499h-3.2v-18.9H458v-1.5l3.8-1.2v-1.2c0-5.3,2.3-7.9,6.9-7.9c1.1,0,2.5,0.2,4,0.7
			l-0.8,2.6c-1.2-0.4-2.3-0.6-3.2-0.6c-1.2,0-2.1,0.4-2.7,1.2c-0.6,0.8-0.9,2.1-0.9,3.9v1.4h5.4V480.1z"/>
		<path fill="#3E4F5B" d="M484,477.2c1,0,1.8,0.1,2.6,0.2l-0.4,3c-0.9-0.2-1.7-0.3-2.3-0.3c-1.7,0-3.2,0.7-4.4,2.1s-1.8,3.2-1.8,5.3
			V499h-3.2v-21.4h2.7l0.4,4h0.2c0.8-1.4,1.8-2.5,2.9-3.2C481.4,477.6,482.6,477.2,484,477.2z"/>
		<path fill="#3E4F5B" d="M508.8,488.3c0,3.5-0.9,6.2-2.6,8.2c-1.8,2-4.2,2.9-7.3,2.9c-1.9,0-3.6-0.4-5.1-1.3s-2.6-2.2-3.4-3.9
			s-1.2-3.6-1.2-5.9c0-3.5,0.9-6.2,2.6-8.2c1.7-1.9,4.2-2.9,7.3-2.9c3,0,5.4,1,7.1,3S508.8,484.9,508.8,488.3z M492.5,488.3
			c0,2.7,0.5,4.8,1.6,6.2c1.1,1.4,2.7,2.1,4.8,2.1s3.7-0.7,4.8-2.1s1.7-3.5,1.7-6.3c0-2.7-0.5-4.8-1.7-6.2c-1.1-1.4-2.7-2.1-4.9-2.1
			c-2.1,0-3.7,0.7-4.8,2.1C493,483.4,492.5,485.5,492.5,488.3z"/>
		<path fill="#3E4F5B" d="M541.6,499v-13.9c0-1.7-0.4-3-1.1-3.8c-0.7-0.9-1.9-1.3-3.4-1.3c-2,0-3.5,0.6-4.5,1.7
			c-1,1.2-1.4,2.9-1.4,5.4v12h-3.2v-13.9c0-1.7-0.4-3-1.1-3.8c-0.7-0.9-1.9-1.3-3.4-1.3c-2,0-3.5,0.6-4.5,1.8
			c-0.9,1.2-1.4,3.2-1.4,6V499h-3.2v-21.4h2.6l0.5,2.9h0.2c0.6-1,1.5-1.9,2.6-2.4s2.4-0.9,3.7-0.9c3.3,0,5.5,1.2,6.6,3.6h0.2
			c0.6-1.1,1.6-2,2.8-2.7c1.2-0.7,2.6-1,4.1-1c2.4,0,4.2,0.6,5.4,1.9c1.2,1.2,1.8,3.2,1.8,6v14H541.6z"/>
		<path fill="#3E4F5B" d="M571.3,477.2c1,0,1.8,0.1,2.6,0.2l-0.4,3c-0.9-0.2-1.7-0.3-2.3-0.3c-1.7,0-3.2,0.7-4.4,2.1
			s-1.8,3.2-1.8,5.3V499h-3.2v-21.4h2.7l0.4,4h0.2c0.8-1.4,1.8-2.5,2.9-3.2C568.7,477.6,569.9,477.2,571.3,477.2z"/>
		<path fill="#3E4F5B" d="M586.7,499.4c-3.2,0-5.7-1-7.5-2.9c-1.8-1.9-2.7-4.6-2.7-8c0-3.5,0.8-6.2,2.5-8.2s4-3,6.8-3
			c2.7,0,4.8,0.9,6.4,2.6c1.6,1.8,2.3,4.1,2.3,7v2.1h-14.7c0.1,2.5,0.7,4.4,1.9,5.7c1.2,1.3,2.9,2,5.1,2c2.3,0,4.6-0.5,6.8-1.4v2.9
			c-1.1,0.5-2.2,0.8-3.3,1.1S588.1,499.4,586.7,499.4z M585.8,479.9c-1.7,0-3.1,0.6-4.1,1.7c-1,1.1-1.6,2.7-1.8,4.6h11.2
			c0-2-0.5-3.6-1.4-4.7C588.8,480.5,587.5,479.9,585.8,479.9z"/>
		<path fill="#3E4F5B" d="M606.8,496.7c0.6,0,1.1,0,1.7-0.1c0.5-0.1,1-0.2,1.3-0.3v2.5c-0.4,0.2-0.9,0.3-1.6,0.4s-1.3,0.2-1.8,0.2
			c-4.1,0-6.2-2.2-6.2-6.5v-12.7H597v-1.6l3.1-1.3l1.4-4.6h1.9v5h6.2v2.5h-6.2v12.6c0,1.3,0.3,2.3,0.9,3
			C604.9,496.4,605.7,496.7,606.8,496.7z"/>
		<path fill="#3E4F5B" d="M626.9,499l-0.6-3h-0.2c-1.1,1.3-2.1,2.2-3.2,2.7c-1.1,0.5-2.4,0.7-4,0.7c-2.1,0-3.8-0.5-5-1.6
			c-1.2-1.1-1.8-2.6-1.8-4.7c0-4.3,3.5-6.6,10.4-6.8l3.6-0.1v-1.3c0-1.7-0.4-2.9-1.1-3.7s-1.9-1.2-3.5-1.2c-1.8,0-3.8,0.5-6.1,1.6
			l-1-2.5c1.1-0.6,2.2-1,3.5-1.3c1.3-0.3,2.5-0.5,3.8-0.5c2.6,0,4.4,0.6,5.7,1.7s1.8,2.9,1.8,5.4V499H626.9z M619.6,496.7
			c2,0,3.6-0.6,4.8-1.7c1.2-1.1,1.7-2.7,1.7-4.6v-1.9l-3.2,0.1c-2.6,0.1-4.4,0.5-5.6,1.2c-1.1,0.7-1.7,1.8-1.7,3.3
			c0,1.2,0.4,2.1,1.1,2.7C617.4,496.4,618.3,496.7,619.6,496.7z"/>
		<path fill="#3E4F5B" d="M635.6,471.8c0-0.7,0.2-1.3,0.5-1.6c0.4-0.3,0.8-0.5,1.4-0.5c0.5,0,1,0.2,1.3,0.5c0.4,0.4,0.6,0.9,0.6,1.6
			c0,0.7-0.2,1.3-0.6,1.6c-0.4,0.4-0.8,0.5-1.3,0.5c-0.5,0-1-0.2-1.4-0.5C635.7,473.1,635.6,472.5,635.6,471.8z M639.1,499h-3.2
			v-21.4h3.2V499z"/>
		<path fill="#3E4F5B" d="M649,499h-3.2v-30.4h3.2V499z"/>
		<path fill="#3E4F5B" d="M227.5,547l-0.6-3h-0.2c-1.1,1.3-2.1,2.2-3.2,2.7c-1.1,0.5-2.4,0.7-4,0.7c-2.1,0-3.8-0.5-5-1.6
			s-1.8-2.6-1.8-4.7c0-4.3,3.5-6.6,10.4-6.8l3.6-0.1v-1.3c0-1.7-0.4-2.9-1.1-3.7s-1.9-1.2-3.5-1.2c-1.8,0-3.8,0.5-6.1,1.6l-1-2.5
			c1.1-0.6,2.2-1,3.5-1.3c1.3-0.3,2.5-0.5,3.8-0.5c2.6,0,4.4,0.6,5.7,1.7s1.8,2.9,1.8,5.4V547H227.5z M220.2,544.7
			c2,0,3.6-0.6,4.8-1.7c1.2-1.1,1.7-2.7,1.7-4.6v-1.9l-3.2,0.1c-2.6,0.1-4.4,0.5-5.6,1.2c-1.1,0.7-1.7,1.8-1.7,3.3
			c0,1.2,0.4,2.1,1.1,2.7C217.9,544.4,218.9,544.7,220.2,544.7z"/>
		<path fill="#3E4F5B" d="M251,547v-13.8c0-1.7-0.4-3-1.2-3.9s-2-1.3-3.7-1.3c-2.2,0-3.9,0.6-4.9,1.8s-1.6,3.2-1.6,6V547h-3.2v-21.4
			h2.6l0.5,2.9h0.2c0.7-1.1,1.6-1.9,2.8-2.5c1.2-0.6,2.5-0.9,4-0.9c2.6,0,4.5,0.6,5.8,1.9c1.3,1.2,2,3.2,2,6v14H251z"/>
		<path fill="#3E4F5B" d="M275.3,544.1h-0.2c-1.5,2.2-3.7,3.3-6.7,3.3c-2.8,0-5-1-6.5-2.9c-1.6-1.9-2.3-4.6-2.3-8.2
			c0-3.5,0.8-6.3,2.3-8.2s3.7-2.9,6.5-2.9c2.9,0,5.1,1.1,6.7,3.2h0.3l-0.1-1.5l-0.1-1.5v-8.7h3.2V547h-2.6L275.3,544.1z
			 M268.8,544.7c2.2,0,3.8-0.6,4.8-1.8c1-1.2,1.5-3.1,1.5-5.8v-0.7c0-3-0.5-5.2-1.5-6.5c-1-1.3-2.6-1.9-4.8-1.9
			c-1.9,0-3.4,0.7-4.4,2.2c-1,1.5-1.5,3.6-1.5,6.3c0,2.7,0.5,4.8,1.5,6.2C265.4,544,266.9,544.7,268.8,544.7z"/>
		<path fill="#3E4F5B" d="M309,541.2c0,2-0.7,3.5-2.2,4.6c-1.5,1.1-3.6,1.6-6.2,1.6c-2.8,0-5.1-0.4-6.6-1.3v-3
			c1,0.5,2.1,0.9,3.3,1.2c1.2,0.3,2.3,0.4,3.4,0.4c1.7,0,3-0.3,3.9-0.8c0.9-0.5,1.4-1.4,1.4-2.5c0-0.8-0.4-1.5-1.1-2.1
			c-0.7-0.6-2.1-1.3-4.2-2.1c-2-0.7-3.4-1.4-4.2-1.9c-0.8-0.6-1.5-1.2-1.9-1.9s-0.6-1.5-0.6-2.5c0-1.7,0.7-3.1,2.1-4.1
			c1.4-1,3.4-1.5,5.8-1.5c2.3,0,4.6,0.5,6.8,1.4l-1.2,2.6c-2.1-0.9-4.1-1.3-5.8-1.3c-1.5,0-2.7,0.2-3.5,0.7c-0.8,0.5-1.2,1.1-1.2,2
			c0,0.6,0.1,1.1,0.4,1.5c0.3,0.4,0.8,0.8,1.4,1.2c0.7,0.4,1.9,0.9,3.8,1.6c2.5,0.9,4.3,1.9,5.1,2.8S309,539.7,309,541.2z"/>
		<path fill="#3E4F5B" d="M324.1,547.4c-1.4,0-2.7-0.3-3.8-0.8c-1.2-0.5-2.1-1.3-2.9-2.4h-0.2c0.2,1.2,0.2,2.4,0.2,3.6v8.8h-3.2v-31
			h2.6l0.4,2.9h0.2c0.8-1.2,1.8-2,2.9-2.5c1.1-0.5,2.4-0.8,3.8-0.8c2.8,0,5,1,6.6,2.9c1.5,1.9,2.3,4.7,2.3,8.2
			c0,3.5-0.8,6.2-2.4,8.2C329,546.4,326.8,547.4,324.1,547.4z M323.6,528c-2.2,0-3.8,0.6-4.7,1.8s-1.5,3.1-1.5,5.8v0.7
			c0,3,0.5,5.2,1.5,6.5c1,1.3,2.6,1.9,4.8,1.9c1.8,0,3.3-0.7,4.3-2.2c1-1.5,1.6-3.6,1.6-6.2c0-2.7-0.5-4.7-1.6-6.1
			S325.5,528,323.6,528z"/>
		<path fill="#3E4F5B" d="M347.5,547.4c-3.2,0-5.7-1-7.5-2.9c-1.8-1.9-2.7-4.6-2.7-8c0-3.5,0.8-6.2,2.5-8.2s4-3,6.8-3
			c2.7,0,4.8,0.9,6.4,2.6c1.6,1.8,2.3,4.1,2.3,7v2.1h-14.7c0.1,2.5,0.7,4.4,1.9,5.7c1.2,1.3,2.9,2,5.1,2c2.3,0,4.6-0.5,6.8-1.4v2.9
			c-1.1,0.5-2.2,0.8-3.3,1.1S348.9,547.4,347.5,547.4z M346.6,527.9c-1.7,0-3.1,0.6-4.1,1.7c-1,1.1-1.6,2.7-1.8,4.6h11.2
			c0-2-0.5-3.6-1.4-4.7C349.6,528.5,348.3,527.9,346.6,527.9z"/>
		<path fill="#3E4F5B" d="M369.2,547.4c-3.1,0-5.5-1-7.2-2.9c-1.7-1.9-2.5-4.6-2.5-8.1c0-3.6,0.9-6.3,2.6-8.3c1.7-2,4.2-2.9,7.4-2.9
			c1,0,2.1,0.1,3.1,0.3c1,0.2,1.8,0.5,2.4,0.8l-1,2.8c-0.7-0.3-1.5-0.5-2.3-0.7c-0.8-0.2-1.6-0.3-2.2-0.3c-4.3,0-6.5,2.8-6.5,8.3
			c0,2.6,0.5,4.6,1.6,6.1c1.1,1.4,2.6,2.1,4.7,2.1c1.8,0,3.6-0.4,5.5-1.2v2.9C373.2,547,371.4,547.4,369.2,547.4z"/>
		<path fill="#3E4F5B" d="M379.2,519.8c0-0.7,0.2-1.3,0.5-1.6c0.4-0.3,0.8-0.5,1.4-0.5c0.5,0,1,0.2,1.3,0.5c0.4,0.4,0.6,0.9,0.6,1.6
			c0,0.7-0.2,1.3-0.6,1.6c-0.4,0.4-0.8,0.5-1.3,0.5c-0.5,0-1-0.2-1.4-0.5C379.4,521.1,379.2,520.5,379.2,519.8z M382.7,547h-3.2
			v-21.4h3.2V547z"/>
		<path fill="#3E4F5B" d="M402.6,547l-0.6-3h-0.2c-1.1,1.3-2.1,2.2-3.2,2.7c-1.1,0.5-2.4,0.7-4,0.7c-2.1,0-3.8-0.5-5-1.6
			s-1.8-2.6-1.8-4.7c0-4.3,3.5-6.6,10.4-6.8l3.6-0.1v-1.3c0-1.7-0.4-2.9-1.1-3.7s-1.9-1.2-3.5-1.2c-1.8,0-3.8,0.5-6.1,1.6l-1-2.5
			c1.1-0.6,2.2-1,3.5-1.3c1.3-0.3,2.5-0.5,3.8-0.5c2.6,0,4.4,0.6,5.7,1.7s1.8,2.9,1.8,5.4V547H402.6z M395.2,544.7
			c2,0,3.6-0.6,4.8-1.7c1.2-1.1,1.7-2.7,1.7-4.6v-1.9l-3.2,0.1c-2.6,0.1-4.4,0.5-5.6,1.2c-1.1,0.7-1.7,1.8-1.7,3.3
			c0,1.2,0.4,2.1,1.1,2.7C393,544.4,394,544.7,395.2,544.7z"/>
		<path fill="#3E4F5B" d="M414.7,547h-3.2v-30.4h3.2V547z"/>
		<path fill="#3E4F5B" d="M421.1,519.8c0-0.7,0.2-1.3,0.5-1.6c0.4-0.3,0.8-0.5,1.4-0.5c0.5,0,1,0.2,1.3,0.5s0.6,0.9,0.6,1.6
			c0,0.7-0.2,1.3-0.6,1.6c-0.4,0.4-0.8,0.5-1.3,0.5c-0.5,0-1-0.2-1.4-0.5C421.3,521.1,421.1,520.5,421.1,519.8z M424.6,547h-3.2
			v-21.4h3.2V547z"/>
		<path fill="#3E4F5B" d="M438.2,544.7c0.6,0,1.1,0,1.7-0.1c0.5-0.1,1-0.2,1.3-0.3v2.5c-0.4,0.2-0.9,0.3-1.6,0.4s-1.3,0.2-1.8,0.2
			c-4.1,0-6.2-2.2-6.2-6.5v-12.7h-3.1v-1.6l3.1-1.3l1.4-4.6h1.9v5h6.2v2.5h-6.2v12.6c0,1.3,0.3,2.3,0.9,3
			C436.3,544.4,437.1,544.7,438.2,544.7z"/>
		<path fill="#3E4F5B" d="M441.8,525.6h3.5l4.7,12.2c1,2.8,1.7,4.8,1.9,6h0.2c0.2-0.7,0.5-1.8,1.1-3.4c0.5-1.6,2.3-6.6,5.3-14.8h3.5
			l-9.2,24.4c-0.9,2.4-2,4.1-3.2,5.1c-1.2,1-2.7,1.5-4.5,1.5c-1,0-2-0.1-2.9-0.3v-2.6c0.7,0.2,1.5,0.2,2.4,0.2
			c2.2,0,3.8-1.2,4.8-3.8l1.2-3L441.8,525.6z"/>
		<path fill="#3E4F5B" d="M489.2,541.2c0,2-0.7,3.5-2.2,4.6c-1.5,1.1-3.6,1.6-6.2,1.6c-2.8,0-5.1-0.4-6.6-1.3v-3
			c1,0.5,2.1,0.9,3.3,1.2c1.2,0.3,2.3,0.4,3.4,0.4c1.7,0,3-0.3,3.9-0.8c0.9-0.5,1.4-1.4,1.4-2.5c0-0.8-0.4-1.5-1.1-2.1
			c-0.7-0.6-2.1-1.3-4.2-2.1c-2-0.7-3.4-1.4-4.2-1.9c-0.8-0.6-1.5-1.2-1.9-1.9s-0.6-1.5-0.6-2.5c0-1.7,0.7-3.1,2.1-4.1
			c1.4-1,3.4-1.5,5.8-1.5c2.3,0,4.6,0.5,6.8,1.4l-1.2,2.6c-2.1-0.9-4.1-1.3-5.8-1.3c-1.5,0-2.7,0.2-3.5,0.7c-0.8,0.5-1.2,1.1-1.2,2
			c0,0.6,0.1,1.1,0.4,1.5c0.3,0.4,0.8,0.8,1.4,1.2c0.7,0.4,1.9,0.9,3.8,1.6c2.5,0.9,4.3,1.9,5.1,2.8S489.2,539.7,489.2,541.2z"/>
		<path fill="#3E4F5B" d="M501.2,544.7c0.6,0,1.1,0,1.7-0.1c0.5-0.1,1-0.2,1.3-0.3v2.5c-0.4,0.2-0.9,0.3-1.6,0.4s-1.3,0.2-1.8,0.2
			c-4.1,0-6.2-2.2-6.2-6.5v-12.7h-3.1v-1.6l3.1-1.3l1.4-4.6h1.9v5h6.2v2.5h-6.2v12.6c0,1.3,0.3,2.3,0.9,3
			C499.2,544.4,500.1,544.7,501.2,544.7z"/>
		<path fill="#3E4F5B" d="M526.6,536.3c0,3.5-0.9,6.2-2.6,8.2c-1.8,2-4.2,2.9-7.3,2.9c-1.9,0-3.6-0.4-5.1-1.3
			c-1.5-0.9-2.6-2.2-3.4-3.9c-0.8-1.7-1.2-3.6-1.2-5.9c0-3.5,0.9-6.2,2.6-8.2c1.7-1.9,4.2-2.9,7.3-2.9c3,0,5.4,1,7.1,3
			C525.8,530.2,526.6,532.9,526.6,536.3z M510.3,536.3c0,2.7,0.5,4.8,1.6,6.2c1.1,1.4,2.7,2.1,4.8,2.1c2.1,0,3.7-0.7,4.8-2.1
			c1.1-1.4,1.7-3.5,1.7-6.3c0-2.7-0.6-4.8-1.7-6.2c-1.1-1.4-2.7-2.1-4.9-2.1c-2.1,0-3.7,0.7-4.8,2.1
			C510.9,531.4,510.3,533.5,510.3,536.3z"/>
		<path fill="#3E4F5B" d="M541.9,525.2c1,0,1.8,0.1,2.6,0.2l-0.4,3c-0.9-0.2-1.7-0.3-2.3-0.3c-1.7,0-3.2,0.7-4.4,2.1
			s-1.8,3.2-1.8,5.3V547h-3.2v-21.4h2.7l0.4,4h0.2c0.8-1.4,1.8-2.5,2.9-3.2C539.3,525.6,540.5,525.2,541.9,525.2z"/>
		<path fill="#3E4F5B" d="M557.3,547.4c-3.2,0-5.7-1-7.5-2.9c-1.8-1.9-2.7-4.6-2.7-8c0-3.5,0.8-6.2,2.5-8.2s4-3,6.8-3
			c2.7,0,4.8,0.9,6.4,2.6c1.6,1.8,2.3,4.1,2.3,7v2.1h-14.7c0.1,2.5,0.7,4.4,1.9,5.7c1.2,1.3,2.9,2,5.1,2c2.3,0,4.6-0.5,6.8-1.4v2.9
			c-1.1,0.5-2.2,0.8-3.3,1.1S558.7,547.4,557.3,547.4z M556.4,527.9c-1.7,0-3.1,0.6-4.1,1.7c-1,1.1-1.6,2.7-1.8,4.6h11.2
			c0-2-0.5-3.6-1.4-4.7C559.4,528.5,558.1,527.9,556.4,527.9z"/>
		<path fill="#3E4F5B" d="M584.3,541.2c0,2-0.7,3.5-2.2,4.6c-1.5,1.1-3.6,1.6-6.2,1.6c-2.8,0-5.1-0.4-6.6-1.3v-3
			c1,0.5,2.1,0.9,3.3,1.2c1.2,0.3,2.3,0.4,3.4,0.4c1.7,0,3-0.3,3.9-0.8c0.9-0.5,1.4-1.4,1.4-2.5c0-0.8-0.4-1.5-1.1-2.1
			c-0.7-0.6-2.1-1.3-4.2-2.1c-2-0.7-3.4-1.4-4.2-1.9c-0.8-0.6-1.5-1.2-1.9-1.9s-0.6-1.5-0.6-2.5c0-1.7,0.7-3.1,2.1-4.1
			c1.4-1,3.4-1.5,5.8-1.5c2.3,0,4.6,0.5,6.8,1.4l-1.2,2.6c-2.1-0.9-4.1-1.3-5.8-1.3c-1.5,0-2.7,0.2-3.5,0.7c-0.8,0.5-1.2,1.1-1.2,2
			c0,0.6,0.1,1.1,0.4,1.5c0.3,0.4,0.8,0.8,1.4,1.2c0.7,0.4,1.9,0.9,3.8,1.6c2.5,0.9,4.3,1.9,5.1,2.8S584.3,539.7,584.3,541.2z"/>
	</g>
	<g>
		<path fill="#25B4FF" d="M232,428.5l-2.1-6.8h-10.4l-2.1,6.8h-6.5l10.1-28.7h7.4l10.1,28.7H232z M228.4,416.6
			c-1.9-6.2-3-9.6-3.2-10.4c-0.2-0.8-0.4-1.4-0.5-1.9c-0.4,1.7-1.7,5.8-3.7,12.4H228.4z"/>
		<path fill="#25B4FF" d="M267.2,428.5h-7.7l-12.4-21.6h-0.2c0.2,3.8,0.4,6.5,0.4,8.2v13.4h-5.4V400h7.6l12.4,21.4h0.1
			c-0.2-3.7-0.3-6.3-0.3-7.9V400h5.4V428.5z"/>
		<path fill="#25B4FF" d="M291.7,428.5l-2.1-6.8h-10.4l-2.1,6.8h-6.5l10.1-28.7h7.4l10.1,28.7H291.7z M288.2,416.6
			c-1.9-6.2-3-9.6-3.2-10.4c-0.2-0.8-0.4-1.4-0.5-1.9c-0.4,1.7-1.7,5.8-3.7,12.4H288.2z"/>
		<path fill="#25B4FF" d="M301.6,428.5V400h6.1v23.6h11.6v5H301.6z"/>
		<path fill="#25B4FF" d="M349.9,414.2c0,4.7-1.2,8.4-3.5,10.9s-5.7,3.8-10.1,3.8s-7.7-1.3-10.1-3.8s-3.5-6.2-3.5-10.9
			c0-4.8,1.2-8.4,3.5-10.9c2.3-2.5,5.7-3.8,10.1-3.8c4.4,0,7.7,1.3,10.1,3.8C348.7,405.8,349.9,409.5,349.9,414.2z M329.1,414.2
			c0,3.2,0.6,5.6,1.8,7.2c1.2,1.6,3,2.4,5.4,2.4c4.8,0,7.2-3.2,7.2-9.6c0-6.4-2.4-9.6-7.2-9.6c-2.4,0-4.2,0.8-5.4,2.4
			C329.7,408.6,329.1,411,329.1,414.2z"/>
		<path fill="#25B4FF" d="M366.5,412.5h11.3v14.8c-1.8,0.6-3.6,1-5.2,1.3s-3.3,0.4-5,0.4c-4.3,0-7.6-1.3-9.9-3.8
			c-2.3-2.5-3.4-6.2-3.4-10.9c0-4.6,1.3-8.2,4-10.8s6.3-3.9,11-3.9c2.9,0,5.8,0.6,8.5,1.8l-2,4.8c-2.1-1-4.3-1.6-6.5-1.6
			c-2.6,0-4.7,0.9-6.3,2.6c-1.6,1.8-2.4,4.1-2.4,7.1c0,3.1,0.6,5.5,1.9,7.1c1.3,1.6,3.1,2.5,5.5,2.5c1.3,0,2.5-0.1,3.8-0.4v-6h-5.4
			V412.5z"/>
		<path fill="#25B4FF" d="M407.6,400v18.5c0,2.1-0.5,4-1.4,5.5c-0.9,1.6-2.3,2.8-4.1,3.7c-1.8,0.8-3.9,1.3-6.3,1.3
			c-3.7,0-6.5-0.9-8.6-2.8c-2-1.9-3-4.5-3-7.7V400h6v17.5c0,2.2,0.4,3.8,1.3,4.8c0.9,1,2.3,1.5,4.4,1.5c2,0,3.4-0.5,4.3-1.6
			c0.9-1,1.3-2.7,1.3-4.9V400H407.6z"/>
		<path fill="#25B4FF" d="M430.9,428.5h-16.4V400h16.4v5h-10.4v6.3h9.7v5h-9.7v7.4h10.4V428.5z"/>
		<path fill="#25B4FF" d="M464.3,428.5l-2.1-6.8h-10.4l-2.1,6.8h-6.5l10.1-28.7h7.4l10.1,28.7H464.3z M460.8,416.6
			c-1.9-6.2-3-9.6-3.2-10.4c-0.2-0.8-0.4-1.4-0.5-1.9c-0.4,1.7-1.7,5.8-3.7,12.4H460.8z"/>
		<path fill="#25B4FF" d="M485,412.5h11.3v14.8c-1.8,0.6-3.6,1-5.2,1.3s-3.3,0.4-5,0.4c-4.3,0-7.6-1.3-9.9-3.8
			c-2.3-2.5-3.4-6.2-3.4-10.9c0-4.6,1.3-8.2,4-10.8s6.3-3.9,11-3.9c2.9,0,5.8,0.6,8.5,1.8l-2,4.8c-2.1-1-4.3-1.6-6.5-1.6
			c-2.6,0-4.7,0.9-6.3,2.6c-1.6,1.8-2.4,4.1-2.4,7.1c0,3.1,0.6,5.5,1.9,7.1c1.3,1.6,3.1,2.5,5.5,2.5c1.3,0,2.5-0.1,3.8-0.4v-6H485
			V412.5z"/>
		<path fill="#25B4FF" d="M519.4,428.5H503V400h16.4v5H509v6.3h9.7v5H509v7.4h10.4V428.5z"/>
	</g>
	
		<line fill="none" stroke="#3A4F5A" stroke-width="2" stroke-linecap="round" stroke-miterlimit="10" x1="166.6" y1="445.3" x2="1018.9" y2="445.3"/>
	<g>
		<path fill="#3E4F5B" d="M239.6,714.6c0,4.6-1.2,8.2-3.5,10.8s-5.5,3.9-9.6,3.9c-4.2,0-7.5-1.3-9.7-3.9c-2.3-2.6-3.4-6.2-3.4-10.9
			c0-4.6,1.1-8.3,3.4-10.8s5.5-3.8,9.8-3.8c4.1,0,7.3,1.3,9.6,3.9C238.4,706.5,239.6,710,239.6,714.6z M216.8,714.6
			c0,3.9,0.8,6.8,2.5,8.8c1.6,2,4,3,7.2,3c3.2,0,5.6-1,7.2-3s2.4-4.9,2.4-8.8c0-3.8-0.8-6.8-2.4-8.7c-1.6-2-4-3-7.1-3
			c-3.2,0-5.6,1-7.2,3C217.7,707.9,216.8,710.8,216.8,714.6z"/>
		<path fill="#3E4F5B" d="M259.9,728.9v-13.8c0-1.7-0.4-3-1.2-3.9s-2-1.3-3.7-1.3c-2.2,0-3.9,0.6-4.9,1.8s-1.6,3.2-1.6,6v11.2h-3.2
			v-21.4h2.6l0.5,2.9h0.2c0.7-1.1,1.6-1.9,2.8-2.5c1.2-0.6,2.5-0.9,4-0.9c2.6,0,4.5,0.6,5.8,1.9c1.3,1.2,2,3.2,2,6v14H259.9z"/>
		<path fill="#3E4F5B" d="M272.9,728.9h-3.2v-30.4h3.2V728.9z"/>
		<path fill="#3E4F5B" d="M279.3,701.7c0-0.7,0.2-1.3,0.5-1.6c0.4-0.3,0.8-0.5,1.4-0.5c0.5,0,1,0.2,1.3,0.5c0.4,0.4,0.6,0.9,0.6,1.6
			c0,0.7-0.2,1.3-0.6,1.6c-0.4,0.4-0.8,0.5-1.3,0.5c-0.5,0-1-0.2-1.4-0.5C279.4,703,279.3,702.5,279.3,701.7z M282.8,728.9h-3.2
			v-21.4h3.2V728.9z"/>
		<path fill="#3E4F5B" d="M304.1,728.9v-13.8c0-1.7-0.4-3-1.2-3.9s-2-1.3-3.7-1.3c-2.2,0-3.9,0.6-4.9,1.8s-1.6,3.2-1.6,6v11.2h-3.2
			v-21.4h2.6l0.5,2.9h0.2c0.7-1.1,1.6-1.9,2.8-2.5c1.2-0.6,2.5-0.9,4-0.9c2.6,0,4.5,0.6,5.8,1.9c1.3,1.2,2,3.2,2,6v14H304.1z"/>
		<path fill="#3E4F5B" d="M322.8,729.3c-3.2,0-5.7-1-7.5-2.9c-1.8-1.9-2.7-4.6-2.7-8c0-3.5,0.8-6.2,2.5-8.2s4-3,6.8-3
			c2.7,0,4.8,0.9,6.4,2.6c1.6,1.8,2.3,4.1,2.3,7v2.1H316c0.1,2.5,0.7,4.4,1.9,5.7c1.2,1.3,2.9,2,5.1,2c2.3,0,4.6-0.5,6.8-1.4v2.9
			c-1.1,0.5-2.2,0.8-3.3,1.1S324.3,729.3,322.8,729.3z M322,709.9c-1.7,0-3.1,0.6-4.1,1.7c-1,1.1-1.6,2.7-1.8,4.6h11.2
			c0-2-0.5-3.6-1.4-4.7C325,710.4,323.7,709.9,322,709.9z"/>
		<path fill="#3E4F5B" d="M356.2,729.3c-1.4,0-2.7-0.3-3.8-0.8c-1.2-0.5-2.1-1.3-2.9-2.4h-0.2c0.2,1.2,0.2,2.4,0.2,3.6v8.8h-3.2v-31
			h2.6l0.4,2.9h0.2c0.8-1.2,1.8-2,2.9-2.5c1.1-0.5,2.4-0.8,3.8-0.8c2.8,0,5,1,6.6,2.9c1.5,1.9,2.3,4.7,2.3,8.2
			c0,3.5-0.8,6.2-2.4,8.2C361.2,728.4,359,729.3,356.2,729.3z M355.7,709.9c-2.2,0-3.8,0.6-4.7,1.8s-1.5,3.1-1.5,5.8v0.7
			c0,3,0.5,5.2,1.5,6.5c1,1.3,2.6,1.9,4.8,1.9c1.8,0,3.3-0.7,4.3-2.2c1-1.5,1.6-3.6,1.6-6.2c0-2.7-0.5-4.7-1.6-6.1
			C359.1,710.6,357.6,709.9,355.7,709.9z"/>
		<path fill="#3E4F5B" d="M385.2,728.9v-13.8c0-1.7-0.4-3-1.2-3.9c-0.8-0.9-2-1.3-3.7-1.3c-2.3,0-3.9,0.6-4.9,1.8
			c-1,1.2-1.6,3.2-1.6,6v11.2h-3.2v-30.4h3.2v9.2c0,1.1-0.1,2-0.2,2.8h0.2c0.6-1,1.5-1.8,2.7-2.4c1.2-0.6,2.5-0.9,4-0.9
			c2.6,0,4.6,0.6,5.9,1.9c1.3,1.2,2,3.2,2,5.9v14H385.2z"/>
		<path fill="#3E4F5B" d="M408.1,728.9l-0.6-3h-0.2c-1.1,1.3-2.1,2.2-3.2,2.7c-1.1,0.5-2.4,0.7-4,0.7c-2.1,0-3.8-0.5-5-1.6
			s-1.8-2.7-1.8-4.7c0-4.3,3.5-6.6,10.4-6.8l3.6-0.1v-1.3c0-1.7-0.4-2.9-1.1-3.7s-1.9-1.2-3.5-1.2c-1.8,0-3.8,0.5-6.1,1.6l-1-2.5
			c1.1-0.6,2.2-1,3.5-1.3c1.3-0.3,2.5-0.5,3.8-0.5c2.6,0,4.4,0.6,5.7,1.7s1.8,2.9,1.8,5.4v14.6H408.1z M400.7,726.7
			c2,0,3.6-0.6,4.8-1.7c1.2-1.1,1.7-2.7,1.7-4.6v-1.9l-3.2,0.1c-2.6,0.1-4.4,0.5-5.6,1.2c-1.1,0.7-1.7,1.8-1.7,3.3
			c0,1.2,0.4,2.1,1.1,2.7C398.5,726.4,399.5,726.7,400.7,726.7z"/>
		<path fill="#3E4F5B" d="M426.7,707.1c1,0,1.8,0.1,2.6,0.2l-0.4,3c-0.9-0.2-1.7-0.3-2.3-0.3c-1.7,0-3.2,0.7-4.4,2.1
			s-1.8,3.2-1.8,5.3v11.5h-3.2v-21.4h2.7l0.4,4h0.2c0.8-1.4,1.8-2.5,2.9-3.2C424.1,707.5,425.4,707.1,426.7,707.1z"/>
		<path fill="#3E4F5B" d="M460.4,728.9V715c0-1.7-0.4-3-1.1-3.8c-0.7-0.9-1.9-1.3-3.4-1.3c-2,0-3.5,0.6-4.5,1.7
			c-1,1.2-1.4,2.9-1.4,5.4v12h-3.2V715c0-1.7-0.4-3-1.1-3.8c-0.7-0.9-1.9-1.3-3.4-1.3c-2,0-3.5,0.6-4.5,1.8c-0.9,1.2-1.4,3.2-1.4,6
			v11.2h-3.2v-21.4h2.6l0.5,2.9h0.2c0.6-1,1.5-1.9,2.6-2.4s2.4-0.9,3.7-0.9c3.3,0,5.5,1.2,6.6,3.6h0.2c0.6-1.1,1.6-2,2.8-2.7
			c1.2-0.7,2.6-1,4.1-1c2.4,0,4.2,0.6,5.4,1.9c1.2,1.2,1.8,3.2,1.8,6v14H460.4z"/>
		<path fill="#3E4F5B" d="M483.2,728.9l-0.6-3h-0.2c-1.1,1.3-2.1,2.2-3.2,2.7c-1.1,0.5-2.4,0.7-4,0.7c-2.1,0-3.8-0.5-5-1.6
			c-1.2-1.1-1.8-2.7-1.8-4.7c0-4.3,3.5-6.6,10.4-6.8l3.6-0.1v-1.3c0-1.7-0.4-2.9-1.1-3.7s-1.9-1.2-3.5-1.2c-1.8,0-3.8,0.5-6.1,1.6
			l-1-2.5c1.1-0.6,2.2-1,3.5-1.3c1.3-0.3,2.5-0.5,3.8-0.5c2.6,0,4.4,0.6,5.7,1.7s1.8,2.9,1.8,5.4v14.6H483.2z M475.9,726.7
			c2,0,3.6-0.6,4.8-1.7c1.2-1.1,1.7-2.7,1.7-4.6v-1.9l-3.2,0.1c-2.6,0.1-4.4,0.5-5.6,1.2c-1.1,0.7-1.7,1.8-1.7,3.3
			c0,1.2,0.4,2.1,1.1,2.7C473.6,726.4,474.6,726.7,475.9,726.7z"/>
		<path fill="#3E4F5B" d="M500.7,729.3c-3.1,0-5.5-1-7.2-2.9c-1.7-1.9-2.5-4.6-2.5-8.1c0-3.6,0.9-6.3,2.6-8.3c1.7-2,4.2-2.9,7.4-2.9
			c1,0,2.1,0.1,3.1,0.3c1,0.2,1.8,0.5,2.4,0.8l-1,2.8c-0.7-0.3-1.5-0.5-2.3-0.7c-0.8-0.2-1.6-0.3-2.2-0.3c-4.3,0-6.5,2.8-6.5,8.3
			c0,2.6,0.5,4.6,1.6,6.1c1.1,1.4,2.6,2.1,4.7,2.1c1.8,0,3.6-0.4,5.5-1.2v2.9C504.7,729,502.9,729.3,500.7,729.3z"/>
		<path fill="#3E4F5B" d="M507.6,707.5h3.5l4.7,12.2c1,2.8,1.7,4.8,1.9,6h0.2c0.2-0.7,0.5-1.8,1.1-3.4c0.5-1.6,2.3-6.6,5.3-14.8h3.5
			l-9.2,24.4c-0.9,2.4-2,4.1-3.2,5.1c-1.2,1-2.7,1.5-4.5,1.5c-1,0-2-0.1-2.9-0.3v-2.6c0.7,0.2,1.5,0.2,2.4,0.2
			c2.2,0,3.8-1.2,4.8-3.8l1.2-3L507.6,707.5z"/>
		<path fill="#3E4F5B" d="M534.3,724.3l0.3,0.4c-0.3,1.3-0.8,2.8-1.5,4.5c-0.6,1.7-1.3,3.3-2,4.8h-2.4c0.4-1.4,0.7-3,1.2-5
			s0.7-3.6,0.9-4.8H534.3z"/>
		<path fill="#3E4F5B" d="M560.5,707.1c1,0,1.8,0.1,2.6,0.2l-0.4,3c-0.9-0.2-1.7-0.3-2.3-0.3c-1.7,0-3.2,0.7-4.4,2.1
			s-1.8,3.2-1.8,5.3v11.5h-3.2v-21.4h2.7l0.4,4h0.2c0.8-1.4,1.8-2.5,2.9-3.2C557.9,707.5,559.1,707.1,560.5,707.1z"/>
		<path fill="#3E4F5B" d="M575.9,729.3c-3.2,0-5.7-1-7.5-2.9c-1.8-1.9-2.7-4.6-2.7-8c0-3.5,0.8-6.2,2.5-8.2s4-3,6.8-3
			c2.7,0,4.8,0.9,6.4,2.6c1.6,1.8,2.3,4.1,2.3,7v2.1H569c0.1,2.5,0.7,4.4,1.9,5.7c1.2,1.3,2.9,2,5.1,2c2.3,0,4.6-0.5,6.8-1.4v2.9
			c-1.1,0.5-2.2,0.8-3.3,1.1C578.6,729.2,577.3,729.3,575.9,729.3z M575,709.9c-1.7,0-3.1,0.6-4.1,1.7c-1,1.1-1.6,2.7-1.8,4.6h11.2
			c0-2-0.5-3.6-1.4-4.7C578,710.4,576.7,709.9,575,709.9z"/>
		<path fill="#3E4F5B" d="M597.6,729.3c-3.1,0-5.5-1-7.2-2.9c-1.7-1.9-2.5-4.6-2.5-8.1c0-3.6,0.9-6.3,2.6-8.3s4.2-2.9,7.4-2.9
			c1,0,2.1,0.1,3.1,0.3c1,0.2,1.8,0.5,2.4,0.8l-1,2.8c-0.7-0.3-1.5-0.5-2.3-0.7c-0.8-0.2-1.6-0.3-2.2-0.3c-4.3,0-6.5,2.8-6.5,8.3
			c0,2.6,0.5,4.6,1.6,6.1s2.6,2.1,4.7,2.1c1.8,0,3.6-0.4,5.5-1.2v2.9C601.6,729,599.8,729.3,597.6,729.3z"/>
		<path fill="#3E4F5B" d="M626.4,718.2c0,3.5-0.9,6.2-2.6,8.2c-1.8,2-4.2,2.9-7.3,2.9c-1.9,0-3.6-0.4-5.1-1.3s-2.6-2.2-3.4-3.9
			s-1.2-3.6-1.2-5.9c0-3.5,0.9-6.2,2.6-8.2c1.7-1.9,4.2-2.9,7.3-2.9c3,0,5.4,1,7.1,3S626.4,714.8,626.4,718.2z M610.1,718.2
			c0,2.7,0.5,4.8,1.6,6.2c1.1,1.4,2.7,2.1,4.8,2.1s3.7-0.7,4.8-2.1s1.7-3.5,1.7-6.3c0-2.7-0.5-4.8-1.7-6.2c-1.1-1.4-2.7-2.1-4.9-2.1
			c-2.1,0-3.7,0.7-4.8,2.1C610.6,713.4,610.1,715.5,610.1,718.2z"/>
		<path fill="#3E4F5B" d="M659.2,728.9V715c0-1.7-0.4-3-1.1-3.8c-0.7-0.9-1.9-1.3-3.4-1.3c-2,0-3.5,0.6-4.5,1.7
			c-1,1.2-1.4,2.9-1.4,5.4v12h-3.2V715c0-1.7-0.4-3-1.1-3.8c-0.7-0.9-1.9-1.3-3.4-1.3c-2,0-3.5,0.6-4.5,1.8c-0.9,1.2-1.4,3.2-1.4,6
			v11.2h-3.2v-21.4h2.6l0.5,2.9h0.2c0.6-1,1.5-1.9,2.6-2.4s2.4-0.9,3.7-0.9c3.3,0,5.5,1.2,6.6,3.6h0.2c0.6-1.1,1.6-2,2.8-2.7
			c1.2-0.7,2.6-1,4.1-1c2.4,0,4.2,0.6,5.4,1.9c1.2,1.2,1.8,3.2,1.8,6v14H659.2z"/>
		<path fill="#3E4F5B" d="M696.2,728.9V715c0-1.7-0.4-3-1.1-3.8c-0.7-0.9-1.9-1.3-3.4-1.3c-2,0-3.5,0.6-4.5,1.7
			c-1,1.2-1.4,2.9-1.4,5.4v12h-3.2V715c0-1.7-0.4-3-1.1-3.8c-0.7-0.9-1.9-1.3-3.4-1.3c-2,0-3.5,0.6-4.5,1.8c-0.9,1.2-1.4,3.2-1.4,6
			v11.2h-3.2v-21.4h2.6l0.5,2.9h0.2c0.6-1,1.5-1.9,2.6-2.4s2.4-0.9,3.7-0.9c3.3,0,5.5,1.2,6.6,3.6h0.2c0.6-1.1,1.6-2,2.8-2.7
			c1.2-0.7,2.6-1,4.1-1c2.4,0,4.2,0.6,5.4,1.9c1.2,1.2,1.8,3.2,1.8,6v14H696.2z"/>
		<path fill="#3E4F5B" d="M714.9,729.3c-3.2,0-5.7-1-7.5-2.9c-1.8-1.9-2.7-4.6-2.7-8c0-3.5,0.8-6.2,2.5-8.2s4-3,6.8-3
			c2.7,0,4.8,0.9,6.4,2.6c1.6,1.8,2.3,4.1,2.3,7v2.1h-14.7c0.1,2.5,0.7,4.4,1.9,5.7c1.2,1.3,2.9,2,5.1,2c2.3,0,4.6-0.5,6.8-1.4v2.9
			c-1.1,0.5-2.2,0.8-3.3,1.1C717.6,729.2,716.4,729.3,714.9,729.3z M714.1,709.9c-1.7,0-3.1,0.6-4.1,1.7c-1,1.1-1.6,2.7-1.8,4.6
			h11.2c0-2-0.5-3.6-1.4-4.7C717.1,710.4,715.8,709.9,714.1,709.9z"/>
		<path fill="#3E4F5B" d="M742.8,728.9v-13.8c0-1.7-0.4-3-1.2-3.9s-2-1.3-3.7-1.3c-2.2,0-3.9,0.6-4.9,1.8s-1.6,3.2-1.6,6v11.2h-3.2
			v-21.4h2.6l0.5,2.9h0.2c0.7-1.1,1.6-1.9,2.8-2.5c1.2-0.6,2.5-0.9,4-0.9c2.6,0,4.5,0.6,5.8,1.9c1.3,1.2,2,3.2,2,6v14H742.8z"/>
		<path fill="#3E4F5B" d="M767.1,726.1h-0.2c-1.5,2.2-3.7,3.3-6.7,3.3c-2.8,0-5-1-6.5-2.9s-2.3-4.6-2.3-8.2c0-3.5,0.8-6.3,2.3-8.2
			s3.7-2.9,6.5-2.9c2.9,0,5.1,1.1,6.7,3.2h0.3l-0.1-1.5l-0.1-1.5v-8.7h3.2v30.4h-2.6L767.1,726.1z M760.6,726.6
			c2.2,0,3.8-0.6,4.8-1.8c1-1.2,1.5-3.1,1.5-5.8v-0.7c0-3-0.5-5.2-1.5-6.5c-1-1.3-2.6-1.9-4.8-1.9c-1.9,0-3.4,0.7-4.4,2.2
			c-1,1.5-1.5,3.6-1.5,6.3c0,2.7,0.5,4.8,1.5,6.2C757.2,725.9,758.6,726.6,760.6,726.6z"/>
		<path fill="#3E4F5B" d="M790,728.9l-0.6-3h-0.2c-1.1,1.3-2.1,2.2-3.2,2.7c-1.1,0.5-2.4,0.7-4,0.7c-2.1,0-3.8-0.5-5-1.6
			s-1.8-2.7-1.8-4.7c0-4.3,3.5-6.6,10.4-6.8l3.6-0.1v-1.3c0-1.7-0.4-2.9-1.1-3.7s-1.9-1.2-3.5-1.2c-1.8,0-3.8,0.5-6.1,1.6l-1-2.5
			c1.1-0.6,2.2-1,3.5-1.3c1.3-0.3,2.5-0.5,3.8-0.5c2.6,0,4.4,0.6,5.7,1.7s1.8,2.9,1.8,5.4v14.6H790z M782.7,726.7
			c2,0,3.6-0.6,4.8-1.7c1.2-1.1,1.7-2.7,1.7-4.6v-1.9l-3.2,0.1c-2.6,0.1-4.4,0.5-5.6,1.2c-1.1,0.7-1.7,1.8-1.7,3.3
			c0,1.2,0.4,2.1,1.1,2.7C780.4,726.4,781.4,726.7,782.7,726.7z"/>
		<path fill="#3E4F5B" d="M805.8,726.7c0.6,0,1.1,0,1.7-0.1c0.5-0.1,1-0.2,1.3-0.3v2.5c-0.4,0.2-0.9,0.3-1.6,0.4
			c-0.7,0.1-1.3,0.2-1.8,0.2c-4.1,0-6.2-2.2-6.2-6.5v-12.7H796v-1.6l3.1-1.3l1.4-4.6h1.9v5h6.2v2.5h-6.2v12.6c0,1.3,0.3,2.3,0.9,3
			C803.9,726.3,804.7,726.7,805.8,726.7z"/>
		<path fill="#3E4F5B" d="M812.5,701.7c0-0.7,0.2-1.3,0.5-1.6c0.4-0.3,0.8-0.5,1.4-0.5c0.5,0,1,0.2,1.3,0.5s0.6,0.9,0.6,1.6
			c0,0.7-0.2,1.3-0.6,1.6c-0.4,0.4-0.8,0.5-1.3,0.5c-0.5,0-1-0.2-1.4-0.5C812.7,703,812.5,702.5,812.5,701.7z M816,728.9h-3.2v-21.4
			h3.2V728.9z"/>
		<path fill="#3E4F5B" d="M841.2,718.2c0,3.5-0.9,6.2-2.6,8.2c-1.8,2-4.2,2.9-7.3,2.9c-1.9,0-3.6-0.4-5.1-1.3s-2.6-2.2-3.4-3.9
			s-1.2-3.6-1.2-5.9c0-3.5,0.9-6.2,2.6-8.2c1.7-1.9,4.2-2.9,7.3-2.9c3,0,5.4,1,7.1,3S841.2,714.8,841.2,718.2z M824.9,718.2
			c0,2.7,0.5,4.8,1.6,6.2c1.1,1.4,2.7,2.1,4.8,2.1s3.7-0.7,4.8-2.1s1.7-3.5,1.7-6.3c0-2.7-0.5-4.8-1.7-6.2c-1.1-1.4-2.7-2.1-4.9-2.1
			c-2.1,0-3.7,0.7-4.8,2.1C825.4,713.4,824.9,715.5,824.9,718.2z"/>
		<path fill="#3E4F5B" d="M861.3,728.9v-13.8c0-1.7-0.4-3-1.2-3.9s-2-1.3-3.7-1.3c-2.2,0-3.9,0.6-4.9,1.8s-1.6,3.2-1.6,6v11.2h-3.2
			v-21.4h2.6l0.5,2.9h0.2c0.7-1.1,1.6-1.9,2.8-2.5c1.2-0.6,2.5-0.9,4-0.9c2.6,0,4.5,0.6,5.8,1.9c1.3,1.2,2,3.2,2,6v14H861.3z"/>
		<path fill="#3E4F5B" d="M884.8,723.1c0,2-0.7,3.5-2.2,4.6c-1.5,1.1-3.6,1.6-6.2,1.6c-2.8,0-5.1-0.4-6.6-1.3v-3
			c1,0.5,2.1,0.9,3.3,1.2c1.2,0.3,2.3,0.4,3.4,0.4c1.7,0,3-0.3,3.9-0.8c0.9-0.5,1.4-1.4,1.4-2.5c0-0.8-0.4-1.5-1.1-2.1
			c-0.7-0.6-2.1-1.3-4.2-2.1c-2-0.7-3.4-1.4-4.2-1.9c-0.8-0.6-1.5-1.2-1.9-1.9s-0.6-1.5-0.6-2.5c0-1.7,0.7-3.1,2.1-4.1
			c1.4-1,3.4-1.5,5.8-1.5c2.3,0,4.6,0.5,6.8,1.4l-1.2,2.6c-2.1-0.9-4.1-1.3-5.8-1.3c-1.5,0-2.7,0.2-3.5,0.7c-0.8,0.5-1.2,1.1-1.2,2
			c0,0.6,0.1,1.1,0.4,1.5c0.3,0.4,0.8,0.8,1.4,1.2c0.7,0.4,1.9,0.9,3.8,1.6c2.5,0.9,4.3,1.9,5.1,2.8S884.8,721.7,884.8,723.1z"/>
		<path fill="#3E4F5B" d="M224.3,755.2c2.8,0,5,1,6.6,2.9c1.6,1.9,2.3,4.6,2.3,8.2s-0.8,6.2-2.4,8.2c-1.6,1.9-3.7,2.9-6.5,2.9
			c-1.4,0-2.7-0.3-3.8-0.8c-1.2-0.5-2.1-1.3-2.9-2.4h-0.2l-0.7,2.8h-2.3v-30.4h3.2v7.4c0,1.7-0.1,3.1-0.2,4.5h0.2
			C219.1,756.3,221.3,755.2,224.3,755.2z M223.8,757.9c-2.2,0-3.8,0.6-4.8,1.9s-1.5,3.4-1.5,6.4s0.5,5.2,1.5,6.5
			c1,1.3,2.6,1.9,4.8,1.9c2,0,3.5-0.7,4.5-2.2c1-1.5,1.5-3.5,1.5-6.3c0-2.8-0.5-4.9-1.5-6.2S225.9,757.9,223.8,757.9z"/>
		<path fill="#3E4F5B" d="M235.2,755.5h3.5l4.7,12.2c1,2.8,1.7,4.8,1.9,6h0.2c0.2-0.7,0.5-1.8,1.1-3.4c0.5-1.6,2.3-6.6,5.3-14.8h3.5
			l-9.2,24.4c-0.9,2.4-2,4.1-3.2,5.1c-1.2,1-2.7,1.5-4.5,1.5c-1,0-2-0.1-2.9-0.3v-2.6c0.7,0.2,1.5,0.2,2.4,0.2
			c2.2,0,3.8-1.2,4.8-3.8l1.2-3L235.2,755.5z"/>
		<path fill="#3E4F5B" d="M282.6,771.1c0,2-0.7,3.5-2.2,4.6c-1.5,1.1-3.6,1.6-6.2,1.6c-2.8,0-5.1-0.4-6.6-1.3v-3
			c1,0.5,2.1,0.9,3.3,1.2c1.2,0.3,2.3,0.4,3.4,0.4c1.7,0,3-0.3,3.9-0.8c0.9-0.5,1.4-1.4,1.4-2.5c0-0.8-0.4-1.5-1.1-2.1
			c-0.7-0.6-2.1-1.3-4.2-2.1c-2-0.7-3.4-1.4-4.2-1.9c-0.8-0.6-1.5-1.2-1.9-1.9s-0.6-1.5-0.6-2.5c0-1.7,0.7-3.1,2.1-4.1
			c1.4-1,3.4-1.5,5.8-1.5c2.3,0,4.6,0.5,6.8,1.4l-1.2,2.6c-2.1-0.9-4.1-1.3-5.8-1.3c-1.5,0-2.7,0.2-3.5,0.7c-0.8,0.5-1.2,1.1-1.2,2
			c0,0.6,0.1,1.1,0.4,1.5c0.3,0.4,0.8,0.8,1.4,1.2c0.7,0.4,1.9,0.9,3.8,1.6c2.5,0.9,4.3,1.9,5.1,2.8
			C282.1,768.5,282.6,769.7,282.6,771.1z"/>
		<path fill="#3E4F5B" d="M306.1,766.2c0,3.5-0.9,6.2-2.6,8.2c-1.8,2-4.2,2.9-7.3,2.9c-1.9,0-3.6-0.4-5.1-1.3s-2.6-2.2-3.4-3.9
			s-1.2-3.6-1.2-5.9c0-3.5,0.9-6.2,2.6-8.2c1.7-1.9,4.2-2.9,7.3-2.9c3,0,5.4,1,7.1,3S306.1,762.8,306.1,766.2z M289.8,766.2
			c0,2.7,0.5,4.8,1.6,6.2c1.1,1.4,2.7,2.1,4.8,2.1s3.7-0.7,4.8-2.1s1.7-3.5,1.7-6.3c0-2.7-0.5-4.8-1.7-6.2c-1.1-1.4-2.7-2.1-4.9-2.1
			c-2.1,0-3.7,0.7-4.8,2.1C290.4,761.4,289.8,763.5,289.8,766.2z"/>
		<path fill="#3E4F5B" d="M320.2,777.3c-3.1,0-5.5-1-7.2-2.9c-1.7-1.9-2.5-4.6-2.5-8.1c0-3.6,0.9-6.3,2.6-8.3s4.2-2.9,7.4-2.9
			c1,0,2.1,0.1,3.1,0.3c1,0.2,1.8,0.5,2.4,0.8l-1,2.8c-0.7-0.3-1.5-0.5-2.3-0.7c-0.8-0.2-1.6-0.3-2.2-0.3c-4.3,0-6.5,2.8-6.5,8.3
			c0,2.6,0.5,4.6,1.6,6.1s2.6,2.1,4.7,2.1c1.8,0,3.6-0.4,5.5-1.2v2.9C324.1,777,322.3,777.3,320.2,777.3z"/>
		<path fill="#3E4F5B" d="M330.2,749.7c0-0.7,0.2-1.3,0.5-1.6c0.4-0.3,0.8-0.5,1.4-0.5c0.5,0,1,0.2,1.3,0.5s0.6,0.9,0.6,1.6
			c0,0.7-0.2,1.3-0.6,1.6c-0.4,0.4-0.8,0.5-1.3,0.5c-0.5,0-1-0.2-1.4-0.5C330.4,751,330.2,750.5,330.2,749.7z M333.7,776.9h-3.2
			v-21.4h3.2V776.9z"/>
		<path fill="#3E4F5B" d="M353.5,776.9l-0.6-3h-0.2c-1.1,1.3-2.1,2.2-3.2,2.7c-1.1,0.5-2.4,0.7-4,0.7c-2.1,0-3.8-0.5-5-1.6
			c-1.2-1.1-1.8-2.7-1.8-4.7c0-4.3,3.5-6.6,10.4-6.8l3.6-0.1v-1.3c0-1.7-0.4-2.9-1.1-3.7s-1.9-1.2-3.5-1.2c-1.8,0-3.8,0.5-6.1,1.6
			l-1-2.5c1.1-0.6,2.2-1,3.5-1.3c1.3-0.3,2.5-0.5,3.8-0.5c2.6,0,4.4,0.6,5.7,1.7s1.8,2.9,1.8,5.4v14.6H353.5z M346.2,774.7
			c2,0,3.6-0.6,4.8-1.7c1.2-1.1,1.7-2.7,1.7-4.6v-1.9l-3.2,0.1c-2.6,0.1-4.4,0.5-5.6,1.2c-1.1,0.7-1.7,1.8-1.7,3.3
			c0,1.2,0.4,2.1,1.1,2.7C343.9,774.4,344.9,774.7,346.2,774.7z"/>
		<path fill="#3E4F5B" d="M365.7,776.9h-3.2v-30.4h3.2V776.9z"/>
		<path fill="#3E4F5B" d="M397.2,776.9v-13.8c0-1.7-0.4-3-1.2-3.9s-2-1.3-3.7-1.3c-2.2,0-3.9,0.6-4.9,1.8s-1.6,3.2-1.6,6v11.2h-3.2
			v-21.4h2.6l0.5,2.9h0.2c0.7-1.1,1.6-1.9,2.8-2.5c1.2-0.6,2.5-0.9,4-0.9c2.6,0,4.5,0.6,5.8,1.9c1.3,1.2,2,3.2,2,6v14H397.2z"/>
		<path fill="#3E4F5B" d="M415.9,777.3c-3.2,0-5.7-1-7.5-2.9c-1.8-1.9-2.7-4.6-2.7-8c0-3.5,0.8-6.2,2.5-8.2s4-3,6.8-3
			c2.7,0,4.8,0.9,6.4,2.6c1.6,1.8,2.3,4.1,2.3,7v2.1H409c0.1,2.5,0.7,4.4,1.9,5.7c1.2,1.3,2.9,2,5.1,2c2.3,0,4.6-0.5,6.8-1.4v2.9
			c-1.1,0.5-2.2,0.8-3.3,1.1S417.4,777.3,415.9,777.3z M415,757.9c-1.7,0-3.1,0.6-4.1,1.7c-1,1.1-1.6,2.7-1.8,4.6h11.2
			c0-2-0.5-3.6-1.4-4.7C418,758.4,416.7,757.9,415,757.9z"/>
		<path fill="#3E4F5B" d="M436,774.7c0.6,0,1.1,0,1.7-0.1c0.5-0.1,1-0.2,1.3-0.3v2.5c-0.4,0.2-0.9,0.3-1.6,0.4
			c-0.7,0.1-1.3,0.2-1.8,0.2c-4.1,0-6.2-2.2-6.2-6.5v-12.7h-3.1v-1.6l3.1-1.3l1.4-4.6h1.9v5h6.2v2.5h-6.2v12.6c0,1.3,0.3,2.3,0.9,3
			C434.1,774.3,435,774.7,436,774.7z"/>
		<path fill="#3E4F5B" d="M460.5,776.9l-3.9-12.6c-0.2-0.8-0.7-2.5-1.4-5.2h-0.2c-0.5,2.3-1,4-1.4,5.3l-4,12.5h-3.8l-5.8-21.4h3.4
			c1.4,5.4,2.4,9.5,3.2,12.3s1.1,4.7,1.2,5.7h0.2c0.1-0.7,0.4-1.7,0.7-2.9c0.3-1.2,0.6-2.1,0.8-2.8l3.9-12.3h3.5l3.8,12.3
			c0.7,2.2,1.2,4.1,1.5,5.6h0.2c0.1-0.5,0.2-1.2,0.4-2.2c0.2-1,1.6-6.2,4.1-15.8h3.4l-5.9,21.4H460.5z"/>
		<path fill="#3E4F5B" d="M492.4,766.2c0,3.5-0.9,6.2-2.6,8.2c-1.8,2-4.2,2.9-7.3,2.9c-1.9,0-3.6-0.4-5.1-1.3s-2.6-2.2-3.4-3.9
			s-1.2-3.6-1.2-5.9c0-3.5,0.9-6.2,2.6-8.2c1.7-1.9,4.2-2.9,7.3-2.9c3,0,5.4,1,7.1,3S492.4,762.8,492.4,766.2z M476.1,766.2
			c0,2.7,0.5,4.8,1.6,6.2c1.1,1.4,2.7,2.1,4.8,2.1s3.7-0.7,4.8-2.1s1.7-3.5,1.7-6.3c0-2.7-0.5-4.8-1.7-6.2c-1.1-1.4-2.7-2.1-4.9-2.1
			c-2.1,0-3.7,0.7-4.8,2.1C476.7,761.4,476.1,763.5,476.1,766.2z"/>
		<path fill="#3E4F5B" d="M507.7,755.1c1,0,1.8,0.1,2.6,0.2l-0.4,3c-0.9-0.2-1.7-0.3-2.3-0.3c-1.7,0-3.2,0.7-4.4,2.1
			s-1.8,3.2-1.8,5.3v11.5h-3.2v-21.4h2.7l0.4,4h0.2c0.8-1.4,1.8-2.5,2.9-3.2C505.1,755.5,506.3,755.1,507.7,755.1z"/>
		<path fill="#3E4F5B" d="M517.2,766c0.6-0.8,1.4-1.8,2.6-3.1l6.9-7.3h3.8l-8.7,9.1l9.3,12.3h-3.9l-7.6-10.1l-2.4,2.1v8H514v-30.4
			h3.2v16.1c0,0.7-0.1,1.8-0.2,3.3H517.2z"/>
	</g>
	<g>
		<path fill="#25B4FF" d="M238.2,643.9c0,4.7-1.3,8.3-4,10.8s-6.5,3.8-11.6,3.8h-8.1v-28.6h9c4.7,0,8.3,1.2,10.9,3.7
			S238.2,639.5,238.2,643.9z M231.9,644.1c0-6.1-2.7-9.2-8.1-9.2h-3.2v18.6h2.6C229,653.5,231.9,650.3,231.9,644.1z"/>
		<path fill="#25B4FF" d="M243.9,658.5v-28.6h6.1v28.6H243.9z"/>
		<path fill="#25B4FF" d="M267.8,642.4h11.3v14.8c-1.8,0.6-3.6,1-5.2,1.3c-1.6,0.2-3.3,0.4-5,0.4c-4.3,0-7.6-1.3-9.9-3.8
			s-3.4-6.2-3.4-10.9c0-4.6,1.3-8.2,4-10.8s6.3-3.9,11-3.9c2.9,0,5.8,0.6,8.5,1.8l-2,4.8c-2.1-1-4.3-1.6-6.5-1.6
			c-2.6,0-4.7,0.9-6.3,2.6s-2.4,4.1-2.4,7.1c0,3.1,0.6,5.5,1.9,7.1s3.1,2.5,5.5,2.5c1.3,0,2.5-0.1,3.8-0.4v-6h-5.4V642.4z"/>
		<path fill="#25B4FF" d="M285.7,658.5v-28.6h6.1v28.6H285.7z"/>
		<path fill="#25B4FF" d="M309.7,658.5h-6.1v-23.5h-7.8v-5h21.6v5h-7.8V658.5z"/>
		<path fill="#25B4FF" d="M339.2,658.5l-2.1-6.8h-10.4l-2.1,6.8h-6.5l10.1-28.7h7.4l10.1,28.7H339.2z M335.7,646.6
			c-1.9-6.2-3-9.6-3.2-10.4c-0.2-0.8-0.4-1.4-0.5-1.9c-0.4,1.7-1.7,5.8-3.7,12.4H335.7z"/>
		<path fill="#25B4FF" d="M349.1,658.5v-28.6h6.1v23.6h11.6v5H349.1z"/>
		<path fill="#25B4FF" d="M399.2,658.5l-2.1-6.8h-10.4l-2.1,6.8h-6.5l10.1-28.7h7.4l10.1,28.7H399.2z M395.6,646.6
			c-1.9-6.2-3-9.6-3.2-10.4s-0.4-1.4-0.5-1.9c-0.4,1.7-1.7,5.8-3.7,12.4H395.6z"/>
		<path fill="#25B4FF" d="M419.9,642.4h11.3v14.8c-1.8,0.6-3.6,1-5.2,1.3c-1.6,0.2-3.3,0.4-5,0.4c-4.3,0-7.6-1.3-9.9-3.8
			c-2.3-2.5-3.4-6.2-3.4-10.9c0-4.6,1.3-8.2,4-10.8s6.3-3.9,11-3.9c2.9,0,5.8,0.6,8.5,1.8l-2,4.8c-2.1-1-4.3-1.6-6.5-1.6
			c-2.6,0-4.7,0.9-6.3,2.6c-1.6,1.8-2.4,4.1-2.4,7.1c0,3.1,0.6,5.5,1.9,7.1s3.1,2.5,5.5,2.5c1.3,0,2.5-0.1,3.8-0.4v-6h-5.4V642.4z"
			/>
		<path fill="#25B4FF" d="M454.3,658.5h-16.4v-28.6h16.4v5h-10.4v6.3h9.7v5h-9.7v7.4h10.4V658.5z"/>
	</g>
	
		<line fill="none" stroke="#3A4F5A" stroke-width="2" stroke-linecap="round" stroke-miterlimit="10" x1="166.6" y1="675.2" x2="1018.9" y2="675.2"/>
	<g>
		<circle fill="#5AB0E3" cx="100.9" cy="446" r="46.5"/>
	</g>
	<g>
		<path fill="#3E4F5B" d="M100.9,395.4c27.9,0,50.6,22.6,50.6,50.6s-22.6,50.6-50.6,50.6S50.4,473.9,50.4,446S73,395.4,100.9,395.4
			 M100.9,393.4c-29,0-52.6,23.6-52.6,52.6c0,29,23.6,52.6,52.6,52.6s52.6-23.6,52.6-52.6C153.5,417,129.9,393.4,100.9,393.4
			L100.9,393.4z"/>
	</g>
	<g>
		<circle fill="#5AB0E3" cx="100.9" cy="670.2" r="46.5"/>
	</g>
	<g>
		<path fill="#3E4F5B" d="M100.9,619.6c27.9,0,50.6,22.6,50.6,50.6s-22.6,50.6-50.6,50.6s-50.6-22.6-50.6-50.6S73,619.6,100.9,619.6
			 M100.9,617.6c-29,0-52.6,23.6-52.6,52.6s23.6,52.6,52.6,52.6s52.6-23.6,52.6-52.6S129.9,617.6,100.9,617.6L100.9,617.6z"/>
	</g>
	<g>
		<path fill="#FFFFFF" d="M109.4,432.2H92.5c-1.2,0-2.1,0.9-2.1,2.1v10.6c0,1.2,0.9,2.1,2.1,2.1h2.1v4.2l4.8-4.2h10
			c1.2,0,2.1-0.9,2.1-2.1v-10.6C111.5,433.2,110.6,432.2,109.4,432.2z"/>
		<path fill="#FFFFFF" d="M122.1,421.7H79.8c-2.3,0-4.2,1.9-4.2,4.2v31.7c0,2.3,1.9,4.2,4.2,4.2H84v8.5l9-8.5h29.1
			c2.3,0,4.2-1.9,4.2-4.2v-31.7C126.3,423.6,124.4,421.7,122.1,421.7z M117.8,451.3c0,1.2-0.9,2.1-2.1,2.1h-4.2v5.8l-5.8-5.8H86.1
			c-1.2,0-2.1-0.9-2.1-2.1v-21.2c0-1.2,0.9-2.1,2.1-2.1h29.6c1.2,0,2.1,0.9,2.1,2.1V451.3z"/>
	</g>
	<g>
		<g>
			<path fill="#FBFAFA" d="M135.4,66.4l-12.8,49.3c13.1,1.8,25.7-6.3,29-19.1C154.9,83.8,147.7,70.9,135.4,66.4z"/>
			<path fill="#FBFAFA" d="M123.6,100c0-2.4-0.7-4.7-1.8-6.8c-2.9-5.1-8.8-8.6-15.7-8.6h-5.4H89.2h-5.4H67
				c-9.7,0-17.5,6.9-17.5,15.4v2.4c0,8.5,7.9,15.4,17.5,15.4h16.9h5.4h16.9c9.7,0,17.5-6.9,17.5-15.4V100z M83.8,92.3v20.3H67
				c-6.7,0-12.2-4.6-12.2-10.2V100c0-5.6,5.5-10.2,12.2-10.2h16.9v0c14.1-0.4,31.2-0.1,32.7,3.8C116.5,93.7,109.8,91.4,83.8,92.3z"
				/>
			<path fill="#FBFAFA" d="M122.9,88.9l6.2-23.9c-0.6,0-1.2-0.1-1.7-0.1c-5.5,0-11.1,1.8-15.5,5c-4.2,3-7.4,7.1-9.1,11.9h3.7
				C112.9,81.8,118.9,84.4,122.9,88.9z"/>
		</g>
	</g>
	<g>
		<polygon fill="#FFFFFF" points="95.9,660.9 95.9,674.7 98.8,669.8 103.3,677.6 105.9,675.9 101.6,668.4 107.2,668.4 		"/>
		<path fill="#FFFFFF" d="M121,649.6H80.9c-2.8,0-5,2.2-5,5v32.6H126v-32.6C126,651.9,123.7,649.6,121,649.6z M121,680.9
			c0,0.7-0.6,1.3-1.3,1.3H82.1c-0.7,0-1.3-0.6-1.3-1.3v-25.1c0-0.7,0.6-1.3,1.3-1.3h37.6c0.7,0,1.3,0.6,1.3,1.3V680.9z"/>
		<path fill="#FFFFFF" d="M105.9,689.7v1.3c0,0.7-0.6,1.3-1.3,1.3h-7.5c-0.7,0-1.3-0.6-1.3-1.3v-1.3H70.8c0,0,0,1.1,0,2.5
			s1.1,2.5,2.5,2.5h55.1c1.4,0,2.5-1.1,2.5-2.5s0-2.5,0-2.5H105.9z M124.7,693.8c-0.9,0-1.6-0.7-1.6-1.6s0.7-1.6,1.6-1.6
			s1.6,0.7,1.6,1.6S125.6,693.8,124.7,693.8z"/>
	</g>
	<g>
		<path fill="#FFFFFF" d="M239,105.6c0,3.5-1.3,6.3-3.8,8.4c-2.6,2-6.1,3.1-10.6,3.1c-4.2,0-7.9-0.8-11.1-2.4v-7.7
			c2.6,1.2,4.9,2,6.7,2.5c1.8,0.5,3.5,0.7,5,0.7c1.8,0,3.2-0.3,4.2-1c1-0.7,1.5-1.7,1.5-3.1c0-0.8-0.2-1.5-0.6-2.1s-1.1-1.2-1.9-1.7
			c-0.8-0.6-2.5-1.4-5.1-2.7c-2.4-1.1-4.2-2.2-5.4-3.2c-1.2-1-2.2-2.2-2.9-3.6c-0.7-1.4-1.1-3-1.1-4.8c0-3.5,1.2-6.2,3.5-8.2
			c2.4-2,5.6-3,9.8-3c2,0,4,0.2,5.8,0.7c1.9,0.5,3.8,1.2,5.8,2l-2.7,6.5c-2.1-0.9-3.8-1.5-5.2-1.8c-1.4-0.3-2.7-0.5-4-0.5
			c-1.6,0-2.8,0.4-3.6,1.1c-0.8,0.7-1.3,1.7-1.3,2.9c0,0.7,0.2,1.4,0.5,1.9c0.3,0.5,0.9,1.1,1.6,1.6c0.7,0.5,2.5,1.4,5.3,2.8
			c3.7,1.8,6.2,3.5,7.5,5.3C238.3,100.9,239,103,239,105.6z"/>
		<path fill="#FFFFFF" d="M268.4,116.5h-22.6V77.2h22.6v6.8h-14.3v8.6h13.3v6.8h-13.3v10.1h14.3V116.5z"/>
		<path fill="#FFFFFF" d="M276.4,116.5V77.2h8.3v32.4h15.9v6.9H276.4z"/>
		<path fill="#FFFFFF" d="M315.4,116.5h-8.2V77.2h22.5v6.8h-14.3v10.1h13.3v6.8h-13.3V116.5z"/>
		<path fill="#FFFFFF" d="M366.2,116.5h-8.3V84.2h-10.7v-6.9h29.6v6.9h-10.7V116.5z"/>
		<path fill="#FFFFFF" d="M391,101.4v15.1h-8.3V77.2h11.4c5.3,0,9.3,1,11.8,2.9c2.6,1.9,3.8,4.9,3.8,8.8c0,2.3-0.6,4.4-1.9,6.2
			c-1.3,1.8-3.1,3.2-5.4,4.2c5.9,8.8,9.8,14.5,11.5,17.1h-9.2l-9.4-15.1H391z M391,94.7h2.7c2.6,0,4.6-0.4,5.8-1.3
			c1.3-0.9,1.9-2.3,1.9-4.1c0-1.9-0.6-3.2-1.9-4c-1.3-0.8-3.3-1.2-5.9-1.2H391V94.7z"/>
		<path fill="#FFFFFF" d="M441.3,116.5h-22.6V77.2h22.6v6.8H427v8.6h13.3v6.8H427v10.1h14.3V116.5z"/>
		<path fill="#FFFFFF" d="M473.3,116.5l-2.8-9.3h-14.3l-2.8,9.3h-9l13.9-39.4h10.2l13.9,39.4H473.3z M468.4,100.2
			c-2.6-8.5-4.1-13.3-4.4-14.4s-0.6-2-0.7-2.6c-0.6,2.3-2.3,8-5.1,17H468.4z"/>
		<path fill="#FFFFFF" d="M502,116.5h-8.3V84.2h-10.7v-6.9h29.6v6.9H502V116.5z"/>
		<path fill="#FFFFFF" d="M535.1,116.5l-9.5-30.8h-0.2c0.3,6.3,0.5,10.4,0.5,12.5v18.3h-7.4V77.2h11.3l9.3,30h0.2l9.9-30h11.3v39.3
			h-7.8V97.9c0-0.9,0-1.9,0-3c0-1.1,0.1-4.2,0.4-9.1h-0.2l-10.1,30.7H535.1z"/>
		<path fill="#FFFFFF" d="M592.7,116.5h-22.6V77.2h22.6v6.8h-14.3v8.6h13.3v6.8h-13.3v10.1h14.3V116.5z"/>
		<path fill="#FFFFFF" d="M635.4,116.5h-10.6l-17.1-29.7h-0.2c0.3,5.2,0.5,9,0.5,11.2v18.5h-7.4V77.2h10.5l17.1,29.4h0.2
			c-0.3-5.1-0.4-8.7-0.4-10.8V77.2h7.5V116.5z"/>
		<path fill="#FFFFFF" d="M660.2,116.5h-8.3V84.2h-10.7v-6.9h29.6v6.9h-10.7V116.5z"/>
	</g>
</g>
</svg>
