<?xml version="1.0" encoding="utf-8"?>
<!-- Generator: Adobe Illustrator 19.1.0, SVG Export Plug-In . SVG Version: 6.00 Build 0)  -->
<svg version="1.1" id="Layer_1" xmlns="http://www.w3.org/2000/svg" xmlns:xlink="http://www.w3.org/1999/xlink" x="0px" y="0px"
	 viewBox="0 0 1152 864" enable-background="new 0 0 1152 864" xml:space="preserve">
<g>
	<rect x="0" fill="#3E4F5B" width="1152" height="190"/>
	<g>
		<path fill="#3E4F5B" d="M241,267.1h-4.4l-17.9-27.6h-0.2c0.2,3.2,0.4,6.2,0.4,8.9v18.7h-3.5v-32.8h4.3l17.9,27.4h0.2
			c0-0.4-0.1-1.7-0.2-3.9c-0.1-2.2-0.1-3.8-0.1-4.7v-18.8h3.6V267.1z"/>
		<path fill="#3E4F5B" d="M259.7,267.5c-3.6,0-6.5-1.1-8.6-3.3c-2.1-2.2-3.2-5.3-3.2-9.2c0-4,1-7.1,2.9-9.5s4.6-3.5,7.9-3.5
			c3.1,0,5.5,1,7.3,3s2.7,4.7,2.7,8v2.4h-17c0.1,2.9,0.8,5.1,2.2,6.6c1.4,1.5,3.3,2.2,5.9,2.2c2.7,0,5.3-0.6,7.9-1.7v3.3
			c-1.3,0.6-2.6,1-3.7,1.2C262.8,267.4,261.3,267.5,259.7,267.5z M258.7,245.1c-2,0-3.6,0.6-4.7,1.9c-1.2,1.3-1.9,3.1-2.1,5.3h12.9
			c0-2.4-0.5-4.2-1.6-5.4S260.6,245.1,258.7,245.1z"/>
		<path fill="#3E4F5B" d="M285.3,267.5c-3.6,0-6.5-1.1-8.6-3.3c-2.1-2.2-3.2-5.3-3.2-9.2c0-4,1-7.1,2.9-9.5s4.6-3.5,7.9-3.5
			c3.1,0,5.5,1,7.3,3s2.7,4.7,2.7,8v2.4h-17c0.1,2.9,0.8,5.1,2.2,6.6c1.4,1.5,3.3,2.2,5.9,2.2c2.7,0,5.3-0.6,7.9-1.7v3.3
			c-1.3,0.6-2.6,1-3.7,1.2S286.9,267.5,285.3,267.5z M284.2,245.1c-2,0-3.6,0.6-4.7,1.9c-1.2,1.3-1.9,3.1-2.1,5.3h12.9
			c0-2.4-0.5-4.2-1.6-5.4C287.7,245.8,286.2,245.1,284.2,245.1z"/>
		<path fill="#3E4F5B" d="M317.2,263.8H317c-1.7,2.5-4.3,3.8-7.7,3.8c-3.2,0-5.7-1.1-7.5-3.3c-1.8-2.2-2.7-5.3-2.7-9.4
			c0-4.1,0.9-7.2,2.7-9.5s4.3-3.4,7.5-3.4c3.3,0,5.9,1.2,7.7,3.6h0.3l-0.2-1.8l-0.1-1.7v-10h3.7v34.9h-3L317.2,263.8z M309.7,264.4
			c2.5,0,4.4-0.7,5.5-2.1s1.7-3.6,1.7-6.7v-0.8c0-3.5-0.6-6-1.7-7.5c-1.2-1.5-3-2.2-5.6-2.2c-2.2,0-3.9,0.9-5,2.5
			c-1.2,1.7-1.7,4.1-1.7,7.2c0,3.1,0.6,5.5,1.7,7.1C305.8,263.6,307.5,264.4,309.7,264.4z"/>
		<path fill="#3E4F5B" d="M351.2,245.4h-6.3v21.7h-3.7v-21.7h-4.4v-1.7l4.4-1.3V241c0-6,2.6-9.1,7.9-9.1c1.3,0,2.8,0.3,4.6,0.8l-1,3
			c-1.4-0.5-2.7-0.7-3.7-0.7c-1.4,0-2.4,0.5-3.1,1.4s-1,2.4-1,4.5v1.6h6.3V245.4z"/>
		<path fill="#3E4F5B" d="M376.7,254.7c0,4-1,7.1-3,9.4s-4.8,3.4-8.4,3.4c-2.2,0-4.2-0.5-5.9-1.5s-3-2.5-4-4.4
			c-0.9-1.9-1.4-4.2-1.4-6.8c0-4,1-7.1,3-9.4c2-2.2,4.8-3.4,8.4-3.4c3.4,0,6.2,1.1,8.2,3.4S376.7,250.8,376.7,254.7z M358,254.7
			c0,3.1,0.6,5.5,1.9,7.2c1.3,1.6,3.1,2.5,5.5,2.5c2.4,0,4.3-0.8,5.6-2.5s1.9-4,1.9-7.2c0-3.1-0.6-5.5-1.9-7.1s-3.1-2.4-5.6-2.4
			c-2.4,0-4.3,0.8-5.5,2.4C358.6,249.2,358,251.6,358,254.7z"/>
		<path fill="#3E4F5B" d="M394.3,242c1.1,0,2.1,0.1,2.9,0.3l-0.5,3.5c-1-0.2-1.9-0.3-2.7-0.3c-2,0-3.7,0.8-5.1,2.4s-2.1,3.6-2.1,6
			v13.2H383v-24.6h3.1l0.4,4.6h0.2c0.9-1.6,2-2.8,3.3-3.7C391.3,242.4,392.7,242,394.3,242z"/>
		<path fill="#3E4F5B" d="M417,254.5c0.6-0.9,1.6-2.1,2.9-3.6l8-8.4h4.4l-10,10.5l10.7,14.1h-4.5l-8.7-11.6l-2.8,2.4v9.2h-3.7v-34.9
			h3.7v18.5c0,0.8-0.1,2.1-0.2,3.8H417z"/>
		<path fill="#3E4F5B" d="M454.1,267.1v-15.9c0-2-0.5-3.5-1.4-4.5c-0.9-1-2.3-1.5-4.3-1.5c-2.6,0-4.5,0.7-5.7,2.1
			c-1.2,1.4-1.8,3.7-1.8,6.9v12.9h-3.7v-24.6h3l0.6,3.4h0.2c0.8-1.2,1.8-2.2,3.2-2.8c1.4-0.7,2.9-1,4.6-1c3,0,5.2,0.7,6.7,2.1
			c1.5,1.4,2.2,3.7,2.2,6.9v16.1H454.1z"/>
		<path fill="#3E4F5B" d="M486.5,254.7c0,4-1,7.1-3,9.4s-4.8,3.4-8.4,3.4c-2.2,0-4.2-0.5-5.9-1.5s-3-2.5-4-4.4s-1.4-4.2-1.4-6.8
			c0-4,1-7.1,3-9.4s4.8-3.4,8.4-3.4c3.4,0,6.2,1.1,8.2,3.4C485.4,247.7,486.5,250.8,486.5,254.7z M467.7,254.7
			c0,3.1,0.6,5.5,1.9,7.2c1.3,1.6,3.1,2.5,5.5,2.5s4.3-0.8,5.6-2.5c1.3-1.6,1.9-4,1.9-7.2c0-3.1-0.6-5.5-1.9-7.1
			c-1.3-1.6-3.1-2.4-5.6-2.4c-2.4,0-4.3,0.8-5.5,2.4C468.3,249.2,467.7,251.6,467.7,254.7z"/>
		<path fill="#3E4F5B" d="M512.9,267.1l-4.5-14.4c-0.3-0.9-0.8-2.9-1.6-6h-0.2c-0.6,2.6-1.1,4.6-1.6,6.1l-4.6,14.4H496l-6.7-24.6
			h3.9c1.6,6.2,2.8,10.9,3.6,14.1s1.3,5.4,1.4,6.5h0.2c0.2-0.9,0.4-2,0.8-3.3s0.7-2.4,1-3.2l4.5-14.1h4l4.4,14.1
			c0.8,2.6,1.4,4.7,1.7,6.5h0.2c0.1-0.5,0.2-1.4,0.5-2.5s1.8-7.2,4.7-18.1h3.9l-6.8,24.6H512.9z"/>
		<path fill="#3E4F5B" d="M532,267.1h-3.7v-34.9h3.7V267.1z"/>
		<path fill="#3E4F5B" d="M550.1,267.5c-3.6,0-6.5-1.1-8.6-3.3c-2.1-2.2-3.2-5.3-3.2-9.2c0-4,1-7.1,2.9-9.5s4.6-3.5,7.9-3.5
			c3.1,0,5.5,1,7.3,3s2.7,4.7,2.7,8v2.4h-17c0.1,2.9,0.8,5.1,2.2,6.6c1.4,1.5,3.3,2.2,5.9,2.2c2.7,0,5.3-0.6,7.9-1.7v3.3
			c-1.3,0.6-2.6,1-3.7,1.2C553.2,267.4,551.8,267.5,550.1,267.5z M549.1,245.1c-2,0-3.6,0.6-4.7,1.9c-1.2,1.3-1.9,3.1-2.1,5.3h12.9
			c0-2.4-0.5-4.2-1.6-5.4S551.1,245.1,549.1,245.1z"/>
		<path fill="#3E4F5B" d="M582.1,263.8h-0.2c-1.7,2.5-4.3,3.8-7.7,3.8c-3.2,0-5.7-1.1-7.5-3.3s-2.7-5.3-2.7-9.4
			c0-4.1,0.9-7.2,2.7-9.5s4.3-3.4,7.5-3.4c3.3,0,5.9,1.2,7.7,3.6h0.3l-0.2-1.8l-0.1-1.7v-10h3.7v34.9h-3L582.1,263.8z M574.6,264.4
			c2.5,0,4.4-0.7,5.5-2.1s1.7-3.6,1.7-6.7v-0.8c0-3.5-0.6-6-1.7-7.5s-3-2.2-5.6-2.2c-2.2,0-3.9,0.9-5,2.5s-1.7,4.1-1.7,7.2
			c0,3.1,0.6,5.5,1.7,7.1C570.7,263.6,572.4,264.4,574.6,264.4z"/>
		<path fill="#3E4F5B" d="M613.4,242.5v2.4l-4.6,0.5c0.4,0.5,0.8,1.2,1.1,2.1s0.5,1.8,0.5,2.9c0,2.4-0.8,4.3-2.5,5.8
			s-3.9,2.2-6.8,2.2c-0.7,0-1.4-0.1-2.1-0.2c-1.6,0.8-2.4,1.9-2.4,3.2c0,0.7,0.3,1.2,0.8,1.5s1.5,0.5,2.9,0.5h4.4
			c2.7,0,4.7,0.6,6.1,1.7c1.4,1.1,2.1,2.8,2.1,4.9c0,2.7-1.1,4.8-3.3,6.2c-2.2,1.4-5.4,2.1-9.6,2.1c-3.2,0-5.7-0.6-7.4-1.8
			c-1.7-1.2-2.6-2.9-2.6-5.1c0-1.5,0.5-2.8,1.4-3.9s2.3-1.8,4-2.2c-0.6-0.3-1.2-0.7-1.6-1.3c-0.4-0.6-0.6-1.3-0.6-2.1
			c0-0.9,0.2-1.7,0.7-2.4s1.2-1.3,2.3-2c-1.3-0.5-2.3-1.4-3.1-2.7c-0.8-1.3-1.2-2.7-1.2-4.3c0-2.7,0.8-4.8,2.4-6.2s3.9-2.2,6.9-2.2
			c1.3,0,2.4,0.2,3.5,0.4H613.4z M593.8,271.2c0,1.3,0.6,2.3,1.7,3s2.7,1,4.8,1c3.1,0,5.4-0.5,7-1.4c1.5-0.9,2.3-2.2,2.3-3.8
			c0-1.3-0.4-2.3-1.2-2.8s-2.4-0.8-4.6-0.8h-4.5c-1.7,0-3,0.4-4,1.2S593.8,269.7,593.8,271.2z M595.8,250.3c0,1.7,0.5,3,1.5,3.9
			c1,0.9,2.3,1.3,4.1,1.3c3.6,0,5.5-1.8,5.5-5.3c0-3.7-1.8-5.5-5.5-5.5c-1.8,0-3.1,0.5-4,1.4S595.8,248.5,595.8,250.3z"/>
		<path fill="#3E4F5B" d="M628.6,267.5c-3.6,0-6.5-1.1-8.6-3.3c-2.1-2.2-3.2-5.3-3.2-9.2c0-4,1-7.1,2.9-9.5s4.6-3.5,7.9-3.5
			c3.1,0,5.5,1,7.3,3s2.7,4.7,2.7,8v2.4h-17c0.1,2.9,0.8,5.1,2.2,6.6c1.4,1.5,3.3,2.2,5.9,2.2c2.7,0,5.3-0.6,7.9-1.7v3.3
			c-1.3,0.6-2.6,1-3.7,1.2S630.3,267.5,628.6,267.5z M627.6,245.1c-2,0-3.6,0.6-4.7,1.9c-1.2,1.3-1.9,3.1-2.1,5.3h12.9
			c0-2.4-0.5-4.2-1.6-5.4C631.1,245.8,629.6,245.1,627.6,245.1z"/>
		<path fill="#3E4F5B" d="M676.8,254.7c0,4-1,7.1-3,9.4s-4.8,3.4-8.4,3.4c-2.2,0-4.2-0.5-5.9-1.5s-3-2.5-4-4.4
			c-0.9-1.9-1.4-4.2-1.4-6.8c0-4,1-7.1,3-9.4c2-2.2,4.8-3.4,8.4-3.4c3.4,0,6.2,1.1,8.2,3.4S676.8,250.8,676.8,254.7z M658,254.7
			c0,3.1,0.6,5.5,1.9,7.2c1.3,1.6,3.1,2.5,5.5,2.5c2.4,0,4.3-0.8,5.6-2.5s1.9-4,1.9-7.2c0-3.1-0.6-5.5-1.9-7.1s-3.1-2.4-5.6-2.4
			c-2.4,0-4.3,0.8-5.5,2.4C658.6,249.2,658,251.6,658,254.7z"/>
		<path fill="#3E4F5B" d="M694.3,242c1.1,0,2.1,0.1,2.9,0.3l-0.5,3.5c-1-0.2-1.9-0.3-2.7-0.3c-2,0-3.7,0.8-5.1,2.4s-2.1,3.6-2.1,6
			v13.2h-3.7v-24.6h3.1l0.4,4.6h0.2c0.9-1.6,2-2.8,3.3-3.7C691.4,242.4,692.8,242,694.3,242z"/>
		<path fill="#3E4F5B" d="M214.5,291c0-0.9,0.2-1.5,0.6-1.9c0.4-0.4,0.9-0.6,1.6-0.6c0.6,0,1.1,0.2,1.5,0.6c0.4,0.4,0.7,1,0.7,1.9
			s-0.2,1.5-0.7,1.9c-0.4,0.4-1,0.6-1.5,0.6c-0.6,0-1.2-0.2-1.6-0.6C214.7,292.5,214.5,291.8,214.5,291z M218.6,322.3h-3.7v-24.6
			h3.7V322.3z"/>
		<path fill="#3E4F5B" d="M243.1,322.3v-15.9c0-2-0.5-3.5-1.4-4.5s-2.3-1.5-4.3-1.5c-2.6,0-4.5,0.7-5.7,2.1s-1.8,3.7-1.8,6.9v12.9
			h-3.7v-24.6h3l0.6,3.4h0.2c0.8-1.2,1.8-2.2,3.2-2.8c1.4-0.7,2.9-1,4.6-1c3,0,5.2,0.7,6.7,2.1c1.5,1.4,2.2,3.7,2.2,6.9v16.1H243.1z
			"/>
		<path fill="#3E4F5B" d="M262.2,319.6c0.7,0,1.3,0,1.9-0.1c0.6-0.1,1.1-0.2,1.5-0.3v2.9c-0.4,0.2-1,0.4-1.8,0.5s-1.5,0.2-2.1,0.2
			c-4.8,0-7.1-2.5-7.1-7.5v-14.6H251v-1.8l3.5-1.5l1.6-5.3h2.2v5.7h7.1v2.9h-7.1V315c0,1.5,0.4,2.6,1.1,3.4
			C260,319.3,261,319.6,262.2,319.6z"/>
		<path fill="#3E4F5B" d="M280.6,322.7c-3.6,0-6.5-1.1-8.6-3.3c-2.1-2.2-3.2-5.3-3.2-9.2c0-4,1-7.1,2.9-9.5s4.6-3.5,7.9-3.5
			c3.1,0,5.5,1,7.3,3c1.8,2,2.7,4.7,2.7,8v2.4h-17c0.1,2.9,0.8,5.1,2.2,6.6c1.4,1.5,3.3,2.2,5.9,2.2c2.7,0,5.3-0.6,7.9-1.7v3.3
			c-1.3,0.6-2.6,1-3.7,1.2C283.7,322.6,282.3,322.7,280.6,322.7z M279.6,300.3c-2,0-3.6,0.6-4.7,1.9c-1.2,1.3-1.9,3.1-2.1,5.3h12.9
			c0-2.4-0.5-4.2-1.6-5.4C283.1,301,281.6,300.3,279.6,300.3z"/>
		<path fill="#3E4F5B" d="M307.1,297.2c1.1,0,2.1,0.1,2.9,0.3l-0.5,3.5c-1-0.2-1.9-0.3-2.7-0.3c-2,0-3.7,0.8-5.1,2.4s-2.1,3.6-2.1,6
			v13.2h-3.7v-24.6h3.1l0.4,4.6h0.2c0.9-1.6,2-2.8,3.3-3.7C304.1,297.6,305.5,297.2,307.1,297.2z"/>
		<path fill="#3E4F5B" d="M319.8,322.3l-9.3-24.6h4l5.3,14.6c1.2,3.4,1.9,5.6,2.1,6.6h0.2c0.2-0.8,0.7-2.4,1.6-4.9s2.8-7.9,5.9-16.3
			h4l-9.3,24.6H319.8z"/>
		<path fill="#3E4F5B" d="M347.6,322.7c-3.6,0-6.5-1.1-8.6-3.3s-3.2-5.3-3.2-9.2c0-4,1-7.1,2.9-9.5s4.6-3.5,7.9-3.5
			c3.1,0,5.5,1,7.3,3c1.8,2,2.7,4.7,2.7,8v2.4h-17c0.1,2.9,0.8,5.1,2.2,6.6s3.3,2.2,5.9,2.2c2.7,0,5.3-0.6,7.9-1.7v3.3
			c-1.3,0.6-2.6,1-3.7,1.2S349.2,322.7,347.6,322.7z M346.6,300.3c-2,0-3.6,0.6-4.7,1.9s-1.9,3.1-2.1,5.3h12.9
			c0-2.4-0.5-4.2-1.6-5.4C350,301,348.5,300.3,346.6,300.3z"/>
		<path fill="#3E4F5B" d="M379.6,322.3v-15.9c0-2-0.5-3.5-1.4-4.5s-2.3-1.5-4.3-1.5c-2.6,0-4.5,0.7-5.7,2.1s-1.8,3.7-1.8,6.9v12.9
			h-3.7v-24.6h3l0.6,3.4h0.2c0.8-1.2,1.8-2.2,3.2-2.8c1.4-0.7,2.9-1,4.6-1c3,0,5.2,0.7,6.7,2.1c1.5,1.4,2.2,3.7,2.2,6.9v16.1H379.6z
			"/>
		<path fill="#3E4F5B" d="M398.7,319.6c0.7,0,1.3,0,1.9-0.1c0.6-0.1,1.1-0.2,1.5-0.3v2.9c-0.4,0.2-1,0.4-1.8,0.5s-1.5,0.2-2.1,0.2
			c-4.8,0-7.1-2.5-7.1-7.5v-14.6h-3.5v-1.8l3.5-1.5l1.6-5.3h2.2v5.7h7.1v2.9h-7.1V315c0,1.5,0.4,2.6,1.1,3.4
			C396.5,319.3,397.5,319.6,398.7,319.6z"/>
		<path fill="#3E4F5B" d="M406.5,291c0-0.9,0.2-1.5,0.6-1.9c0.4-0.4,0.9-0.6,1.6-0.6c0.6,0,1.1,0.2,1.5,0.6s0.7,1,0.7,1.9
			s-0.2,1.5-0.7,1.9c-0.4,0.4-1,0.6-1.5,0.6c-0.6,0-1.2-0.2-1.6-0.6C406.7,292.5,406.5,291.8,406.5,291z M410.5,322.3h-3.7v-24.6
			h3.7V322.3z"/>
		<path fill="#3E4F5B" d="M439.4,309.9c0,4-1,7.1-3,9.4c-2,2.3-4.8,3.4-8.4,3.4c-2.2,0-4.2-0.5-5.9-1.5s-3-2.5-4-4.4
			c-0.9-1.9-1.4-4.2-1.4-6.8c0-4,1-7.1,3-9.4c2-2.2,4.8-3.4,8.4-3.4c3.4,0,6.2,1.1,8.2,3.4S439.4,306,439.4,309.9z M420.7,309.9
			c0,3.1,0.6,5.5,1.9,7.2s3.1,2.5,5.5,2.5c2.4,0,4.3-0.8,5.6-2.5s1.9-4,1.9-7.2c0-3.1-0.6-5.5-1.9-7.1c-1.3-1.6-3.1-2.4-5.6-2.4
			c-2.4,0-4.3,0.8-5.5,2.4C421.3,304.4,420.7,306.8,420.7,309.9z"/>
		<path fill="#3E4F5B" d="M462.6,322.3v-15.9c0-2-0.5-3.5-1.4-4.5s-2.3-1.5-4.3-1.5c-2.6,0-4.5,0.7-5.7,2.1s-1.8,3.7-1.8,6.9v12.9
			h-3.7v-24.6h3l0.6,3.4h0.2c0.8-1.2,1.8-2.2,3.2-2.8c1.4-0.7,2.9-1,4.6-1c3,0,5.2,0.7,6.7,2.1c1.5,1.4,2.2,3.7,2.2,6.9v16.1H462.6z
			"/>
	</g>
	<g>
		<path fill="#3E4F5B" d="M232.8,499l-3.6-9.1h-11.4l-3.5,9.1h-3.4l11.3-28.7h2.8l11.2,28.7H232.8z M228.2,486.9l-3.3-8.8
			c-0.4-1.1-0.9-2.5-1.3-4.1c-0.3,1.2-0.7,2.6-1.2,4.1l-3.4,8.8H228.2z"/>
		<path fill="#3E4F5B" d="M253.2,493.2c0,2-0.7,3.5-2.2,4.6c-1.5,1.1-3.6,1.6-6.2,1.6c-2.8,0-5.1-0.4-6.6-1.3v-3
			c1,0.5,2.1,0.9,3.3,1.2c1.2,0.3,2.3,0.4,3.4,0.4c1.7,0,3-0.3,3.9-0.8c0.9-0.5,1.4-1.4,1.4-2.5c0-0.8-0.4-1.5-1.1-2.1
			c-0.7-0.6-2.1-1.3-4.2-2.1c-2-0.7-3.4-1.4-4.2-1.9c-0.8-0.6-1.5-1.2-1.9-1.9s-0.6-1.5-0.6-2.5c0-1.7,0.7-3.1,2.1-4.1
			c1.4-1,3.4-1.5,5.8-1.5c2.3,0,4.6,0.5,6.8,1.4l-1.2,2.6c-2.1-0.9-4.1-1.3-5.8-1.3c-1.5,0-2.7,0.2-3.5,0.7c-0.8,0.5-1.2,1.1-1.2,2
			c0,0.6,0.1,1.1,0.4,1.5c0.3,0.4,0.8,0.8,1.4,1.2c0.7,0.4,1.9,0.9,3.8,1.6c2.5,0.9,4.3,1.9,5.1,2.8S253.2,491.7,253.2,493.2z"/>
		<path fill="#3E4F5B" d="M261.5,488c0.6-0.8,1.4-1.8,2.6-3.1l6.9-7.3h3.8l-8.7,9.1l9.3,12.3h-3.9l-7.6-10.1l-2.4,2.1v8h-3.2v-30.4
			h3.2v16.1c0,0.7-0.1,1.8-0.2,3.3H261.5z"/>
		<path fill="#3E4F5B" d="M298.9,480.1h-5.4V499h-3.2v-18.9h-3.8v-1.5l3.8-1.2v-1.2c0-5.3,2.3-7.9,6.9-7.9c1.1,0,2.5,0.2,4,0.7
			l-0.8,2.6c-1.2-0.4-2.3-0.6-3.2-0.6c-1.2,0-2.1,0.4-2.7,1.2c-0.6,0.8-0.9,2.1-0.9,3.9v1.4h5.4V480.1z"/>
		<path fill="#3E4F5B" d="M315.8,499l-0.6-3H315c-1.1,1.3-2.1,2.2-3.2,2.7c-1.1,0.5-2.4,0.7-4,0.7c-2.1,0-3.8-0.5-5-1.6
			s-1.8-2.6-1.8-4.7c0-4.3,3.5-6.6,10.4-6.8l3.6-0.1v-1.3c0-1.7-0.4-2.9-1.1-3.7s-1.9-1.2-3.5-1.2c-1.8,0-3.8,0.5-6.1,1.6l-1-2.5
			c1.1-0.6,2.2-1,3.5-1.3c1.3-0.3,2.5-0.5,3.8-0.5c2.6,0,4.4,0.6,5.7,1.7s1.8,2.9,1.8,5.4V499H315.8z M308.5,496.7
			c2,0,3.6-0.6,4.8-1.7c1.2-1.1,1.7-2.7,1.7-4.6v-1.9l-3.2,0.1c-2.6,0.1-4.4,0.5-5.6,1.2c-1.1,0.7-1.7,1.8-1.7,3.3
			c0,1.2,0.4,2.1,1.1,2.7C306.2,496.4,307.2,496.7,308.5,496.7z"/>
		<path fill="#3E4F5B" d="M352,499v-13.9c0-1.7-0.4-3-1.1-3.8c-0.7-0.9-1.9-1.3-3.4-1.3c-2,0-3.5,0.6-4.5,1.7
			c-1,1.2-1.4,2.9-1.4,5.4v12h-3.2v-13.9c0-1.7-0.4-3-1.1-3.8c-0.7-0.9-1.9-1.3-3.4-1.3c-2,0-3.5,0.6-4.5,1.8
			c-0.9,1.2-1.4,3.2-1.4,6V499h-3.2v-21.4h2.6l0.5,2.9h0.2c0.6-1,1.5-1.9,2.6-2.4s2.4-0.9,3.7-0.9c3.3,0,5.5,1.2,6.6,3.6h0.2
			c0.6-1.1,1.6-2,2.8-2.7c1.2-0.7,2.6-1,4.1-1c2.4,0,4.2,0.6,5.4,1.9c1.2,1.2,1.8,3.2,1.8,6v14H352z"/>
		<path fill="#3E4F5B" d="M361.4,471.8c0-0.7,0.2-1.3,0.5-1.6c0.4-0.3,0.8-0.5,1.4-0.5c0.5,0,1,0.2,1.3,0.5c0.4,0.4,0.6,0.9,0.6,1.6
			c0,0.7-0.2,1.3-0.6,1.6c-0.4,0.4-0.8,0.5-1.3,0.5c-0.5,0-1-0.2-1.4-0.5C361.6,473.1,361.4,472.5,361.4,471.8z M364.9,499h-3.2
			v-21.4h3.2V499z"/>
		<path fill="#3E4F5B" d="M374.9,499h-3.2v-30.4h3.2V499z"/>
		<path fill="#3E4F5B" d="M378.1,477.6h3.5l4.7,12.2c1,2.8,1.7,4.8,1.9,6h0.2c0.2-0.7,0.5-1.8,1.1-3.4c0.5-1.6,2.3-6.6,5.3-14.8h3.5
			L389,502c-0.9,2.4-2,4.1-3.2,5.1s-2.7,1.5-4.5,1.5c-1,0-2-0.1-2.9-0.3v-2.6c0.7,0.2,1.5,0.2,2.4,0.2c2.2,0,3.8-1.2,4.8-3.8l1.2-3
			L378.1,477.6z"/>
		<path fill="#3E4F5B" d="M424.8,499l-0.6-3H424c-1.1,1.3-2.1,2.2-3.2,2.7c-1.1,0.5-2.4,0.7-4,0.7c-2.1,0-3.8-0.5-5-1.6
			s-1.8-2.6-1.8-4.7c0-4.3,3.5-6.6,10.4-6.8l3.6-0.1v-1.3c0-1.7-0.4-2.9-1.1-3.7s-1.9-1.2-3.5-1.2c-1.8,0-3.8,0.5-6.1,1.6l-1-2.5
			c1.1-0.6,2.2-1,3.5-1.3c1.3-0.3,2.5-0.5,3.8-0.5c2.6,0,4.4,0.6,5.7,1.7s1.8,2.9,1.8,5.4V499H424.8z M417.5,496.7
			c2,0,3.6-0.6,4.8-1.7c1.2-1.1,1.7-2.7,1.7-4.6v-1.9l-3.2,0.1c-2.6,0.1-4.4,0.5-5.6,1.2c-1.1,0.7-1.7,1.8-1.7,3.3
			c0,1.2,0.4,2.1,1.1,2.7C415.3,496.4,416.2,496.7,417.5,496.7z"/>
		<path fill="#3E4F5B" d="M448.4,499v-13.8c0-1.7-0.4-3-1.2-3.9c-0.8-0.9-2-1.3-3.7-1.3c-2.2,0-3.9,0.6-4.9,1.8
			c-1,1.2-1.6,3.2-1.6,6V499h-3.2v-21.4h2.6l0.5,2.9h0.2c0.7-1.1,1.6-1.9,2.8-2.5c1.2-0.6,2.5-0.9,4-0.9c2.6,0,4.5,0.6,5.8,1.9
			c1.3,1.2,2,3.2,2,6v14H448.4z"/>
		<path fill="#3E4F5B" d="M472.7,496.1h-0.2c-1.5,2.2-3.7,3.3-6.7,3.3c-2.8,0-5-1-6.5-2.9c-1.6-1.9-2.3-4.6-2.3-8.2
			c0-3.5,0.8-6.3,2.3-8.2s3.7-2.9,6.5-2.9c2.9,0,5.1,1.1,6.7,3.2h0.3l-0.1-1.5l-0.1-1.5v-8.7h3.2V499h-2.6L472.7,496.1z
			 M466.2,496.7c2.2,0,3.8-0.6,4.8-1.8c1-1.2,1.5-3.1,1.5-5.8v-0.7c0-3-0.5-5.2-1.5-6.5c-1-1.3-2.6-1.9-4.8-1.9
			c-1.9,0-3.4,0.7-4.4,2.2c-1,1.5-1.5,3.6-1.5,6.3c0,2.7,0.5,4.8,1.5,6.2C462.8,496,464.2,496.7,466.2,496.7z"/>
		<path fill="#3E4F5B" d="M502.2,480.1h-5.4V499h-3.2v-18.9h-3.8v-1.5l3.8-1.2v-1.2c0-5.3,2.3-7.9,6.9-7.9c1.1,0,2.5,0.2,4,0.7
			l-0.8,2.6c-1.2-0.4-2.3-0.6-3.2-0.6c-1.2,0-2.1,0.4-2.7,1.2c-0.6,0.8-0.9,2.1-0.9,3.9v1.4h5.4V480.1z"/>
		<path fill="#3E4F5B" d="M515.7,477.2c1,0,1.8,0.1,2.6,0.2l-0.4,3c-0.9-0.2-1.7-0.3-2.3-0.3c-1.7,0-3.2,0.7-4.4,2.1
			c-1.2,1.4-1.8,3.2-1.8,5.3V499h-3.2v-21.4h2.7l0.4,4h0.2c0.8-1.4,1.8-2.5,2.9-3.2C513.1,477.6,514.4,477.2,515.7,477.2z"/>
		<path fill="#3E4F5B" d="M521.8,471.8c0-0.7,0.2-1.3,0.5-1.6c0.4-0.3,0.8-0.5,1.4-0.5c0.5,0,1,0.2,1.3,0.5c0.4,0.4,0.6,0.9,0.6,1.6
			c0,0.7-0.2,1.3-0.6,1.6c-0.4,0.4-0.8,0.5-1.3,0.5c-0.5,0-1-0.2-1.4-0.5C522,473.1,521.8,472.5,521.8,471.8z M525.3,499h-3.2v-21.4
			h3.2V499z"/>
		<path fill="#3E4F5B" d="M541,499.4c-3.2,0-5.7-1-7.5-2.9c-1.8-1.9-2.7-4.6-2.7-8c0-3.5,0.8-6.2,2.5-8.2s4-3,6.8-3
			c2.7,0,4.8,0.9,6.4,2.6c1.6,1.8,2.3,4.1,2.3,7v2.1h-14.7c0.1,2.5,0.7,4.4,1.9,5.7c1.2,1.3,2.9,2,5.1,2c2.3,0,4.6-0.5,6.8-1.4v2.9
			c-1.1,0.5-2.2,0.8-3.3,1.1C543.7,499.3,542.5,499.4,541,499.4z M540.1,479.9c-1.7,0-3.1,0.6-4.1,1.7c-1,1.1-1.6,2.7-1.8,4.6h11.2
			c0-2-0.5-3.6-1.4-4.7C543.1,480.5,541.8,479.9,540.1,479.9z"/>
		<path fill="#3E4F5B" d="M568.9,499v-13.8c0-1.7-0.4-3-1.2-3.9s-2-1.3-3.7-1.3c-2.2,0-3.9,0.6-4.9,1.8s-1.6,3.2-1.6,6V499h-3.2
			v-21.4h2.6l0.5,2.9h0.2c0.7-1.1,1.6-1.9,2.8-2.5c1.2-0.6,2.5-0.9,4-0.9c2.6,0,4.5,0.6,5.8,1.9c1.3,1.2,2,3.2,2,6v14H568.9z"/>
		<path fill="#3E4F5B" d="M593.1,496.1H593c-1.5,2.2-3.7,3.3-6.7,3.3c-2.8,0-5-1-6.5-2.9s-2.3-4.6-2.3-8.2c0-3.5,0.8-6.3,2.3-8.2
			s3.7-2.9,6.5-2.9c2.9,0,5.1,1.1,6.7,3.2h0.3l-0.1-1.5l-0.1-1.5v-8.7h3.2V499h-2.6L593.1,496.1z M586.7,496.7
			c2.2,0,3.8-0.6,4.8-1.8c1-1.2,1.5-3.1,1.5-5.8v-0.7c0-3-0.5-5.2-1.5-6.5c-1-1.3-2.6-1.9-4.8-1.9c-1.9,0-3.4,0.7-4.4,2.2
			c-1,1.5-1.5,3.6-1.5,6.3c0,2.7,0.5,4.8,1.5,6.2C583.3,496,584.7,496.7,586.7,496.7z"/>
		<path fill="#3E4F5B" d="M616.7,493.2c0,2-0.7,3.5-2.2,4.6c-1.5,1.1-3.6,1.6-6.2,1.6c-2.8,0-5.1-0.4-6.6-1.3v-3
			c1,0.5,2.1,0.9,3.3,1.2c1.2,0.3,2.3,0.4,3.4,0.4c1.7,0,3-0.3,3.9-0.8c0.9-0.5,1.4-1.4,1.4-2.5c0-0.8-0.4-1.5-1.1-2.1
			c-0.7-0.6-2.1-1.3-4.2-2.1c-2-0.7-3.4-1.4-4.2-1.9c-0.8-0.6-1.5-1.2-1.9-1.9s-0.6-1.5-0.6-2.5c0-1.7,0.7-3.1,2.1-4.1
			c1.4-1,3.4-1.5,5.8-1.5c2.3,0,4.6,0.5,6.8,1.4l-1.2,2.6c-2.1-0.9-4.1-1.3-5.8-1.3c-1.5,0-2.7,0.2-3.5,0.7c-0.8,0.5-1.2,1.1-1.2,2
			c0,0.6,0.1,1.1,0.4,1.5c0.3,0.4,0.8,0.8,1.4,1.2c0.7,0.4,1.9,0.9,3.8,1.6c2.5,0.9,4.3,1.9,5.1,2.8S616.7,491.7,616.7,493.2z"/>
	</g>
	<g>
		<path fill="#25B4FF" d="M232,428.5l-2.1-6.8h-10.4l-2.1,6.8h-6.5l10.1-28.7h7.4l10.1,28.7H232z M228.4,416.6
			c-1.9-6.2-3-9.6-3.2-10.4c-0.2-0.8-0.4-1.4-0.5-1.9c-0.4,1.7-1.7,5.8-3.7,12.4H228.4z"/>
		<path fill="#25B4FF" d="M267.2,428.5h-7.7l-12.4-21.6h-0.2c0.2,3.8,0.4,6.5,0.4,8.2v13.4h-5.4V400h7.6l12.4,21.4h0.1
			c-0.2-3.7-0.3-6.3-0.3-7.9V400h5.4V428.5z"/>
		<path fill="#25B4FF" d="M291.7,428.5l-2.1-6.8h-10.4l-2.1,6.8h-6.5l10.1-28.7h7.4l10.1,28.7H291.7z M288.2,416.6
			c-1.9-6.2-3-9.6-3.2-10.4s-0.4-1.4-0.5-1.9c-0.4,1.7-1.7,5.8-3.7,12.4H288.2z"/>
		<path fill="#25B4FF" d="M301.6,428.5V400h6.1v23.6h11.6v5H301.6z"/>
		<path fill="#25B4FF" d="M349.9,414.2c0,4.7-1.2,8.4-3.5,10.9s-5.7,3.8-10.1,3.8s-7.7-1.3-10.1-3.8s-3.5-6.2-3.5-10.9
			s1.2-8.4,3.5-10.9c2.3-2.5,5.7-3.8,10.1-3.8c4.4,0,7.7,1.3,10.1,3.8S349.9,409.5,349.9,414.2z M329.1,414.2c0,3.2,0.6,5.6,1.8,7.2
			s3,2.4,5.4,2.4c4.8,0,7.2-3.2,7.2-9.6c0-6.4-2.4-9.6-7.2-9.6c-2.4,0-4.2,0.8-5.4,2.4C329.7,408.6,329.1,411,329.1,414.2z"/>
		<path fill="#25B4FF" d="M366.5,412.5h11.3v14.8c-1.8,0.6-3.6,1-5.2,1.3c-1.6,0.2-3.3,0.4-5,0.4c-4.3,0-7.6-1.3-9.9-3.8
			c-2.3-2.5-3.4-6.2-3.4-10.9c0-4.6,1.3-8.2,4-10.8s6.3-3.9,11-3.9c2.9,0,5.8,0.6,8.5,1.8l-2,4.8c-2.1-1-4.3-1.6-6.5-1.6
			c-2.6,0-4.7,0.9-6.3,2.6c-1.6,1.8-2.4,4.1-2.4,7.1c0,3.1,0.6,5.5,1.9,7.1s3.1,2.5,5.5,2.5c1.3,0,2.5-0.1,3.8-0.4v-6h-5.4V412.5z"
			/>
		<path fill="#25B4FF" d="M407.6,400v18.5c0,2.1-0.5,4-1.4,5.5c-0.9,1.6-2.3,2.8-4.1,3.7c-1.8,0.8-3.9,1.3-6.3,1.3
			c-3.7,0-6.5-0.9-8.6-2.8s-3-4.5-3-7.7V400h6v17.5c0,2.2,0.4,3.8,1.3,4.8c0.9,1,2.3,1.5,4.4,1.5c2,0,3.4-0.5,4.3-1.6
			c0.9-1,1.3-2.7,1.3-4.9V400H407.6z"/>
		<path fill="#25B4FF" d="M430.9,428.5h-16.4V400h16.4v5h-10.4v6.3h9.7v5h-9.7v7.4h10.4V428.5z"/>
		<path fill="#25B4FF" d="M464.3,428.5l-2.1-6.8h-10.4l-2.1,6.8h-6.5l10.1-28.7h7.4l10.1,28.7H464.3z M460.8,416.6
			c-1.9-6.2-3-9.6-3.2-10.4c-0.2-0.8-0.4-1.4-0.5-1.9c-0.4,1.7-1.7,5.8-3.7,12.4H460.8z"/>
		<path fill="#25B4FF" d="M485,412.5h11.3v14.8c-1.8,0.6-3.6,1-5.2,1.3c-1.6,0.2-3.3,0.4-5,0.4c-4.3,0-7.6-1.3-9.9-3.8
			c-2.3-2.5-3.4-6.2-3.4-10.9c0-4.6,1.3-8.2,4-10.8s6.3-3.9,11-3.9c2.9,0,5.8,0.6,8.5,1.8l-2,4.8c-2.1-1-4.3-1.6-6.5-1.6
			c-2.6,0-4.7,0.9-6.3,2.6c-1.6,1.8-2.4,4.1-2.4,7.1c0,3.1,0.6,5.5,1.9,7.1s3.1,2.5,5.5,2.5c1.3,0,2.5-0.1,3.8-0.4v-6H485V412.5z"/>
		<path fill="#25B4FF" d="M519.4,428.5H503V400h16.4v5H509v6.3h9.7v5H509v7.4h10.4V428.5z"/>
	</g>
	
		<line fill="none" stroke="#3A4F5A" stroke-width="2" stroke-linecap="round" stroke-miterlimit="10" x1="166.6" y1="445.3" x2="1018.9" y2="445.3"/>
	<g>
		<path fill="#3E4F5B" d="M227.4,714h9.7v13.9c-1.5,0.5-3,0.8-4.6,1.1c-1.6,0.2-3.4,0.4-5.4,0.4c-4.3,0-7.7-1.3-10.1-3.9
			c-2.4-2.6-3.6-6.2-3.6-10.8c0-3,0.6-5.6,1.8-7.8c1.2-2.2,2.9-3.9,5.1-5.1c2.2-1.2,4.9-1.8,7.9-1.8c3,0,5.9,0.6,8.5,1.7l-1.3,2.9
			c-2.6-1.1-5.1-1.6-7.4-1.6c-3.5,0-6.2,1-8.1,3.1s-2.9,4.9-2.9,8.6c0,3.9,0.9,6.8,2.8,8.8s4.6,3,8.3,3c2,0,3.9-0.2,5.8-0.7V717
			h-6.4V714z"/>
		<path fill="#3E4F5B" d="M261.7,718.2c0,3.5-0.9,6.2-2.6,8.2c-1.8,2-4.2,2.9-7.3,2.9c-1.9,0-3.6-0.4-5.1-1.3s-2.6-2.2-3.4-3.9
			s-1.2-3.6-1.2-5.9c0-3.5,0.9-6.2,2.6-8.2c1.7-1.9,4.2-2.9,7.3-2.9c3,0,5.4,1,7.1,3S261.7,714.8,261.7,718.2z M245.4,718.2
			c0,2.7,0.5,4.8,1.6,6.2c1.1,1.4,2.7,2.1,4.8,2.1s3.7-0.7,4.8-2.1c1.1-1.4,1.7-3.5,1.7-6.3c0-2.7-0.5-4.8-1.7-6.2
			c-1.1-1.4-2.7-2.1-4.9-2.1c-2.1,0-3.7,0.7-4.8,2.1C245.9,713.4,245.4,715.5,245.4,718.2z"/>
		<path fill="#3E4F5B" d="M285.7,718.2c0,3.5-0.9,6.2-2.6,8.2c-1.8,2-4.2,2.9-7.3,2.9c-1.9,0-3.6-0.4-5.1-1.3s-2.6-2.2-3.4-3.9
			c-0.8-1.7-1.2-3.6-1.2-5.9c0-3.5,0.9-6.2,2.6-8.2c1.7-1.9,4.2-2.9,7.3-2.9c3,0,5.4,1,7.1,3C284.8,712.1,285.7,714.8,285.7,718.2z
			 M269.4,718.2c0,2.7,0.5,4.8,1.6,6.2c1.1,1.4,2.7,2.1,4.8,2.1c2.1,0,3.7-0.7,4.8-2.1c1.1-1.4,1.7-3.5,1.7-6.3
			c0-2.7-0.6-4.8-1.7-6.2c-1.1-1.4-2.7-2.1-4.9-2.1c-2.1,0-3.7,0.7-4.8,2.1C269.9,713.4,269.4,715.5,269.4,718.2z"/>
		<path fill="#3E4F5B" d="M308.7,707.5v2.1l-4,0.5c0.4,0.5,0.7,1.1,1,1.8c0.3,0.7,0.4,1.6,0.4,2.5c0,2.1-0.7,3.8-2.1,5
			c-1.4,1.2-3.4,1.9-5.9,1.9c-0.6,0-1.2-0.1-1.8-0.2c-1.4,0.7-2.1,1.6-2.1,2.8c0,0.6,0.2,1,0.7,1.3c0.5,0.3,1.3,0.4,2.5,0.4h3.8
			c2.3,0,4.1,0.5,5.3,1.5c1.2,1,1.9,2.4,1.9,4.3c0,2.4-1,4.2-2.9,5.4c-1.9,1.2-4.7,1.9-8.3,1.9c-2.8,0-5-0.5-6.5-1.6
			c-1.5-1-2.3-2.5-2.3-4.4c0-1.3,0.4-2.4,1.2-3.4c0.8-1,2-1.6,3.5-1.9c-0.5-0.2-1-0.6-1.4-1.2c-0.4-0.5-0.6-1.1-0.6-1.8
			c0-0.8,0.2-1.5,0.6-2.1c0.4-0.6,1.1-1.2,2-1.7c-1.1-0.5-2-1.2-2.7-2.3c-0.7-1.1-1-2.3-1-3.8c0-2.3,0.7-4.2,2.1-5.4s3.4-1.9,6-1.9
			c1.1,0,2.1,0.1,3,0.4H308.7z M291.6,732.5c0,1.2,0.5,2,1.5,2.6c1,0.6,2.4,0.9,4.2,0.9c2.7,0,4.7-0.4,6-1.2c1.3-0.8,2-1.9,2-3.3
			c0-1.2-0.4-2-1.1-2.4c-0.7-0.4-2.1-0.7-4-0.7h-3.9c-1.5,0-2.6,0.4-3.4,1.1S291.6,731.2,291.6,732.5z M293.4,714.4
			c0,1.5,0.4,2.6,1.3,3.4c0.8,0.8,2,1.2,3.5,1.2c3.2,0,4.7-1.5,4.7-4.6c0-3.2-1.6-4.8-4.8-4.8c-1.5,0-2.7,0.4-3.5,1.2
			S293.4,712.8,293.4,714.4z"/>
		<path fill="#3E4F5B" d="M316.1,728.9h-3.2v-30.4h3.2V728.9z"/>
		<path fill="#3E4F5B" d="M331.8,729.3c-3.2,0-5.7-1-7.5-2.9c-1.8-1.9-2.7-4.6-2.7-8c0-3.5,0.8-6.2,2.5-8.2s4-3,6.8-3
			c2.7,0,4.8,0.9,6.4,2.6c1.6,1.8,2.3,4.1,2.3,7v2.1H325c0.1,2.5,0.7,4.4,1.9,5.7c1.2,1.3,2.9,2,5.1,2c2.3,0,4.6-0.5,6.8-1.4v2.9
			c-1.1,0.5-2.2,0.8-3.3,1.1S333.3,729.3,331.8,729.3z M331,709.9c-1.7,0-3.1,0.6-4.1,1.7c-1,1.1-1.6,2.7-1.8,4.6h11.2
			c0-2-0.5-3.6-1.4-4.7C333.9,710.4,332.6,709.9,331,709.9z"/>
		<path fill="#3E4F5B" d="M369,723.1c0,2-0.7,3.5-2.2,4.6c-1.5,1.1-3.6,1.6-6.2,1.6c-2.8,0-5.1-0.4-6.6-1.3v-3
			c1,0.5,2.1,0.9,3.3,1.2c1.2,0.3,2.3,0.4,3.4,0.4c1.7,0,3-0.3,3.9-0.8c0.9-0.5,1.4-1.4,1.4-2.5c0-0.8-0.4-1.5-1.1-2.1
			c-0.7-0.6-2.1-1.3-4.2-2.1c-2-0.7-3.4-1.4-4.2-1.9c-0.8-0.6-1.5-1.2-1.9-1.9s-0.6-1.5-0.6-2.5c0-1.7,0.7-3.1,2.1-4.1
			c1.4-1,3.4-1.5,5.8-1.5c2.3,0,4.6,0.5,6.8,1.4l-1.2,2.6c-2.1-0.9-4.1-1.3-5.8-1.3c-1.5,0-2.7,0.2-3.5,0.7c-0.8,0.5-1.2,1.1-1.2,2
			c0,0.6,0.1,1.1,0.4,1.5c0.3,0.4,0.8,0.8,1.4,1.2c0.7,0.4,1.9,0.9,3.8,1.6c2.5,0.9,4.3,1.9,5.1,2.8
			C368.6,720.5,369,721.7,369,723.1z"/>
		<path fill="#3E4F5B" d="M370.7,707.5h3.5l4.7,12.2c1,2.8,1.7,4.8,1.9,6h0.2c0.2-0.7,0.5-1.8,1.1-3.4c0.5-1.6,2.3-6.6,5.3-14.8h3.5
			l-9.2,24.4c-0.9,2.4-2,4.1-3.2,5.1c-1.2,1-2.7,1.5-4.5,1.5c-1,0-2-0.1-2.9-0.3v-2.6c0.7,0.2,1.5,0.2,2.4,0.2
			c2.2,0,3.8-1.2,4.8-3.8l1.2-3L370.7,707.5z"/>
		<path fill="#3E4F5B" d="M421.3,728.9V715c0-1.7-0.4-3-1.1-3.8c-0.7-0.9-1.9-1.3-3.4-1.3c-2,0-3.5,0.6-4.5,1.7
			c-1,1.2-1.4,2.9-1.4,5.4v12h-3.2V715c0-1.7-0.4-3-1.1-3.8c-0.7-0.9-1.9-1.3-3.4-1.3c-2,0-3.5,0.6-4.5,1.8c-0.9,1.2-1.4,3.2-1.4,6
			v11.2h-3.2v-21.4h2.6l0.5,2.9h0.2c0.6-1,1.5-1.9,2.6-2.4s2.4-0.9,3.7-0.9c3.3,0,5.5,1.2,6.6,3.6h0.2c0.6-1.1,1.6-2,2.8-2.7
			c1.2-0.7,2.6-1,4.1-1c2.4,0,4.2,0.6,5.4,1.9c1.2,1.2,1.8,3.2,1.8,6v14H421.3z"/>
		<path fill="#3E4F5B" d="M441,729.3c-1.4,0-2.7-0.3-3.8-0.8c-1.2-0.5-2.1-1.3-2.9-2.4h-0.2c0.2,1.2,0.2,2.4,0.2,3.6v8.8h-3.2v-31
			h2.6l0.4,2.9h0.2c0.8-1.2,1.8-2,2.9-2.5c1.1-0.5,2.4-0.8,3.8-0.8c2.8,0,5,1,6.6,2.9c1.5,1.9,2.3,4.7,2.3,8.2
			c0,3.5-0.8,6.2-2.4,8.2C446,728.4,443.8,729.3,441,729.3z M440.6,709.9c-2.2,0-3.8,0.6-4.7,1.8s-1.5,3.1-1.5,5.8v0.7
			c0,3,0.5,5.2,1.5,6.5c1,1.3,2.6,1.9,4.8,1.9c1.8,0,3.3-0.7,4.3-2.2c1-1.5,1.6-3.6,1.6-6.2c0-2.7-0.5-4.7-1.6-6.1
			S442.5,709.9,440.6,709.9z"/>
		<path fill="#3E4F5B" d="M462.3,726.7c0.6,0,1.1,0,1.7-0.1c0.5-0.1,1-0.2,1.3-0.3v2.5c-0.4,0.2-0.9,0.3-1.6,0.4
			c-0.7,0.1-1.3,0.2-1.8,0.2c-4.1,0-6.2-2.2-6.2-6.5v-12.7h-3.1v-1.6l3.1-1.3l1.4-4.6h1.9v5h6.2v2.5h-6.2v12.6c0,1.3,0.3,2.3,0.9,3
			C460.4,726.3,461.2,726.7,462.3,726.7z"/>
		<path fill="#3E4F5B" d="M487.8,718.2c0,3.5-0.9,6.2-2.6,8.2c-1.8,2-4.2,2.9-7.3,2.9c-1.9,0-3.6-0.4-5.1-1.3s-2.6-2.2-3.4-3.9
			c-0.8-1.7-1.2-3.6-1.2-5.9c0-3.5,0.9-6.2,2.6-8.2c1.7-1.9,4.2-2.9,7.3-2.9c3,0,5.4,1,7.1,3C486.9,712.1,487.8,714.8,487.8,718.2z
			 M471.5,718.2c0,2.7,0.5,4.8,1.6,6.2c1.1,1.4,2.7,2.1,4.8,2.1c2.1,0,3.7-0.7,4.8-2.1c1.1-1.4,1.7-3.5,1.7-6.3
			c0-2.7-0.6-4.8-1.7-6.2c-1.1-1.4-2.7-2.1-4.9-2.1c-2.1,0-3.7,0.7-4.8,2.1C472,713.4,471.5,715.5,471.5,718.2z"/>
		<path fill="#3E4F5B" d="M520.5,728.9V715c0-1.7-0.4-3-1.1-3.8c-0.7-0.9-1.9-1.3-3.4-1.3c-2,0-3.5,0.6-4.5,1.7
			c-1,1.2-1.4,2.9-1.4,5.4v12h-3.2V715c0-1.7-0.4-3-1.1-3.8c-0.7-0.9-1.9-1.3-3.4-1.3c-2,0-3.5,0.6-4.5,1.8c-0.9,1.2-1.4,3.2-1.4,6
			v11.2h-3.2v-21.4h2.6l0.5,2.9h0.2c0.6-1,1.5-1.9,2.6-2.4s2.4-0.9,3.7-0.9c3.3,0,5.5,1.2,6.6,3.6h0.2c0.6-1.1,1.6-2,2.8-2.7
			c1.2-0.7,2.6-1,4.1-1c2.4,0,4.2,0.6,5.4,1.9c1.2,1.2,1.8,3.2,1.8,6v14H520.5z"/>
		<path fill="#3E4F5B" d="M544.1,723.1c0,2-0.7,3.5-2.2,4.6c-1.5,1.1-3.6,1.6-6.2,1.6c-2.8,0-5.1-0.4-6.6-1.3v-3
			c1,0.5,2.1,0.9,3.3,1.2c1.2,0.3,2.3,0.4,3.4,0.4c1.7,0,3-0.3,3.9-0.8c0.9-0.5,1.4-1.4,1.4-2.5c0-0.8-0.4-1.5-1.1-2.1
			c-0.7-0.6-2.1-1.3-4.2-2.1c-2-0.7-3.4-1.4-4.2-1.9c-0.8-0.6-1.5-1.2-1.9-1.9s-0.6-1.5-0.6-2.5c0-1.7,0.7-3.1,2.1-4.1
			c1.4-1,3.4-1.5,5.8-1.5c2.3,0,4.6,0.5,6.8,1.4l-1.2,2.6c-2.1-0.9-4.1-1.3-5.8-1.3c-1.5,0-2.7,0.2-3.5,0.7c-0.8,0.5-1.2,1.1-1.2,2
			c0,0.6,0.1,1.1,0.4,1.5c0.3,0.4,0.8,0.8,1.4,1.2c0.7,0.4,1.9,0.9,3.8,1.6c2.5,0.9,4.3,1.9,5.1,2.8S544.1,721.7,544.1,723.1z"/>
		<path fill="#3E4F5B" d="M552.5,724.3l0.3,0.4c-0.3,1.3-0.8,2.8-1.5,4.5c-0.6,1.7-1.3,3.3-2,4.8h-2.4c0.4-1.4,0.7-3,1.2-5
			s0.7-3.6,0.9-4.8H552.5z"/>
		<path fill="#3E4F5B" d="M578.9,729.3c-1.4,0-2.7-0.3-3.8-0.8c-1.2-0.5-2.1-1.3-2.9-2.4H572c0.2,1.2,0.2,2.4,0.2,3.6v8.8h-3.2v-31
			h2.6l0.4,2.9h0.2c0.8-1.2,1.8-2,2.9-2.5c1.1-0.5,2.4-0.8,3.8-0.8c2.8,0,5,1,6.6,2.9c1.5,1.9,2.3,4.7,2.3,8.2
			c0,3.5-0.8,6.2-2.4,8.2C583.9,728.4,581.7,729.3,578.9,729.3z M578.4,709.9c-2.2,0-3.8,0.6-4.7,1.8s-1.5,3.1-1.5,5.8v0.7
			c0,3,0.5,5.2,1.5,6.5c1,1.3,2.6,1.9,4.8,1.9c1.8,0,3.3-0.7,4.3-2.2c1-1.5,1.6-3.6,1.6-6.2c0-2.7-0.5-4.7-1.6-6.1
			C581.8,710.6,580.3,709.9,578.4,709.9z"/>
		<path fill="#3E4F5B" d="M611.7,718.2c0,3.5-0.9,6.2-2.6,8.2c-1.8,2-4.2,2.9-7.3,2.9c-1.9,0-3.6-0.4-5.1-1.3s-2.6-2.2-3.4-3.9
			c-0.8-1.7-1.2-3.6-1.2-5.9c0-3.5,0.9-6.2,2.6-8.2c1.7-1.9,4.2-2.9,7.3-2.9c3,0,5.4,1,7.1,3C610.8,712.1,611.7,714.8,611.7,718.2z
			 M595.4,718.2c0,2.7,0.5,4.8,1.6,6.2c1.1,1.4,2.7,2.1,4.8,2.1c2.1,0,3.7-0.7,4.8-2.1c1.1-1.4,1.7-3.5,1.7-6.3
			c0-2.7-0.6-4.8-1.7-6.2c-1.1-1.4-2.7-2.1-4.9-2.1c-2.1,0-3.7,0.7-4.8,2.1C596,713.4,595.4,715.5,595.4,718.2z"/>
		<path fill="#3E4F5B" d="M631,723.1c0,2-0.7,3.5-2.2,4.6c-1.5,1.1-3.6,1.6-6.2,1.6c-2.8,0-5.1-0.4-6.6-1.3v-3
			c1,0.5,2.1,0.9,3.3,1.2c1.2,0.3,2.3,0.4,3.4,0.4c1.7,0,3-0.3,3.9-0.8c0.9-0.5,1.4-1.4,1.4-2.5c0-0.8-0.4-1.5-1.1-2.1
			c-0.7-0.6-2.1-1.3-4.2-2.1c-2-0.7-3.4-1.4-4.2-1.9c-0.8-0.6-1.5-1.2-1.9-1.9s-0.6-1.5-0.6-2.5c0-1.7,0.7-3.1,2.1-4.1
			c1.4-1,3.4-1.5,5.8-1.5c2.3,0,4.6,0.5,6.8,1.4l-1.2,2.6c-2.1-0.9-4.1-1.3-5.8-1.3c-1.5,0-2.7,0.2-3.5,0.7c-0.8,0.5-1.2,1.1-1.2,2
			c0,0.6,0.1,1.1,0.4,1.5c0.3,0.4,0.8,0.8,1.4,1.2c0.7,0.4,1.9,0.9,3.8,1.6c2.5,0.9,4.3,1.9,5.1,2.8S631,721.7,631,723.1z"/>
		<path fill="#3E4F5B" d="M643,726.7c0.6,0,1.1,0,1.7-0.1c0.5-0.1,1-0.2,1.3-0.3v2.5c-0.4,0.2-0.9,0.3-1.6,0.4
			c-0.7,0.1-1.3,0.2-1.8,0.2c-4.1,0-6.2-2.2-6.2-6.5v-12.7h-3.1v-1.6l3.1-1.3l1.4-4.6h1.9v5h6.2v2.5h-6.2v12.6c0,1.3,0.3,2.3,0.9,3
			C641.1,726.3,641.9,726.7,643,726.7z"/>
		<path fill="#3E4F5B" d="M673.4,728.9l-0.6-3h-0.2c-1.1,1.3-2.1,2.2-3.2,2.7c-1.1,0.5-2.4,0.7-4,0.7c-2.1,0-3.8-0.5-5-1.6
			c-1.2-1.1-1.8-2.7-1.8-4.7c0-4.3,3.5-6.6,10.4-6.8l3.6-0.1v-1.3c0-1.7-0.4-2.9-1.1-3.7s-1.9-1.2-3.5-1.2c-1.8,0-3.8,0.5-6.1,1.6
			l-1-2.5c1.1-0.6,2.2-1,3.5-1.3c1.3-0.3,2.5-0.5,3.8-0.5c2.6,0,4.4,0.6,5.7,1.7s1.8,2.9,1.8,5.4v14.6H673.4z M666,726.7
			c2,0,3.6-0.6,4.8-1.7c1.2-1.1,1.7-2.7,1.7-4.6v-1.9l-3.2,0.1c-2.6,0.1-4.4,0.5-5.6,1.2c-1.1,0.7-1.7,1.8-1.7,3.3
			c0,1.2,0.4,2.1,1.1,2.7C663.8,726.4,664.8,726.7,666,726.7z"/>
		<path fill="#3E4F5B" d="M692.2,707.2c2.8,0,5,1,6.6,2.9c1.6,1.9,2.3,4.6,2.3,8.2s-0.8,6.2-2.4,8.2c-1.6,1.9-3.7,2.9-6.5,2.9
			c-1.4,0-2.7-0.3-3.8-0.8c-1.2-0.5-2.1-1.3-2.9-2.4h-0.2l-0.7,2.8h-2.3v-30.4h3.2v7.4c0,1.7-0.1,3.1-0.2,4.5h0.2
			C687,708.3,689.2,707.2,692.2,707.2z M691.7,709.9c-2.2,0-3.8,0.6-4.8,1.9s-1.5,3.4-1.5,6.4s0.5,5.2,1.5,6.5
			c1,1.3,2.6,1.9,4.8,1.9c2,0,3.5-0.7,4.5-2.2c1-1.5,1.5-3.5,1.5-6.3c0-2.8-0.5-4.9-1.5-6.2S693.8,709.9,691.7,709.9z"/>
		<path fill="#3E4F5B" d="M725,718.2c0,3.5-0.9,6.2-2.6,8.2c-1.8,2-4.2,2.9-7.3,2.9c-1.9,0-3.6-0.4-5.1-1.3s-2.6-2.2-3.4-3.9
			s-1.2-3.6-1.2-5.9c0-3.5,0.9-6.2,2.6-8.2c1.7-1.9,4.2-2.9,7.3-2.9c3,0,5.4,1,7.1,3C724.2,712.1,725,714.8,725,718.2z M708.7,718.2
			c0,2.7,0.5,4.8,1.6,6.2c1.1,1.4,2.7,2.1,4.8,2.1s3.7-0.7,4.8-2.1s1.7-3.5,1.7-6.3c0-2.7-0.5-4.8-1.7-6.2c-1.1-1.4-2.7-2.1-4.9-2.1
			c-2.1,0-3.7,0.7-4.8,2.1C709.3,713.4,708.7,715.5,708.7,718.2z"/>
		<path fill="#3E4F5B" d="M733.6,707.5v13.9c0,1.7,0.4,3,1.2,3.9s2,1.3,3.7,1.3c2.2,0,3.9-0.6,4.9-1.8c1-1.2,1.6-3.2,1.6-6v-11.2
			h3.2v21.4h-2.7l-0.5-2.9h-0.2c-0.7,1.1-1.6,1.9-2.8,2.4c-1.2,0.6-2.5,0.8-4,0.8c-2.6,0-4.6-0.6-5.8-1.9c-1.3-1.2-1.9-3.2-1.9-5.9
			v-14H733.6z"/>
		<path fill="#3E4F5B" d="M761.8,726.7c0.6,0,1.1,0,1.7-0.1c0.5-0.1,1-0.2,1.3-0.3v2.5c-0.4,0.2-0.9,0.3-1.6,0.4
			c-0.7,0.1-1.3,0.2-1.8,0.2c-4.1,0-6.2-2.2-6.2-6.5v-12.7H752v-1.6l3.1-1.3l1.4-4.6h1.9v5h6.2v2.5h-6.2v12.6c0,1.3,0.3,2.3,0.9,3
			C759.9,726.3,760.7,726.7,761.8,726.7z"/>
		<path fill="#3E4F5B" d="M228.1,771.1c0,2-0.7,3.5-2.2,4.6c-1.5,1.1-3.6,1.6-6.2,1.6c-2.8,0-5.1-0.4-6.6-1.3v-3
			c1,0.5,2.1,0.9,3.3,1.2c1.2,0.3,2.3,0.4,3.4,0.4c1.7,0,3-0.3,3.9-0.8c0.9-0.5,1.4-1.4,1.4-2.5c0-0.8-0.4-1.5-1.1-2.1
			c-0.7-0.6-2.1-1.3-4.2-2.1c-2-0.7-3.4-1.4-4.2-1.9c-0.8-0.6-1.5-1.2-1.9-1.9s-0.6-1.5-0.6-2.5c0-1.7,0.7-3.1,2.1-4.1
			c1.4-1,3.4-1.5,5.8-1.5c2.3,0,4.6,0.5,6.8,1.4l-1.2,2.6c-2.1-0.9-4.1-1.3-5.8-1.3c-1.5,0-2.7,0.2-3.5,0.7c-0.8,0.5-1.2,1.1-1.2,2
			c0,0.6,0.1,1.1,0.4,1.5c0.3,0.4,0.8,0.8,1.4,1.2c0.7,0.4,1.9,0.9,3.8,1.6c2.5,0.9,4.3,1.9,5.1,2.8S228.1,769.7,228.1,771.1z"/>
		<path fill="#3E4F5B" d="M229.8,755.5h3.5l4.7,12.2c1,2.8,1.7,4.8,1.9,6h0.2c0.2-0.7,0.5-1.8,1.1-3.4c0.5-1.6,2.3-6.6,5.3-14.8h3.5
			l-9.2,24.4c-0.9,2.4-2,4.1-3.2,5.1c-1.2,1-2.7,1.5-4.5,1.5c-1,0-2-0.1-2.9-0.3v-2.6c0.7,0.2,1.5,0.2,2.4,0.2
			c2.2,0,3.8-1.2,4.8-3.8l1.2-3L229.8,755.5z"/>
		<path fill="#3E4F5B" d="M280.4,776.9V763c0-1.7-0.4-3-1.1-3.8c-0.7-0.9-1.9-1.3-3.4-1.3c-2,0-3.5,0.6-4.5,1.7
			c-1,1.2-1.4,2.9-1.4,5.4v12h-3.2V763c0-1.7-0.4-3-1.1-3.8c-0.7-0.9-1.9-1.3-3.4-1.3c-2,0-3.5,0.6-4.5,1.8c-0.9,1.2-1.4,3.2-1.4,6
			v11.2h-3.2v-21.4h2.6l0.5,2.9h0.2c0.6-1,1.5-1.9,2.6-2.4s2.4-0.9,3.7-0.9c3.3,0,5.5,1.2,6.6,3.6h0.2c0.6-1.1,1.6-2,2.8-2.7
			c1.2-0.7,2.6-1,4.1-1c2.4,0,4.2,0.6,5.4,1.9c1.2,1.2,1.8,3.2,1.8,6v14H280.4z"/>
		<path fill="#3E4F5B" d="M300.1,777.3c-1.4,0-2.7-0.3-3.8-0.8c-1.2-0.5-2.1-1.3-2.9-2.4h-0.2c0.2,1.2,0.2,2.4,0.2,3.6v8.8h-3.2v-31
			h2.6l0.4,2.9h0.2c0.8-1.2,1.8-2,2.9-2.5c1.1-0.5,2.4-0.8,3.8-0.8c2.8,0,5,1,6.6,2.9c1.5,1.9,2.3,4.7,2.3,8.2
			c0,3.5-0.8,6.2-2.4,8.2C305.1,776.4,302.9,777.3,300.1,777.3z M299.7,757.9c-2.2,0-3.8,0.6-4.7,1.8s-1.5,3.1-1.5,5.8v0.7
			c0,3,0.5,5.2,1.5,6.5c1,1.3,2.6,1.9,4.8,1.9c1.8,0,3.3-0.7,4.3-2.2c1-1.5,1.6-3.6,1.6-6.2c0-2.7-0.5-4.7-1.6-6.1
			C303,758.6,301.6,757.9,299.7,757.9z"/>
		<path fill="#3E4F5B" d="M321.4,774.7c0.6,0,1.1,0,1.7-0.1c0.5-0.1,1-0.2,1.3-0.3v2.5c-0.4,0.2-0.9,0.3-1.6,0.4
			c-0.7,0.1-1.3,0.2-1.8,0.2c-4.1,0-6.2-2.2-6.2-6.5v-12.7h-3.1v-1.6l3.1-1.3l1.4-4.6h1.9v5h6.2v2.5h-6.2v12.6c0,1.3,0.3,2.3,0.9,3
			C319.5,774.3,320.3,774.7,321.4,774.7z"/>
		<path fill="#3E4F5B" d="M346.9,766.2c0,3.5-0.9,6.2-2.6,8.2c-1.8,2-4.2,2.9-7.3,2.9c-1.9,0-3.6-0.4-5.1-1.3s-2.6-2.2-3.4-3.9
			s-1.2-3.6-1.2-5.9c0-3.5,0.9-6.2,2.6-8.2c1.7-1.9,4.2-2.9,7.3-2.9c3,0,5.4,1,7.1,3S346.9,762.8,346.9,766.2z M330.6,766.2
			c0,2.7,0.5,4.8,1.6,6.2c1.1,1.4,2.7,2.1,4.8,2.1s3.7-0.7,4.8-2.1s1.7-3.5,1.7-6.3c0-2.7-0.5-4.8-1.7-6.2c-1.1-1.4-2.7-2.1-4.9-2.1
			c-2.1,0-3.7,0.7-4.8,2.1C331.1,761.4,330.6,763.5,330.6,766.2z"/>
		<path fill="#3E4F5B" d="M379.6,776.9V763c0-1.7-0.4-3-1.1-3.8c-0.7-0.9-1.9-1.3-3.4-1.3c-2,0-3.5,0.6-4.5,1.7
			c-1,1.2-1.4,2.9-1.4,5.4v12H366V763c0-1.7-0.4-3-1.1-3.8c-0.7-0.9-1.9-1.3-3.4-1.3c-2,0-3.5,0.6-4.5,1.8c-0.9,1.2-1.4,3.2-1.4,6
			v11.2h-3.2v-21.4h2.6l0.5,2.9h0.2c0.6-1,1.5-1.9,2.6-2.4s2.4-0.9,3.7-0.9c3.3,0,5.5,1.2,6.6,3.6h0.2c0.6-1.1,1.6-2,2.8-2.7
			c1.2-0.7,2.6-1,4.1-1c2.4,0,4.2,0.6,5.4,1.9c1.2,1.2,1.8,3.2,1.8,6v14H379.6z"/>
		<path fill="#3E4F5B" d="M403.2,771.1c0,2-0.7,3.5-2.2,4.6c-1.5,1.1-3.6,1.6-6.2,1.6c-2.8,0-5.1-0.4-6.6-1.3v-3
			c1,0.5,2.1,0.9,3.3,1.2c1.2,0.3,2.3,0.4,3.4,0.4c1.7,0,3-0.3,3.9-0.8c0.9-0.5,1.4-1.4,1.4-2.5c0-0.8-0.4-1.5-1.1-2.1
			c-0.7-0.6-2.1-1.3-4.2-2.1c-2-0.7-3.4-1.4-4.2-1.9c-0.8-0.6-1.5-1.2-1.9-1.9s-0.6-1.5-0.6-2.5c0-1.7,0.7-3.1,2.1-4.1
			c1.4-1,3.4-1.5,5.8-1.5c2.3,0,4.6,0.5,6.8,1.4l-1.2,2.6c-2.1-0.9-4.1-1.3-5.8-1.3c-1.5,0-2.7,0.2-3.5,0.7c-0.8,0.5-1.2,1.1-1.2,2
			c0,0.6,0.1,1.1,0.4,1.5c0.3,0.4,0.8,0.8,1.4,1.2c0.7,0.4,1.9,0.9,3.8,1.6c2.5,0.9,4.3,1.9,5.1,2.8
			C402.7,768.5,403.2,769.7,403.2,771.1z"/>
	</g>
	<g>
		<path fill="#25B4FF" d="M238.2,643.9c0,4.7-1.3,8.3-4,10.8s-6.5,3.8-11.6,3.8h-8.1v-28.6h9c4.7,0,8.3,1.2,10.9,3.7
			S238.2,639.5,238.2,643.9z M231.9,644.1c0-6.1-2.7-9.2-8.1-9.2h-3.2v18.6h2.6C229,653.5,231.9,650.3,231.9,644.1z"/>
		<path fill="#25B4FF" d="M243.9,658.5v-28.6h6.1v28.6H243.9z"/>
		<path fill="#25B4FF" d="M267.8,642.4h11.3v14.8c-1.8,0.6-3.6,1-5.2,1.3c-1.6,0.2-3.3,0.4-5,0.4c-4.3,0-7.6-1.3-9.9-3.8
			s-3.4-6.2-3.4-10.9c0-4.6,1.3-8.2,4-10.8s6.3-3.9,11-3.9c2.9,0,5.8,0.6,8.5,1.8l-2,4.8c-2.1-1-4.3-1.6-6.5-1.6
			c-2.6,0-4.7,0.9-6.3,2.6s-2.4,4.1-2.4,7.1c0,3.1,0.6,5.5,1.9,7.1s3.1,2.5,5.5,2.5c1.3,0,2.5-0.1,3.8-0.4v-6h-5.4V642.4z"/>
		<path fill="#25B4FF" d="M285.7,658.5v-28.6h6.1v28.6H285.7z"/>
		<path fill="#25B4FF" d="M309.7,658.5h-6.1v-23.5h-7.8v-5h21.6v5h-7.8V658.5z"/>
		<path fill="#25B4FF" d="M339.2,658.5l-2.1-6.8h-10.4l-2.1,6.8h-6.5l10.1-28.7h7.4l10.1,28.7H339.2z M335.7,646.6
			c-1.9-6.2-3-9.6-3.2-10.4c-0.2-0.8-0.4-1.4-0.5-1.9c-0.4,1.7-1.7,5.8-3.7,12.4H335.7z"/>
		<path fill="#25B4FF" d="M349.1,658.5v-28.6h6.1v23.6h11.6v5H349.1z"/>
		<path fill="#25B4FF" d="M399.2,658.5l-2.1-6.8h-10.4l-2.1,6.8h-6.5l10.1-28.7h7.4l10.1,28.7H399.2z M395.6,646.6
			c-1.9-6.2-3-9.6-3.2-10.4s-0.4-1.4-0.5-1.9c-0.4,1.7-1.7,5.8-3.7,12.4H395.6z"/>
		<path fill="#25B4FF" d="M419.9,642.4h11.3v14.8c-1.8,0.6-3.6,1-5.2,1.3c-1.6,0.2-3.3,0.4-5,0.4c-4.3,0-7.6-1.3-9.9-3.8
			c-2.3-2.5-3.4-6.2-3.4-10.9c0-4.6,1.3-8.2,4-10.8s6.3-3.9,11-3.9c2.9,0,5.8,0.6,8.5,1.8l-2,4.8c-2.1-1-4.3-1.6-6.5-1.6
			c-2.6,0-4.7,0.9-6.3,2.6c-1.6,1.8-2.4,4.1-2.4,7.1c0,3.1,0.6,5.5,1.9,7.1s3.1,2.5,5.5,2.5c1.3,0,2.5-0.1,3.8-0.4v-6h-5.4V642.4z"
			/>
		<path fill="#25B4FF" d="M454.3,658.5h-16.4v-28.6h16.4v5h-10.4v6.3h9.7v5h-9.7v7.4h10.4V658.5z"/>
	</g>
	
		<line fill="none" stroke="#3A4F5A" stroke-width="2" stroke-linecap="round" stroke-miterlimit="10" x1="166.6" y1="675.2" x2="1018.9" y2="675.2"/>
	<g>
		<circle fill="#5AB0E3" cx="100.9" cy="446" r="46.5"/>
	</g>
	<g>
		<path fill="#3E4F5B" d="M100.9,395.4c27.9,0,50.6,22.6,50.6,50.6s-22.6,50.6-50.6,50.6S50.4,473.9,50.4,446S73,395.4,100.9,395.4
			 M100.9,393.4c-29,0-52.6,23.6-52.6,52.6c0,29,23.6,52.6,52.6,52.6s52.6-23.6,52.6-52.6C153.5,417,129.9,393.4,100.9,393.4
			L100.9,393.4z"/>
	</g>
	<g>
		<circle fill="#5AB0E3" cx="100.9" cy="670.2" r="46.5"/>
	</g>
	<g>
		<path fill="#3E4F5B" d="M100.9,619.6c27.9,0,50.6,22.6,50.6,50.6s-22.6,50.6-50.6,50.6s-50.6-22.6-50.6-50.6S73,619.6,100.9,619.6
			 M100.9,617.6c-29,0-52.6,23.6-52.6,52.6s23.6,52.6,52.6,52.6s52.6-23.6,52.6-52.6S129.9,617.6,100.9,617.6L100.9,617.6z"/>
	</g>
	<g>
		<path fill="#FFFFFF" d="M109.4,432.2H92.5c-1.2,0-2.1,0.9-2.1,2.1v10.6c0,1.2,0.9,2.1,2.1,2.1h2.1v4.2l4.8-4.2h10
			c1.2,0,2.1-0.9,2.1-2.1v-10.6C111.5,433.2,110.6,432.2,109.4,432.2z"/>
		<path fill="#FFFFFF" d="M122.1,421.7H79.8c-2.3,0-4.2,1.9-4.2,4.2v31.7c0,2.3,1.9,4.2,4.2,4.2H84v8.5l9-8.5h29.1
			c2.3,0,4.2-1.9,4.2-4.2v-31.7C126.3,423.6,124.4,421.7,122.1,421.7z M117.8,451.3c0,1.2-0.9,2.1-2.1,2.1h-4.2v5.8l-5.8-5.8H86.1
			c-1.2,0-2.1-0.9-2.1-2.1v-21.2c0-1.2,0.9-2.1,2.1-2.1h29.6c1.2,0,2.1,0.9,2.1,2.1V451.3z"/>
	</g>
	<g>
		<path fill="#FFFFFF" d="M99.4,137.1c-2.8,1.1-7.4,4.9-12.1,9.2c4.2,2.7,8.7,5.4,13.6,8.1c104.4-56.3,42.1-134.4,0-97.1
			c-35.2-31.2-84.7,18.4-38.5,68.5l7-7c1.5-1.5,2.3-3.7,2-5.8c-1-8.3,9.1-32.3,10.7-43.2l0-0.1l0-0.1c0.6-2.2,1.6-2.9,2-3.2
			c1.9-0.8,4.9,2.5,5.4,3.8l0.1,0.2c1.3,3.6-0.6,9.2-0.8,14.6c-0.1,3.4,2.5,5.1,4.5,3.2L116.7,65c1.7-1.7,4.6-1.7,6.3,0
			c1.5,1.5,1.8,3.9,0.6,5.9c-0.1,0.1,0.5-0.5-20.8,20.9l0.9,0.9l26-26c1.9-1.9,5-1.9,6.9,0c1.9,1.9,1.9,5,0,6.9
			c-2.8,2.8-22.1,22.1-25.1,25.1l-0.9,0.9l0.9,0.9c2.7-2.7-1,1,6-6l17.1-17.1c1.9-1.9,5-1.9,6.9,0c1.9,1.9,1.9,5,0,6.9l-7.4,7.4
			c-3.3,3.3-12.4,12.4-15.7,15.7l0.9,0.9c5.7-5.7,9.9-9.9,16-16c3.2-3.2,8.6,0.8,6.2,5.1C141.2,97.5,111.3,132.3,99.4,137.1z"/>
	</g>
	<g>
		<polygon fill="#FFFFFF" points="95.9,660.9 95.9,674.7 98.8,669.8 103.3,677.6 105.9,675.9 101.6,668.4 107.2,668.4 		"/>
		<path fill="#FFFFFF" d="M121,649.6H80.9c-2.8,0-5,2.2-5,5v32.6H126v-32.6C126,651.9,123.7,649.6,121,649.6z M121,680.9
			c0,0.7-0.6,1.3-1.3,1.3H82.1c-0.7,0-1.3-0.6-1.3-1.3v-25.1c0-0.7,0.6-1.3,1.3-1.3h37.6c0.7,0,1.3,0.6,1.3,1.3V680.9z"/>
		<path fill="#FFFFFF" d="M105.9,689.7v1.3c0,0.7-0.6,1.3-1.3,1.3h-7.5c-0.7,0-1.3-0.6-1.3-1.3v-1.3H70.8c0,0,0,1.1,0,2.5
			s1.1,2.5,2.5,2.5h55.1c1.4,0,2.5-1.1,2.5-2.5s0-2.5,0-2.5H105.9z M124.7,693.8c-0.9,0-1.6-0.7-1.6-1.6s0.7-1.6,1.6-1.6
			s1.6,0.7,1.6,1.6S125.6,693.8,124.7,693.8z"/>
	</g>
	<g>
		<path fill="#FFFFFF" d="M239,105.6c0,3.5-1.3,6.3-3.8,8.4c-2.6,2-6.1,3.1-10.6,3.1c-4.2,0-7.9-0.8-11.1-2.4v-7.7
			c2.6,1.2,4.9,2,6.7,2.5c1.8,0.5,3.5,0.7,5,0.7c1.8,0,3.2-0.3,4.2-1c1-0.7,1.5-1.7,1.5-3.1c0-0.8-0.2-1.5-0.6-2.1
			c-0.4-0.6-1.1-1.2-1.9-1.7c-0.8-0.6-2.5-1.4-5.1-2.7c-2.4-1.1-4.2-2.2-5.4-3.2s-2.2-2.2-2.9-3.6c-0.7-1.4-1.1-3-1.1-4.8
			c0-3.5,1.2-6.2,3.5-8.2c2.4-2,5.6-3,9.8-3c2,0,4,0.2,5.8,0.7c1.9,0.5,3.8,1.2,5.8,2l-2.7,6.5c-2.1-0.9-3.8-1.5-5.2-1.8
			c-1.4-0.3-2.7-0.5-4-0.5c-1.6,0-2.8,0.4-3.6,1.1c-0.8,0.7-1.3,1.7-1.3,2.9c0,0.7,0.2,1.4,0.5,1.9c0.3,0.5,0.9,1.1,1.6,1.6
			c0.7,0.5,2.5,1.4,5.3,2.8c3.7,1.8,6.2,3.5,7.5,5.3C238.3,100.9,239,103,239,105.6z"/>
		<path fill="#FFFFFF" d="M258.1,93.4l8.2-16.2h9l-13,24v15.3h-8.3v-15l-13-24.2h9L258.1,93.4z"/>
		<path fill="#FFFFFF" d="M296.5,116.5l-9.5-30.8h-0.2c0.3,6.3,0.5,10.4,0.5,12.5v18.3h-7.4V77.2h11.3l9.3,30h0.2l9.9-30h11.3v39.3
			h-7.8V97.9c0-0.9,0-1.9,0-3c0-1.1,0.1-4.2,0.4-9.1h-0.2l-10.1,30.8H296.5z"/>
		<path fill="#FFFFFF" d="M358.6,89.5c0,4.2-1.3,7.5-4,9.7c-2.6,2.2-6.4,3.4-11.3,3.4h-3.6v14h-8.3V77.2H344c4.8,0,8.4,1,10.9,3.1
			C357.3,82.4,358.6,85.4,358.6,89.5z M339.8,95.7h2.7c2.6,0,4.5-0.5,5.7-1.5s1.9-2.5,1.9-4.4c0-2-0.5-3.4-1.6-4.3s-2.7-1.4-5-1.4
			h-3.8V95.7z"/>
		<path fill="#FFFFFF" d="M380.9,116.5h-8.3V84.2h-10.7v-6.9h29.6v6.9h-10.7V116.5z"/>
		<path fill="#FFFFFF" d="M432.9,96.8c0,6.5-1.6,11.5-4.8,15s-7.8,5.2-13.9,5.2s-10.6-1.7-13.9-5.2s-4.8-8.5-4.8-15
			c0-6.5,1.6-11.5,4.8-15s7.9-5.2,13.9-5.2c6,0,10.6,1.7,13.8,5.2C431.3,85.3,432.9,90.3,432.9,96.8z M404.3,96.8
			c0,4.4,0.8,7.7,2.5,9.9c1.7,2.2,4.2,3.3,7.5,3.3c6.6,0,10-4.4,10-13.2c0-8.8-3.3-13.3-9.9-13.3c-3.3,0-5.8,1.1-7.5,3.3
			C405.1,89.1,404.3,92.4,404.3,96.8z"/>
		<path fill="#FFFFFF" d="M457.4,116.5L448,85.7h-0.2c0.3,6.3,0.5,10.4,0.5,12.5v18.3h-7.4V77.2h11.3l9.3,30h0.2l9.9-30h11.3v39.3
			H475V97.9c0-0.9,0-1.9,0-3c0-1.1,0.1-4.2,0.4-9.1h-0.2l-10.1,30.8H457.4z"/>
		<path fill="#FFFFFF" d="M515.6,105.6c0,3.5-1.3,6.3-3.8,8.4c-2.6,2-6.1,3.1-10.6,3.1c-4.2,0-7.9-0.8-11.1-2.4v-7.7
			c2.6,1.2,4.9,2,6.7,2.5c1.8,0.5,3.5,0.7,5,0.7c1.8,0,3.2-0.3,4.2-1c1-0.7,1.5-1.7,1.5-3.1c0-0.8-0.2-1.5-0.6-2.1
			c-0.4-0.6-1.1-1.2-1.9-1.7c-0.8-0.6-2.5-1.4-5.1-2.7c-2.4-1.1-4.2-2.2-5.4-3.2s-2.2-2.2-2.9-3.6c-0.7-1.4-1.1-3-1.1-4.8
			c0-3.5,1.2-6.2,3.5-8.2c2.4-2,5.6-3,9.8-3c2,0,4,0.2,5.8,0.7c1.9,0.5,3.8,1.2,5.8,2l-2.7,6.5c-2.1-0.9-3.8-1.5-5.2-1.8
			c-1.4-0.3-2.7-0.5-4-0.5c-1.6,0-2.8,0.4-3.6,1.1c-0.8,0.7-1.3,1.7-1.3,2.9c0,0.7,0.2,1.4,0.5,1.9c0.3,0.5,0.9,1.1,1.6,1.6
			c0.7,0.5,2.5,1.4,5.3,2.8c3.7,1.8,6.2,3.5,7.5,5.3C514.9,100.9,515.6,103,515.6,105.6z"/>
		<path fill="#FFFFFF" d="M560.5,116.5l-2.8-9.3h-14.3l-2.8,9.3h-9l13.9-39.4h10.2l13.9,39.4H560.5z M555.6,100.2
			c-2.6-8.5-4.1-13.3-4.4-14.4c-0.3-1.1-0.6-2-0.7-2.6c-0.6,2.3-2.3,8-5.1,17H555.6z"/>
		<path fill="#FFFFFF" d="M608.9,116.5h-10.6l-17.1-29.7H581c0.3,5.2,0.5,9,0.5,11.2v18.5h-7.4V77.2h10.5l17.1,29.4h0.2
			c-0.3-5.1-0.4-8.7-0.4-10.8V77.2h7.5V116.5z"/>
		<path fill="#FFFFFF" d="M651.1,96.5c0,6.5-1.8,11.4-5.5,14.9c-3.7,3.4-9,5.2-15.9,5.2h-11.1V77.2h12.3c6.4,0,11.4,1.7,14.9,5.1
			S651.1,90.4,651.1,96.5z M642.5,96.7c0-8.4-3.7-12.6-11.2-12.6h-4.4v25.6h3.6C638.4,109.6,642.5,105.3,642.5,96.7z"/>
		<path fill="#FFFFFF" d="M697,116.5l-2.8-9.3h-14.3l-2.8,9.3h-9l13.9-39.4h10.2l13.9,39.4H697z M692.2,100.2
			c-2.6-8.5-4.1-13.3-4.4-14.4c-0.3-1.1-0.6-2-0.7-2.6c-0.6,2.3-2.3,8-5.1,17H692.2z"/>
		<path fill="#FFFFFF" d="M748.9,116.5h-9.5l-5.3-20.6c-0.2-0.7-0.5-2.3-1-4.6c-0.5-2.3-0.7-3.8-0.8-4.6c-0.1,1-0.4,2.5-0.8,4.7
			s-0.8,3.7-1,4.6l-5.3,20.6h-9.5l-10-39.3h8.2l5,21.4c0.9,4,1.5,7.4,1.9,10.3c0.1-1,0.4-2.6,0.7-4.7c0.4-2.1,0.7-3.8,1.1-5l5.7-22
			h7.9l5.7,22c0.3,1,0.6,2.5,0.9,4.5c0.4,2,0.7,3.8,0.9,5.2c0.2-1.4,0.5-3.1,0.9-5.2c0.4-2.1,0.8-3.8,1.1-5.1l5-21.4h8.2
			L748.9,116.5z"/>
		<path fill="#FFFFFF" d="M787.6,116.5l-2.8-9.3h-14.3l-2.8,9.3h-9l13.9-39.4h10.2l13.9,39.4H787.6z M782.7,100.2
			c-2.6-8.5-4.1-13.3-4.4-14.4c-0.3-1.1-0.6-2-0.7-2.6c-0.6,2.3-2.3,8-5.1,17H782.7z"/>
		<path fill="#FFFFFF" d="M809.5,101.4v15.1h-8.3V77.2h11.4c5.3,0,9.3,1,11.8,2.9c2.6,1.9,3.8,4.9,3.8,8.8c0,2.3-0.6,4.4-1.9,6.2
			c-1.3,1.8-3.1,3.2-5.4,4.2c5.9,8.8,9.8,14.5,11.5,17.1h-9.2l-9.4-15.1H809.5z M809.5,94.7h2.7c2.6,0,4.6-0.4,5.8-1.3
			c1.3-0.9,1.9-2.3,1.9-4.1c0-1.9-0.6-3.2-1.9-4s-3.3-1.2-5.9-1.2h-2.5V94.7z"/>
		<path fill="#FFFFFF" d="M859.9,116.5h-22.6V77.2h22.6v6.8h-14.3v8.6h13.3v6.8h-13.3v10.1h14.3V116.5z"/>
		<path fill="#FFFFFF" d="M902.6,116.5H892L875,86.8h-0.2c0.3,5.2,0.5,9,0.5,11.2v18.5h-7.4V77.2h10.5l17.1,29.4h0.2
			c-0.3-5.1-0.4-8.7-0.4-10.8V77.2h7.5V116.5z"/>
		<path fill="#FFFFFF" d="M934.8,116.5h-22.6V77.2h22.6v6.8h-14.3v8.6h13.3v6.8h-13.3v10.1h14.3V116.5z"/>
		<path fill="#FFFFFF" d="M965.9,105.6c0,3.5-1.3,6.3-3.8,8.4c-2.6,2-6.1,3.1-10.6,3.1c-4.2,0-7.9-0.8-11.1-2.4v-7.7
			c2.6,1.2,4.9,2,6.7,2.5c1.8,0.5,3.5,0.7,5,0.7c1.8,0,3.2-0.3,4.2-1c1-0.7,1.5-1.7,1.5-3.1c0-0.8-0.2-1.5-0.6-2.1
			c-0.4-0.6-1.1-1.2-1.9-1.7c-0.8-0.6-2.5-1.4-5.1-2.7c-2.4-1.1-4.2-2.2-5.4-3.2s-2.2-2.2-2.9-3.6c-0.7-1.4-1.1-3-1.1-4.8
			c0-3.5,1.2-6.2,3.5-8.2c2.4-2,5.6-3,9.8-3c2,0,4,0.2,5.8,0.7c1.9,0.5,3.8,1.2,5.8,2l-2.7,6.5c-2.1-0.9-3.8-1.5-5.2-1.8
			c-1.4-0.3-2.7-0.5-4-0.5c-1.6,0-2.8,0.4-3.6,1.1c-0.8,0.7-1.3,1.7-1.3,2.9c0,0.7,0.2,1.4,0.5,1.9c0.3,0.5,0.9,1.1,1.6,1.6
			c0.7,0.5,2.5,1.4,5.3,2.8c3.7,1.8,6.2,3.5,7.5,5.3C965.2,100.9,965.9,103,965.9,105.6z"/>
		<path fill="#FFFFFF" d="M995.9,105.6c0,3.5-1.3,6.3-3.8,8.4c-2.6,2-6.1,3.1-10.6,3.1c-4.2,0-7.9-0.8-11.1-2.4v-7.7
			c2.6,1.2,4.9,2,6.7,2.5c1.8,0.5,3.5,0.7,5,0.7c1.8,0,3.2-0.3,4.2-1c1-0.7,1.5-1.7,1.5-3.1c0-0.8-0.2-1.5-0.6-2.1
			c-0.4-0.6-1.1-1.2-1.9-1.7c-0.8-0.6-2.5-1.4-5.1-2.7c-2.4-1.1-4.2-2.2-5.4-3.2s-2.2-2.2-2.9-3.6c-0.7-1.4-1.1-3-1.1-4.8
			c0-3.5,1.2-6.2,3.5-8.2c2.4-2,5.6-3,9.8-3c2,0,4,0.2,5.8,0.7c1.9,0.5,3.8,1.2,5.8,2l-2.7,6.5c-2.1-0.9-3.8-1.5-5.2-1.8
			c-1.4-0.3-2.7-0.5-4-0.5c-1.6,0-2.8,0.4-3.6,1.1c-0.8,0.7-1.3,1.7-1.3,2.9c0,0.7,0.2,1.4,0.5,1.9c0.3,0.5,0.9,1.1,1.6,1.6
			c0.7,0.5,2.5,1.4,5.3,2.8c3.7,1.8,6.2,3.5,7.5,5.3C995.3,100.9,995.9,103,995.9,105.6z"/>
	</g>
</g>
</svg>
