<?xml version="1.0" encoding="utf-8"?>
<!-- Generator: Adobe Illustrator 19.1.0, SVG Export Plug-In . SVG Version: 6.00 Build 0)  -->
<svg version="1.1" xmlns="http://www.w3.org/2000/svg" xmlns:xlink="http://www.w3.org/1999/xlink" x="0px" y="0px"
	 viewBox="0 0 1152 280.9" enable-background="new 0 0 1152 280.9" xml:space="preserve">
<g id="Workings" display="none">
	<g display="inline">
		<g>
			<g>
				<path fill="#1D1D1B" d="M2274.2-1289.4c8.7,0,15,6.6,15,15.3s-6.6,15.3-15,15.3c-8.4,0-15-6.6-15-15.3
					S2265.5-1289.4,2274.2-1289.4z M2274.2-1262c6.6,0,11.6-5,11.6-12.1c0-6.8-5-12.1-11.6-12.1s-11.6,5.3-11.6,12.1
					C2262.6-1267,2267.6-1262,2274.2-1262z"/>
				<path fill="#1D1D1B" d="M2311.3-1273.1v13.7h-3.4v-13.7c0-3.4-2.1-5.5-5.3-5.5c-3.4,0-5.8,2.4-5.8,6.1v13.4h-3.4v-21.9h3.2v3.2
					c1.1-2.1,3.4-3.7,6.6-3.7C2308.7-1281.8,2311.3-1277.8,2311.3-1273.1z"/>
				<path fill="#1D1D1B" d="M2316.8-1289.7h3.4v30.6h-3.4V-1289.7z"/>
				<path fill="#1D1D1B" d="M2328.9-1251.8l3.2-7.6l-9-21.6h3.7l6.8,17.6l6.8-17.6h3.4l-11.9,29.5h-3.2V-1251.8z"/>
				<path fill="#1D1D1B" d="M2356.9-1286.8l5-2.1h2.9v29.5h-3.4v-26.1l-3.4,1.3L2356.9-1286.8z"/>
				<path fill="#1D1D1B" d="M2383.5-1289.2c1.3,0,2.4,1.1,2.4,2.4c0,1.3-1.1,2.4-2.4,2.4c-1.3,0-2.4-1.1-2.4-2.4
					C2381.1-1288.1,2382.1-1289.2,2383.5-1289.2z M2381.9-1281.3h3.4v21.9h-3.4V-1281.3z"/>
				<path fill="#1D1D1B" d="M2408.2-1273.1v13.7h-3.2v-13.7c0-3.4-2.1-5.5-5.3-5.5c-3.4,0-5.8,2.4-5.8,6.1v13.4h-3.4v-21.9h3.2v3.2
					c1.1-2.1,3.4-3.7,6.6-3.7C2405.8-1281.8,2408.2-1277.8,2408.2-1273.1z"/>
				<path fill="#1D1D1B" d="M2438.5-1268.4c0-3.7-2.4-6.6-6.3-6.6c-2.4,0-3.7,1.1-5,1.8l-2.9-0.5l0.5-15.3h15v3.2H2428l-0.5,9.2
					c1.3-0.8,2.9-1.3,5-1.3c5.5,0,9.2,4,9.2,9.5c0,5.5-3.7,10-9.2,10c-5.8,0-8.4-3.4-9.2-6.3l2.9-1.1c0.8,2.4,2.6,4.2,6.3,4.2
					C2436.4-1261.8,2438.5-1264.9,2438.5-1268.4z"/>
				<path fill="#1D1D1B" d="M2457.7-1288.9h6.1c10,0,15.8,5.5,15.8,14.7c0,9.7-6.1,14.7-15.8,14.7h-6.1V-1288.9z M2464.6-1262.3
					c7.1,0,11.6-4,11.6-11.9c0-7.4-4.5-11.6-11.6-11.6h-3.4v23.4H2464.6z"/>
				<path fill="#1D1D1B" d="M2494.1-1281.8c6.6,0,11.3,5,11.3,11.6s-5,11.6-11.6,11.6s-11.3-4.7-11.3-11.6
					C2482.7-1276.8,2487.7-1281.8,2494.1-1281.8z M2494.1-1261.8c4.7,0,8.2-3.7,8.2-8.4s-3.4-8.4-8.2-8.4c-4.7,0-7.9,3.7-7.9,8.4
					C2486.2-1265.2,2489.3-1261.8,2494.1-1261.8z"/>
				<path fill="#1D1D1B" d="M2526.2-1276c-0.8-1.1-3.2-2.9-6.6-2.9c-4.5,0-7.9,3.7-7.9,8.4c0,4.7,3.4,8.4,7.9,8.4
					c3.4,0,5.5-2.1,6.6-2.9l1.1,2.9c-0.8,1.1-3.7,3.2-7.6,3.2c-6.6,0-11.3-5-11.3-11.6s4.7-11.6,11.3-11.6c4,0,6.6,1.8,7.6,2.9
					L2526.2-1276z"/>
				<path fill="#1D1D1B" d="M2531.7-1285.7h3.4v4.5h4.7v2.9h-4.7v11.3c0,4.2,1.1,5,4,5c0.5,0,1.1,0,1.1,0v2.9c0,0-0.8,0-2.1,0
					c-4.5,0-6.3-2.9-6.3-7.9v-11.6h-2.6v-2.9h2.6V-1285.7z"/>
				<path fill="#1D1D1B" d="M2553.8-1281.8c6.6,0,11.3,5,11.3,11.6s-5,11.6-11.6,11.6s-11.3-4.7-11.3-11.6
					C2542.3-1276.8,2547.3-1281.8,2553.8-1281.8z M2553.8-1261.8c4.7,0,8.2-3.7,8.2-8.4s-3.4-8.4-8.2-8.4c-4.7,0-7.9,3.7-7.9,8.4
					C2545.7-1265.2,2549.1-1261.8,2553.8-1261.8z"/>
				<path fill="#1D1D1B" d="M2579.4-1278.4c-5,0-6.6,4-6.6,8.7v10.5h-3.4v-21.9h3.2v3.7c0.8-2.1,3.2-4.2,6.6-4.2v3.2H2579.4z"/>
				<path fill="#1D1D1B" d="M2583.6-1264.9c1.1,1.8,2.4,3.4,5.5,3.4c2.1,0,4-1.3,4-3.4c0-5-11.1-3.4-11.1-10.8
					c0-3.7,3.2-6.1,7.1-6.1c4.2,0,6.3,2.6,6.8,4.2l-2.4,1.3c-0.5-1.1-1.8-2.9-4.5-2.9c-2.1,0-3.7,1.1-3.7,3.2
					c0,5,11.1,3.2,11.1,10.8c0,4-3.2,6.6-7.4,6.6c-4.5,0-6.6-2.6-7.6-4.7L2583.6-1264.9z"/>
				<path fill="#1D1D1B" d="M2611.5-1285.7h3.4v4.5h4.7v2.9h-4.7v11.3c0,4.2,1.1,5,4,5c0.5,0,1.1,0,1.1,0v2.9c0,0-0.8,0-2.1,0
					c-4.5,0-6.3-2.9-6.3-7.9v-11.6h-2.6v-2.9h2.6V-1285.7z"/>
				<path fill="#1D1D1B" d="M2641.3-1273.1v13.7h-3.4v-13.7c0-3.4-2.1-5.5-5.3-5.5c-3.4,0-5.8,2.4-5.8,6.1v13.4h-3.2v-30.6h3.4v11.9
					c1.1-2.1,3.4-3.7,6.6-3.7C2638.7-1281.8,2641.3-1277.8,2641.3-1273.1z"/>
				<path fill="#1D1D1B" d="M2648.4-1289.2c1.3,0,2.4,1.1,2.4,2.4c0,1.3-1.1,2.4-2.4,2.4s-2.4-1.1-2.4-2.4
					C2646.3-1288.1,2647.1-1289.2,2648.4-1289.2z M2646.8-1281.3h3.4v21.9h-3.4V-1281.3z"/>
				<path fill="#1D1D1B" d="M2673.4-1273.1v13.7h-3.4v-13.7c0-3.4-2.1-5.5-5.3-5.5c-3.4,0-5.8,2.4-5.8,6.1v13.4h-3.4v-21.9h3.2v3.2
					c1.1-2.1,3.4-3.7,6.6-3.7C2670.8-1281.8,2673.4-1277.8,2673.4-1273.1z"/>
				<path fill="#1D1D1B" d="M2678.9-1289.7h3.4v17.9l9-9.5h4.2l-9.5,9.7l10,12.1h-4.2l-9.5-11.6v11.6h-3.4V-1289.7z"/>
				<path fill="#1D1D1B" d="M2277.8-1214.1v13.7h-3.4v-13.7c0-3.4-2.1-5.5-5.3-5.5c-3.4,0-5.8,2.4-5.8,6.1v13.4h-3.4v-30.6h3.4v11.9
					c1.1-2.1,3.4-3.7,6.6-3.7C2275.2-1222.8,2277.8-1218.8,2277.8-1214.1z"/>
				<path fill="#1D1D1B" d="M2292.6-1222.8c6.3,0,10.5,4.7,10.5,11.3c0,0,0,0.5,0,1.1h-17.6c0,5,3.4,7.9,7.9,7.9
					c3.7,0,5.8-1.8,6.8-3.4l2.1,1.6c-1.3,2.1-4.2,4.7-9,4.7c-6.6,0-11.3-4.7-11.3-11.3C2282.1-1218.1,2286.8-1222.8,2292.6-1222.8z
					 M2299.7-1213.1c-0.3-4.5-3.4-6.8-7.1-6.8c-3.7,0-6.8,2.6-7.1,6.8H2299.7z"/>
				<path fill="#1D1D1B" d="M2314.2-1214.4c2.9,0,5,1.1,5.8,2.1v-2.6c0-3.2-2.1-4.7-5.3-4.7c-2.6,0-5,1.1-6.3,1.8l-1.3-2.4
					c1.6-1.1,4.5-2.4,8.2-2.4c6.1,0,8.4,3.4,8.4,7.9v14.5h-2.9l-0.3-1.8c-1.1,1.3-2.9,2.4-6.1,2.4c-4.7,0-8.4-3.2-8.4-7.4
					C2305.8-1211.2,2309.2-1214.4,2314.2-1214.4z M2314.7-1202.5c3.2,0,5.5-1.8,5.5-4.5s-2.1-4.5-5.5-4.5s-5.5,1.8-5.5,4.5
					C2309.2-1204.6,2311.3-1202.5,2314.7-1202.5z"/>
				<path fill="#1D1D1B" d="M2328.7-1230.7h3.4v30.6h-3.4V-1230.7z"/>
				<path fill="#1D1D1B" d="M2338.2-1226.7h3.4v4.5h4.7v2.9h-4.7v11.3c0,4.2,1.1,5,4,5c0.5,0,1.1,0,1.1,0v2.9c0,0-0.8,0-2.1,0
					c-4.5,0-6.3-2.9-6.3-7.9v-11.6h-2.6v-2.9h2.6V-1226.7z"/>
				<path fill="#1D1D1B" d="M2367.9-1214.1v13.7h-3.4v-13.7c0-3.4-2.1-5.5-5.3-5.5c-3.4,0-5.8,2.4-5.8,6.1v13.4h-3.4v-30.6h3.4v11.9
					c1.1-2.1,3.4-3.7,6.6-3.7C2365-1222.8,2367.9-1218.8,2367.9-1214.1z"/>
				<path fill="#1D1D1B" d="M2391.1-1214.4c2.9,0,5,1.1,5.8,2.1v-2.6c0-3.2-2.1-4.7-5.3-4.7c-2.6,0-5,1.1-6.3,1.8l-1.3-2.4
					c1.6-1.1,4.5-2.4,8.2-2.4c6.1,0,8.4,3.4,8.4,7.9v14.5h-3.4l-0.3-1.8c-1.1,1.3-2.9,2.4-6.1,2.4c-4.7,0-8.4-3.2-8.4-7.4
					C2382.7-1211.2,2386.1-1214.4,2391.1-1214.4z M2391.4-1202.5c3.2,0,5.5-1.8,5.5-4.5s-2.1-4.5-5.5-4.5s-5.5,1.8-5.5,4.5
					C2386.1-1204.6,2388.2-1202.5,2391.4-1202.5z"/>
				<path fill="#1D1D1B" d="M2423-1214.1v13.7h-3.4v-13.7c0-3.4-2.1-5.5-5.3-5.5c-3.4,0-5.8,2.4-5.8,6.1v13.4h-3.4v-21.9h3.2v3.2
					c1.1-2.1,3.4-3.7,6.6-3.7C2420.3-1222.8,2423-1218.8,2423-1214.1z"/>
				<path fill="#1D1D1B" d="M2448.8-1200.4h-3.2v-3.4c-0.5,0.8-2.9,4-7.6,4c-6.3,0-10.8-4.7-10.8-11.6c0-6.8,4.2-11.6,10.5-11.6
					c4.5,0,7.1,2.9,7.6,4.2v-12.1h3.4V-1200.4L2448.8-1200.4z M2438-1219.6c-4.2,0-7.4,3.4-7.4,8.4c0,5,3.2,8.4,7.4,8.4
					c4.5,0,7.4-4,7.4-8.4C2445.3-1216.5,2441.9-1219.6,2438-1219.6z"/>
				<path fill="#1D1D1B" d="M2465.1-1230.7h3.4v30.6h-3.4V-1230.7z"/>
				<path fill="#1D1D1B" d="M2475.9-1230.2c1.3,0,2.4,1.1,2.4,2.4c0,1.3-1.1,2.4-2.4,2.4s-2.4-1.1-2.4-2.4
					C2473.5-1229.1,2474.6-1230.2,2475.9-1230.2z M2474-1222.3h3.4v21.9h-3.4V-1222.3z"/>
				<path fill="#1D1D1B" d="M2483.8-1219.4h-2.4v-2.9h2.4v-1.1c0-5.5,3.4-7.4,6.8-7.4c0.8,0,1.3,0,1.3,0v2.9c0,0-0.5,0-1.1,0
					c-2.4,0-4,1.3-4,4.5v1.1h4.7v2.9h-4.7v19.2h-3.4v-19.2H2483.8z"/>
				<path fill="#1D1D1B" d="M2504.3-1222.8c6.3,0,10.5,4.7,10.5,11.3c0,0,0,0.5,0,1.1h-17.6c0,5,3.4,7.9,7.9,7.9
					c3.7,0,5.8-1.8,6.8-3.4l2.1,1.6c-1.3,2.1-4.2,4.7-9,4.7c-6.6,0-11.3-4.7-11.3-11.3C2493.8-1218.1,2498.5-1222.8,2504.3-1222.8z
					 M2511.4-1213.1c-0.3-4.5-3.4-6.8-7.1-6.8s-6.8,2.6-7.1,6.8H2511.4z"/>
				<path fill="#1D1D1B" d="M2519.6-1205.9c1.1,1.8,2.4,3.4,5.5,3.4c2.1,0,4-1.3,4-3.4c0-5-11.1-3.4-11.1-10.8
					c0-3.7,3.2-6.1,7.1-6.1c4.2,0,6.3,2.6,6.8,4.2l-2.4,1.3c-0.5-1.1-1.8-2.9-4.5-2.9c-2.1,0-3.7,1.1-3.7,3.2
					c0,5,11.1,3.2,11.1,10.8c0,4-3.2,6.6-7.4,6.6c-4.5,0-6.6-2.6-7.6-4.7L2519.6-1205.9z"/>
				<path fill="#1D1D1B" d="M2536.7-1226.7h3.4v4.5h4.7v2.9h-4.7v11.3c0,4.2,1.1,5,4,5c0.5,0,1.1,0,1.1,0v2.9c0,0-0.8,0-2.1,0
					c-4.5,0-6.3-2.9-6.3-7.9v-11.6h-2.6v-2.9h2.6V-1226.7z"/>
				<path fill="#1D1D1B" d="M2553.3-1192.8l3.2-7.6l-9-21.6h3.7l6.8,17.6l6.8-17.6h3.4l-11.9,29.5h-3.2V-1192.8z"/>
				<path fill="#1D1D1B" d="M2571.8-1230.7h3.4v30.6h-3.4V-1230.7z"/>
				<path fill="#1D1D1B" d="M2589.9-1222.8c6.3,0,10.5,4.7,10.5,11.3c0,0,0,0.5,0,1.1h-17.6c0,5,3.4,7.9,7.9,7.9
					c3.7,0,5.8-1.8,6.8-3.4l2.1,1.6c-1.3,2.1-4.2,4.7-9,4.7c-6.6,0-11.3-4.7-11.3-11.3C2579.4-1218.1,2584.1-1222.8,2589.9-1222.8z
					 M2596.8-1213.1c-0.3-4.5-3.4-6.8-7.1-6.8c-3.7,0-6.8,2.6-7.1,6.8H2596.8z"/>
				<path fill="#1D1D1B" d="M2622.3-1214.4c2.9,0,5,1.1,5.8,2.1v-2.6c0-3.2-2.1-4.7-5.3-4.7c-2.6,0-5,1.1-6.3,1.8l-1.3-2.4
					c1.6-1.1,4.5-2.4,8.2-2.4c6.1,0,8.4,3.4,8.4,7.9v14.5h-2.9l-0.3-1.8c-1.1,1.3-2.9,2.4-6.1,2.4c-4.7,0-8.4-3.2-8.4-7.4
					C2613.9-1211.2,2617.3-1214.4,2622.3-1214.4z M2622.6-1202.5c3.2,0,5.5-1.8,5.5-4.5s-2.1-4.5-5.5-4.5s-5.5,1.8-5.5,4.5
					C2617.1-1204.6,2619.4-1202.5,2622.6-1202.5z"/>
				<path fill="#1D1D1B" d="M2636.8-1222.3h3.2v3.4c0.5-0.8,2.9-4,7.6-4c6.3,0,10.8,4.7,10.8,11.6c0,6.8-4.2,11.6-10.5,11.6
					c-4.5,0-7.1-2.9-7.6-4.2v11.3h-3.4V-1222.3z M2647.3-1202.8c4.2,0,7.4-3.4,7.4-8.4c0-5.3-3.2-8.4-7.4-8.4c-4.5,0-7.4,4-7.4,8.4
					C2640-1205.9,2643.4-1202.8,2647.3-1202.8z"/>
				<path fill="#1D1D1B" d="M2662.6-1222.3h3.2v3.4c0.5-0.8,2.9-4,7.6-4c6.3,0,10.8,4.7,10.8,11.6c0,6.8-4.2,11.6-10.5,11.6
					c-4.5,0-7.1-2.9-7.6-4.2v11.3h-3.4V-1222.3L2662.6-1222.3z M2673.2-1202.8c4.2,0,7.4-3.4,7.4-8.4c0-5.3-3.2-8.4-7.4-8.4
					c-4.5,0-7.4,4-7.4,8.4C2665.8-1205.9,2669.2-1202.8,2673.2-1202.8z"/>
				<path fill="#1D1D1B" d="M2689-1205.9c1.1,1.8,2.4,3.4,5.5,3.4c2.1,0,4-1.3,4-3.4c0-5-11.1-3.4-11.1-10.8c0-3.7,3.2-6.1,7.1-6.1
					c4.2,0,6.3,2.6,6.8,4.2l-2.4,1.3c-0.5-1.1-1.8-2.9-4.5-2.9c-2.1,0-3.7,1.1-3.7,3.2c0,5,11.1,3.2,11.1,10.8c0,4-3.2,6.6-7.4,6.6
					c-4.5,0-6.6-2.6-7.6-4.7L2689-1205.9z"/>
				<path fill="#1D1D1B" d="M2267.3-1155.4c2.9,0,5,1.1,5.8,2.1v-2.6c0-3.2-2.1-4.7-5.3-4.7c-2.6,0-5,1.1-6.3,1.8l-1.3-2.4
					c1.6-1.1,4.5-2.4,8.2-2.4c6.1,0,8.4,3.4,8.4,7.9v14.5h-2.9l-0.3-1.8c-1.1,1.3-2.9,2.4-6.1,2.4c-4.7,0-8.4-3.2-8.4-7.4
					C2258.9-1152.2,2262.3-1155.4,2267.3-1155.4z M2267.8-1143.5c3.2,0,5.5-1.8,5.5-4.5s-2.1-4.5-5.5-4.5s-5.5,1.8-5.5,4.5
					C2262.3-1145.6,2264.4-1143.5,2267.8-1143.5z"/>
				<path fill="#1D1D1B" d="M2291.5-1160.4c-5,0-6.6,4-6.6,8.7v10.5h-3.4v-22.1h3.2v3.7c0.8-2.1,3.2-4.2,6.6-4.2v3.4H2291.5z"/>
				<path fill="#1D1D1B" d="M2303.6-1163.8c6.3,0,10.5,4.7,10.5,11.3c0,0,0,0.5,0,1.1h-17.6c0,5,3.4,7.9,7.9,7.9
					c3.7,0,5.8-1.8,6.8-3.4l2.1,1.6c-1.3,2.1-4.2,4.7-9,4.7c-6.6,0-11.3-4.7-11.3-11.3C2293.1-1159.1,2297.9-1163.8,2303.6-1163.8z
					 M2310.8-1154.1c-0.3-4.5-3.4-6.8-7.1-6.8c-3.7,0-6.8,2.6-7.1,6.8H2310.8z"/>
				<path fill="#1D1D1B" d="M2328.9-1163.3h3.4v22.6c0,5.5-3.2,7.4-6.8,7.4c-0.5,0-1.1,0-1.1,0v-2.9c0,0,0.5,0,1.1,0
					c2.4,0,3.7-1.3,3.7-4.5v-22.6H2328.9z M2330.8-1171.2c1.3,0,2.4,1.1,2.4,2.4s-1.1,2.4-2.4,2.4s-2.4-1.1-2.4-2.4
					S2329.5-1171.2,2330.8-1171.2z"/>
				<path fill="#1D1D1B" d="M2337.9-1149.6v-13.7h3.4v13.7c0,3.4,2.1,5.5,5.3,5.5c3.4,0,5.8-2.4,5.8-6.1v-13.2h3.4v21.9h-3.4v-3.2
					c-1.1,2.1-3.4,3.7-6.6,3.7C2340.5-1140.6,2337.9-1144.6,2337.9-1149.6z"/>
				<path fill="#1D1D1B" d="M2361.6-1146.9c1.1,1.8,2.4,3.4,5.5,3.4c2.1,0,4-1.3,4-3.4c0-5-11.1-3.4-11.1-10.8
					c0-3.7,3.2-6.1,7.1-6.1c4.2,0,6.3,2.6,6.8,4.2l-2.4,1.3c-0.5-1.1-1.8-2.9-4.5-2.9c-2.1,0-3.7,1.1-3.7,3.2
					c0,5,11.1,3.2,11.1,10.8c0,4-3.2,6.6-7.4,6.6c-4.5,0-6.6-2.6-7.6-4.7L2361.6-1146.9z"/>
				<path fill="#1D1D1B" d="M2378.7-1167.8h3.4v4.5h4.7v2.9h-4.7v11.3c0,4.2,1.1,5,4,5c0.5,0,1.1,0,1.1,0v2.9c0,0-0.8,0-2.1,0
					c-4.5,0-6.3-2.9-6.3-7.9v-11.6h-2.6v-2.6h2.6V-1167.8z"/>
				<path fill="#1D1D1B" d="M2408.7-1155.4c2.9,0,5,1.1,5.8,2.1v-2.6c0-3.2-2.1-4.7-5.3-4.7c-2.6,0-5,1.1-6.3,1.8l-1.3-2.4
					c1.6-1.1,4.5-2.4,8.2-2.4c6.1,0,8.4,3.4,8.4,7.9v14.5h-2.9l-0.3-1.8c-1.1,1.3-2.9,2.4-6.1,2.4c-4.7,0-8.4-3.2-8.4-7.4
					C2400.3-1152.2,2403.7-1155.4,2408.7-1155.4z M2409.3-1143.5c3.2,0,5.5-1.8,5.5-4.5s-2.1-4.5-5.5-4.5s-5.5,1.8-5.5,4.5
					C2403.7-1145.6,2405.8-1143.5,2409.3-1143.5z"/>
				<path fill="#1D1D1B" d="M2434.5-1160.4h-2.4v-2.9h2.4v-1.1c0-5.5,3.4-7.4,6.8-7.4c0.8,0,1.3,0,1.3,0v2.9c0,0-0.5,0-1.1,0
					c-2.4,0-4,1.3-4,4.5v1.1h4.7v2.9h-4.7v19h-3.4v-19H2434.5z"/>
				<path fill="#1D1D1B" d="M2453.2-1155.4c2.9,0,5,1.1,5.8,2.1v-2.6c0-3.2-2.1-4.7-5.3-4.7c-2.6,0-5,1.1-6.3,1.8l-1.3-2.4
					c1.6-1.1,4.5-2.4,8.2-2.4c6.1,0,8.4,3.4,8.4,7.9v14.5h-2.9l-0.3-1.8c-1.1,1.3-2.9,2.4-6.1,2.4c-4.7,0-8.4-3.2-8.4-7.4
					C2444.8-1152.2,2448.2-1155.4,2453.2-1155.4z M2453.8-1143.5c3.2,0,5.5-1.8,5.5-4.5s-2.1-4.5-5.5-4.5s-5.5,1.8-5.5,4.5
					C2448.2-1145.6,2450.3-1143.5,2453.8-1143.5z"/>
				<path fill="#1D1D1B" d="M2487.7-1141.4h-3.2v-3.4c-0.5,0.8-2.9,4-7.6,4c-6.3,0-10.8-4.7-10.8-11.6s4.2-11.6,10.5-11.6
					c4.5,0,7.1,2.9,7.6,4.2v-12.1h3.4V-1141.4L2487.7-1141.4z M2477.2-1160.6c-4.2,0-7.4,3.4-7.4,8.4c0,5,3.2,8.4,7.4,8.4
					c4.5,0,7.4-4,7.4-8.4C2484.6-1157.5,2481.2-1160.6,2477.2-1160.6z"/>
				<path fill="#1D1D1B" d="M2515.1-1173h3.2l-12.6,36.1h-3.2L2515.1-1173z"/>
				<path fill="#1D1D1B" d="M2533-1167.8h3.4v4.5h4.7v2.9h-4.7v11.3c0,4.2,1.1,5,4,5c0.5,0,1.1,0,1.1,0v2.9c0,0-0.8,0-2.1,0
					c-4.5,0-6.3-2.9-6.3-7.9v-11.6h-2.6v-2.6h2.6V-1167.8z"/>
				<path fill="#1D1D1B" d="M2555.2-1160.4c-5,0-6.6,4-6.6,8.7v10.5h-3.4v-22.1h3.2v3.7c0.8-2.1,3.2-4.2,6.6-4.2v3.4H2555.2z"/>
				<path fill="#1D1D1B" d="M2567.3-1163.8c6.3,0,10.5,4.7,10.5,11.3c0,0,0,0.5,0,1.1h-17.6c0,5,3.4,7.9,7.9,7.9
					c3.7,0,5.8-1.8,6.8-3.4l2.1,1.6c-1.3,2.1-4.2,4.7-9,4.7c-6.6,0-11.3-4.7-11.3-11.3C2556.5-1159.1,2561.5-1163.8,2567.3-1163.8z
					 M2574.1-1154.1c-0.3-4.5-3.4-6.8-7.1-6.8c-3.7,0-6.8,2.6-7.1,6.8H2574.1z"/>
				<path fill="#1D1D1B" d="M2599.4-1155.1v13.7h-3.4v-13.7c0-3.4-2.1-5.5-5.3-5.5c-3.4,0-5.8,2.4-5.8,6.1v13.4h-3.4v-22.1h3.2v3.2
					c1.1-2.1,3.4-3.7,6.6-3.7C2596.8-1163.8,2599.4-1159.9,2599.4-1155.1z"/>
				<path fill="#1D1D1B" d="M2625-1141.4h-3.2v-3.4c-0.5,0.8-2.9,4-7.6,4c-6.3,0-10.8-4.7-10.8-11.6s4.2-11.6,10.5-11.6
					c4.5,0,7.1,2.9,7.6,4.2v-12.1h3.4V-1141.4L2625-1141.4z M2614.2-1160.6c-4.2,0-7.4,3.4-7.4,8.4c0,5,3.2,8.4,7.4,8.4
					c4.5,0,7.4-4,7.4-8.4C2621.8-1157.5,2618.4-1160.6,2614.2-1160.6z"/>
			</g>
		</g>
		<g>
			<path fill="#72B1C8" d="M2261-1427.4l20.8-7.4h18.2v110.6h-21.9v-88.5l-11.6,4L2261-1427.4z"/>
			<path fill="#72B1C8" d="M2352.6-1436.1c5,0,8.7,3.7,8.7,8.4c0,5-3.7,8.7-8.7,8.7c-4.7,0-8.4-3.7-8.4-8.7
				C2343.9-1432.2,2347.9-1436.1,2352.6-1436.1z M2346.3-1406.4h12.4v82.2h-12.4V-1406.4z"/>
			<path fill="#72B1C8" d="M2438.2-1375.6v51.4h-12.4v-51.9c0-13.2-8.2-21.1-19.5-21.1c-12.6,0-21.3,9.2-21.3,22.9v50h-12.4v-82.2
				h12.4v11.9c4-7.4,13.2-14,24.5-14C2428.5-1408.5,2438.2-1394.3,2438.2-1375.6z"/>
			<path fill="#72B1C8" d="M2500.4-1371.6l-18.4-3.2l2.4-60h62.4v19.5h-42.7l-1.1,22.6c5-2.6,10-3.7,15.8-3.7
				c18.7,0,34.5,14,34.5,34.5c0,23.2-15.5,39.8-37.7,39.8c-23.7,0-34.5-15.5-37.7-27.1l19.2-6.1c2.1,7.6,7.9,12.9,17.1,12.9
				c9.7,0,16.3-7.4,16.3-17.6c0-8.7-5.5-17.6-17.6-17.6C2506.7-1377.7,2502.8-1374,2500.4-1371.6z"/>
		</g>
		<g>
			<g>
				<polygon fill="#F6BF39" points="1553.6,-1307.1 1552.5,-1306.3 1677.9,-920.7 1881.2,-1200.7 				"/>
				<path fill="#FFFFFF" d="M1677.4-917.8l-0.8-2.4l-125.6-386.6l2.4-1.6l0.5,0.3l329.5,106.9L1677.4-917.8z M1554.1-1305.5
					l124,381.9l200.7-276.3L1554.1-1305.5z"/>
			</g>
			<g>
				<polygon fill="#7CB4CC" points="1881.7,-1200.7 2209.4,-1307.1 1881.5,-1545.2 1881.5,-1200.9 				"/>
				<path fill="#FFFFFF" d="M1881.2-1199.1l-1.1-1.3v-347.4l332.1,241.2L1881.2-1199.1z M1882.8-1542.8v340.3l323.7-105.1
					L1882.8-1542.8z"/>
			</g>
			<g>
				<polygon fill="#F6BF39" points="1881.2,-1200.7 1881.5,-1200.9 1881.5,-1545.2 1553.6,-1307.1 				"/>
				<path fill="#FFFFFF" d="M1881.7-1199.1l-0.8-0.3l-330.3-107.2l2.1-1.6l330-239.7v347.4L1881.7-1199.1z M1556.5-1307.6
					l323.7,105.1v-340.3L1556.5-1307.6z"/>
			</g>
			<g>
				<polygon fill="#F6BF39" points="2085.1,-920.7 2210.2,-1306.3 2209.4,-1307.1 1881.7,-1200.7 				"/>
				<path fill="#FFFFFF" d="M2085.3-917.8l-1.6-2.1l-204.4-281.3l1.8-0.5l328.4-106.7l2.4,1.6L2085.3-917.8z M1883.8-1199.9
					l200.7,276.3l124-381.9L1883.8-1199.9z"/>
			</g>
			<g>
				<polygon fill="#F6BF39" points="1881.5,-1200.4 1881.2,-1200.7 1677.9,-920.7 1678.1,-919.7 2084.5,-919.7 2085.1,-920.7 
					1881.7,-1200.7 				"/>
				<path fill="#FFFFFF" d="M2085.6-918.3h-408.5l-0.8-2.6l0.3-0.5l203.8-280.8l0.8,0.3l0.5-0.3l0.8,0.8L2086.4-921L2085.6-918.3z
					 M1679.7-921h403.5l-201.7-277.6L1679.7-921z"/>
			</g>
			<polygon fill="#F6BF39" points="1881.7,-1200.7 1881.5,-1200.9 1881.5,-1200.4 			"/>
			<polygon fill="#F6BF39" points="1881.5,-1200.9 1881.2,-1200.7 1881.5,-1200.4 			"/>
			<g>
				<path fill="#E89536" d="M1824.6-1081.6v108c0,5.5,4.5,10.3,10.3,10.3h53.5c5.5,0,10.3-4.5,10.3-10.3v-108
					c0-5.5-4.5-10.3-10.3-10.3h-53.5C1829.3-1091.9,1824.6-1087.2,1824.6-1081.6z M1831.7-1066.9h59.8v70.1H1832v-70.1H1831.7z
					 M1891.5-1081.6v7.6H1832v-7.6c0-1.6,1.3-3.2,3.2-3.2h53.5C1890.2-1084.8,1891.5-1083.2,1891.5-1081.6z M1831.7-973.7v-16.1
					h59.8v16.1c0,1.6-1.3,3.2-3.2,3.2h-53.5C1833.3-970.8,1831.7-972.1,1831.7-973.7z"/>
				<circle fill="#E89536" cx="1861.7" cy="-980.8" r="4.5"/>
			</g>
			<g>
				<path fill="#E89536" d="M1922.6-1055.3h21.3l2.4,6.1h3.7l-3.4-8.4c-0.3-0.5-0.8-1.1-1.6-1.1h-23.7c-0.8,0-1.3,0.5-1.6,1.1
					l-3.2,8.4h3.7L1922.6-1055.3z"/>
				<path fill="#E89536" d="M1944.2-994.2h-21.3l-2.4-6.1h-3.7l3.2,8.4c0.3,0.5,0.8,1.1,1.6,1.1h23.7c0.8,0,1.3-0.5,1.6-1.1l3.4-8.4
					h-3.7L1944.2-994.2z"/>
				<path fill="#E89536" d="M1950.2-1046.1h-34c-2.6,0-4.7,2.1-4.7,4.7v33.4c0,2.6,2.1,4.7,4.7,4.7h34c2.6,0,4.7-2.1,4.7-4.7v-33.2
					C1955.2-1043.7,1952.8-1046.1,1950.2-1046.1z M1951.8-1007.9c0,0.8-0.5,1.3-1.3,1.3h-34c-0.8,0-1.3-0.5-1.3-1.3v-33.2
					c0-0.8,0.5-1.3,1.3-1.3h34c0.8,0,1.3,0.5,1.3,1.3V-1007.9z"/>
				<path fill="#E89536" d="M1919.9-1026.3h11.3v-11.3h-11.3V-1026.3z M1923.3-1034.5h4.7v4.7h-4.7V-1034.5z"/>
				<path fill="#E89536" d="M1935.5-1026.3h11.3v-11.3h-11.3V-1026.3z M1938.6-1034.5h4.7v4.7h-4.7V-1034.5z"/>
				<path fill="#E89536" d="M1919.9-1011.3h11.3v-11.3h-11.3V-1011.3z M1923.3-1019.5h4.7v4.7h-4.7V-1019.5z"/>
				<path fill="#E89536" d="M1935.5-1011.3h11.3v-11.3h-11.3V-1011.3z M1938.6-1019.5h4.7v4.7h-4.7V-1019.5z"/>
			</g>
			<g>
				<path fill="#E89536" d="M1720.8-1400v108c0,5.5,4.5,10.3,10.3,10.3h53.5c5.5,0,10.3-4.5,10.3-10.3v-108
					c0-5.5-4.5-10.3-10.3-10.3h-53.5C1725.6-1410.3,1720.8-1405.6,1720.8-1400z M1727.9-1385.3h59.5v70.1h-59.5V-1385.3z
					 M1787.7-1400v7.6h-59.8v-7.6c0-1.6,1.3-3.2,3.2-3.2h53.5C1786.4-1403.2,1787.7-1401.6,1787.7-1400z M1727.9-1292.3v-15.8h59.5
					v16.1c0,1.6-1.3,3.2-3.2,3.2h-53.2C1729.5-1289.2,1727.9-1290.5,1727.9-1292.3z"/>
				<circle fill="#E89536" cx="1758" cy="-1299.2" r="4.5"/>
			</g>
			<g>
				<path fill="#E89536" d="M1818.8-1350h21.3l2.4,6.1h3.7l-3.4-8.4c-0.3-0.5-0.8-1.1-1.6-1.1h-23.7c-0.8,0-1.3,0.5-1.6,1.1
					l-3.2,8.4h3.7L1818.8-1350z"/>
				<path fill="#E89536" d="M1840.4-1288.9h-21.3l-2.4-6.1h-3.7l3.2,8.4c0.3,0.5,0.8,1.1,1.6,1.1h23.7c0.8,0,1.3-0.5,1.6-1.1
					l3.4-8.4h-3.7L1840.4-1288.9z"/>
				<path fill="#E89536" d="M1846.7-1340.8h-34c-2.6,0-4.7,2.1-4.7,4.7v33.2c0,2.6,2.1,4.7,4.7,4.7h34c2.6,0,4.7-2.1,4.7-4.7v-33.2
					C1851.4-1338.7,1849.1-1340.8,1846.7-1340.8z M1848-1302.6c0,0.8-0.5,1.3-1.3,1.3h-34c-0.8,0-1.3-0.5-1.3-1.3v-33.4
					c0-0.8,0.5-1.3,1.3-1.3h34c0.8,0,1.3,0.5,1.3,1.3V-1302.6z"/>
				<path fill="#E89536" d="M1816.2-1321h11.3v-11.3h-11.3V-1321z M1819.6-1329.2h4.7v4.7h-4.7V-1329.2z"/>
				<path fill="#E89536" d="M1831.7-1321h11.3v-11.3h-11.3V-1321z M1835.1-1329.2h4.7v4.7h-4.7V-1329.2z"/>
				<path fill="#E89536" d="M1816.2-1306h11.3v-11.3h-11.3V-1306z M1819.6-1314.2h4.7v4.7h-4.7V-1314.2z"/>
				<path fill="#E89536" d="M1831.7-1306h11.3v-11.3h-11.3V-1306z M1835.1-1314.2h4.7v4.7h-4.7V-1314.2z"/>
			</g>
			<g>
				<path fill="#E89536" d="M1652.3-1209.1v108c0,5.5,4.5,10.3,10.3,10.3h53.5c5.5,0,10.3-4.5,10.3-10.3v-108
					c0-5.5-4.5-10.3-10.3-10.3h-53.7C1656.8-1219.4,1652.3-1214.6,1652.3-1209.1z M1659.5-1194.4h59.5v70.1h-59.5V-1194.4z
					 M1719-1209.1v7.6h-59.5v-7.6c0-1.6,1.3-3.2,3.2-3.2h53.5C1717.7-1212.3,1719-1210.7,1719-1209.1z M1659.5-1101.1v-16.1h59.5
					v16.1c0,1.6-1.3,3.2-3.2,3.2h-53.5C1660.8-1098.2,1659.5-1099.5,1659.5-1101.1z"/>
				<circle fill="#E89536" cx="1689.2" cy="-1108.2" r="4.5"/>
			</g>
			<g>
				<path fill="#E89536" d="M1750-1159.1h21.3l2.4,6.1h3.7l-3.4-8.4c-0.3-0.5-0.8-1.1-1.6-1.1h-23.7c-0.8,0-1.3,0.5-1.6,1.1
					l-3.2,8.4h3.7L1750-1159.1z"/>
				<path fill="#E89536" d="M1771.6-1098h-21.3l-2.4-6.1h-3.7l3.2,8.4c0.3,0.5,0.8,1.1,1.6,1.1h23.7c0.8,0,1.3-0.5,1.6-1.1l3.4-8.4
					h-3.7L1771.6-1098z"/>
				<path fill="#E89536" d="M1778-1149.8h-34c-2.6,0-4.7,2.1-4.7,4.7v33.2c0,2.6,2.1,4.7,4.7,4.7h34c2.6,0,4.7-2.1,4.7-4.7v-33.2
					C1782.7-1147.7,1780.6-1149.8,1778-1149.8z M1779.3-1111.7c0,0.8-0.5,1.3-1.3,1.3h-34c-0.8,0-1.3-0.5-1.3-1.3v-33.2
					c0-0.8,0.5-1.3,1.3-1.3h34c0.8,0,1.3,0.5,1.3,1.3V-1111.7z"/>
				<path fill="#E89536" d="M1747.4-1130.1h11.3v-11.3h-11.3V-1130.1z M1750.8-1138.3h4.7v4.7h-4.7V-1138.3z"/>
				<path fill="#E89536" d="M1763-1130.1h11.3v-11.3H1763V-1130.1z M1766.4-1138.3h4.7v4.7h-4.7V-1138.3z"/>
				<path fill="#E89536" d="M1747.4-1115.1h11.3v-11.3h-11.3V-1115.1z M1750.8-1123.2h4.7v4.7h-4.7V-1123.2z"/>
				<path fill="#E89536" d="M1763-1115.1h11.3v-11.3H1763V-1115.1z M1766.4-1123.2h4.7v4.7h-4.7V-1123.2z"/>
			</g>
			<g>
				<path fill="#E89536" d="M1986.6-1209.1v108c0,5.5,4.5,10.3,10.3,10.3h53.5c5.5,0,10.3-4.5,10.3-10.3v-108
					c0-5.5-4.5-10.3-10.3-10.3h-53.5C1991.3-1219.4,1986.6-1214.6,1986.6-1209.1z M1993.7-1194.4h59.5v70.1h-59.5V-1194.4z
					 M2053.4-1209.1v7.6h-59.5v-7.6c0-1.6,1.3-3.2,3.2-3.2h53.5C2052.1-1212.3,2053.4-1210.7,2053.4-1209.1z M1993.7-1101.1v-16.1
					h59.5v16.1c0,1.6-1.3,3.2-3.2,3.2h-53.2C1995.2-1098.2,1993.7-1099.5,1993.7-1101.1z"/>
				<circle fill="#E89536" cx="2023.7" cy="-1108.2" r="4.5"/>
			</g>
			<g>
				<path fill="#E89536" d="M2084.5-1159.1h21.3l2.4,6.1h3.7l-3.4-8.4c-0.3-0.5-0.8-1.1-1.6-1.1h-23.7c-0.8,0-1.3,0.5-1.6,1.1
					l-3.2,8.4h3.7L2084.5-1159.1z"/>
				<path fill="#E89536" d="M2106.1-1098h-21.3l-2.4-6.1h-3.7l3.2,8.4c0.3,0.5,0.8,1.1,1.6,1.1h23.7c0.8,0,1.3-0.5,1.6-1.1l3.4-8.4
					h-3.7L2106.1-1098z"/>
				<path fill="#E89536" d="M2112.4-1149.8h-34c-2.6,0-4.7,2.1-4.7,4.7v33.2c0,2.6,2.1,4.7,4.7,4.7h34c2.6,0,4.7-2.1,4.7-4.7v-33.2
					C2117.2-1147.7,2115.1-1149.8,2112.4-1149.8z M2113.8-1111.7c0,0.8-0.5,1.3-1.3,1.3h-34c-0.8,0-1.3-0.5-1.3-1.3v-33.2
					c0-0.8,0.5-1.3,1.3-1.3h34c0.8,0,1.3,0.5,1.3,1.3V-1111.7z"/>
				<path fill="#E89536" d="M2081.9-1130.1h11.3v-11.3h-11.3V-1130.1z M2085.3-1138.3h4.7v4.7h-4.7V-1138.3z"/>
				<path fill="#E89536" d="M2097.4-1130.1h11.3v-11.3h-11.3V-1130.1z M2100.9-1138.3h4.7v4.7h-4.7V-1138.3z"/>
				<path fill="#E89536" d="M2081.9-1115.1h11.3v-11.3h-11.3V-1115.1z M2085.3-1123.2h4.7v4.7h-4.7V-1123.2z"/>
				<path fill="#E89536" d="M2097.4-1115.1h11.3v-11.3h-11.3V-1115.1z M2100.9-1123.2h4.7v4.7h-4.7V-1123.2z"/>
			</g>
			<g>
				<path fill="#5093AA" d="M1959.2-1412.7c0-2.9,2.4-5,5-5h17.4c2.9,0,5,2.4,5,5v8.7h7.9v-8.7c0-7.1-5.8-12.9-12.9-12.9h-17.4
					c-7.1,0-12.9,5.8-12.9,12.9v8.7h7.9V-1412.7z"/>
				<path fill="#5093AA" d="M1976.8-1396.4v-12.6h-7.9v12.6c-30,1.8-53.7,26.9-53.7,57.4c0,31.9,25.8,57.7,57.7,57.7
					s57.7-25.8,57.7-57.7C2030.5-1369.5,2006.8-1394.3,1976.8-1396.4z M1972.9-1289.2c-27.4,0-49.8-22.4-49.8-49.8
					c0-27.4,22.4-49.8,49.8-49.8s49.8,22.4,49.8,49.8C2022.6-1311.6,2000.2-1289.2,1972.9-1289.2z"/>
				<path fill="#5093AA" d="M1972.9-1380.8v7.9c18.7,0,34,15.3,34,34c0,18.7-15.3,34-34,34c-5.8,0-11.1-1.3-15.8-4l-6.1,5.5
					c6.3,4,14,6.3,21.9,6.3c23.2,0,41.9-18.7,41.9-41.9S1996-1380.8,1972.9-1380.8z"/>
				<path fill="#5093AA" d="M2023.2-1381.6l6.1-5c-4.7-5.5-10-10.3-16.1-14.2l-4.2,6.6C2014.5-1390.8,2019.2-1386.6,2023.2-1381.6z"
					/>
				<path fill="#5093AA" d="M1972.9-1326.8c6.6,0,12.1-5.5,12.1-12.1s-5.5-12.1-12.1-12.1s-12.1,5.5-12.1,12.1c0,1.8,0.3,3.4,1.1,5
					l-19.2,17.4c-1.6,1.6-1.6,4-0.3,5.5c0.8,0.8,1.8,1.3,2.9,1.3c1.1,0,1.8-0.3,2.6-1.1l19.2-17.6
					C1968.9-1327.4,1970.8-1326.8,1972.9-1326.8z M1972.9-1343.2c2.4,0,4.2,1.8,4.2,4.2c0,2.4-1.8,4.2-4.2,4.2
					c-2.4,0-4.2-1.8-4.2-4.2C1968.6-1341.3,1970.5-1343.2,1972.9-1343.2z"/>
			</g>
		</g>
	</g>
	<g id="kPyYDa.tif" display="inline">
		
			<image overflow="visible" width="1039" height="1151" id="Layer_1_1_" xlink:href="E0B144847D3294DC.png"  transform="matrix(2.6612 0 0 2.6612 172.0597 -2570.1174)">
		</image>
	</g>
</g>
<g id="Slider">
	<g>
		<path fill="#3E4F5B" d="M565.6,161.4h8.1c3.8,0,6.5,0.6,8.2,1.7s2.5,2.9,2.5,5.4c0,1.7-0.5,3.1-1.4,4.2s-2.3,1.8-4.1,2.1v0.2
			c4.3,0.7,6.5,3,6.5,6.8c0,2.6-0.9,4.5-2.6,6s-4.1,2.1-7.2,2.1h-10V161.4z M569,173.7h5.5c2.3,0,4-0.4,5.1-1.1s1.5-2,1.5-3.7
			c0-1.6-0.6-2.8-1.7-3.5s-3-1.1-5.5-1.1H569V173.7z M569,176.5v10.7h6c2.3,0,4-0.4,5.2-1.3s1.7-2.3,1.7-4.2c0-1.8-0.6-3.1-1.8-3.9
			s-3-1.2-5.4-1.2H569z"/>
		<path fill="#3E4F5B" d="M594.1,190h-3.2v-30.4h3.2V190z"/>
		<path fill="#3E4F5B" d="M619.3,179.3c0,3.5-0.9,6.2-2.6,8.2s-4.2,2.9-7.3,2.9c-1.9,0-3.6-0.4-5.1-1.3s-2.6-2.2-3.4-3.9
			s-1.2-3.6-1.2-5.9c0-3.5,0.9-6.2,2.6-8.2s4.2-2.9,7.3-2.9c3,0,5.4,1,7.1,3S619.3,175.9,619.3,179.3z M603,179.3
			c0,2.7,0.5,4.8,1.6,6.2s2.7,2.1,4.8,2.1s3.7-0.7,4.8-2.1s1.7-3.5,1.7-6.3c0-2.7-0.5-4.8-1.7-6.2s-2.7-2.1-4.9-2.1
			c-2.1,0-3.7,0.7-4.8,2.1S603,176.5,603,179.3z"/>
		<path fill="#3E4F5B" d="M642.3,168.6v2.1l-4,0.5c0.4,0.5,0.7,1.1,1,1.8s0.4,1.6,0.4,2.5c0,2.1-0.7,3.8-2.1,5s-3.4,1.9-5.9,1.9
			c-0.6,0-1.2-0.1-1.8-0.2c-1.4,0.7-2.1,1.6-2.1,2.8c0,0.6,0.2,1,0.7,1.3s1.3,0.4,2.5,0.4h3.8c2.3,0,4.1,0.5,5.3,1.5
			s1.9,2.4,1.9,4.3c0,2.4-1,4.2-2.9,5.4s-4.7,1.9-8.3,1.9c-2.8,0-5-0.5-6.5-1.6s-2.3-2.5-2.3-4.4c0-1.3,0.4-2.4,1.2-3.4
			s2-1.6,3.5-1.9c-0.5-0.2-1-0.6-1.4-1.2s-0.6-1.1-0.6-1.8c0-0.8,0.2-1.5,0.6-2.1s1.1-1.2,2-1.7c-1.1-0.5-2-1.2-2.7-2.3
			s-1-2.3-1-3.8c0-2.3,0.7-4.2,2.1-5.4s3.4-1.9,6-1.9c1.1,0,2.1,0.1,3,0.4H642.3z M625.2,193.6c0,1.2,0.5,2,1.5,2.6s2.4,0.9,4.2,0.9
			c2.7,0,4.7-0.4,6-1.2s2-1.9,2-3.3c0-1.2-0.4-2-1.1-2.4s-2.1-0.7-4-0.7h-3.9c-1.5,0-2.6,0.4-3.4,1.1S625.2,192.3,625.2,193.6z
			 M627,175.4c0,1.5,0.4,2.6,1.3,3.4s2,1.2,3.5,1.2c3.2,0,4.7-1.5,4.7-4.6c0-3.2-1.6-4.8-4.8-4.8c-1.5,0-2.7,0.4-3.5,1.2
			S627,173.8,627,175.4z"/>
		<path fill="#3E4F5B" d="M660.3,184.2c0,2-0.7,3.5-2.2,4.6s-3.6,1.6-6.2,1.6c-2.8,0-5.1-0.4-6.6-1.3v-3c1,0.5,2.1,0.9,3.3,1.2
			s2.3,0.4,3.4,0.4c1.7,0,3-0.3,3.9-0.8s1.4-1.4,1.4-2.5c0-0.8-0.4-1.5-1.1-2.1s-2.1-1.3-4.2-2.1c-2-0.7-3.4-1.4-4.2-1.9
			s-1.5-1.2-1.9-1.9s-0.6-1.5-0.6-2.5c0-1.7,0.7-3.1,2.1-4.1s3.4-1.5,5.8-1.5c2.3,0,4.6,0.5,6.8,1.4l-1.2,2.6
			c-2.1-0.9-4.1-1.3-5.8-1.3c-1.5,0-2.7,0.2-3.5,0.7s-1.2,1.1-1.2,2c0,0.6,0.1,1.1,0.4,1.5s0.8,0.8,1.4,1.2s1.9,0.9,3.8,1.6
			c2.5,0.9,4.3,1.9,5.1,2.8S660.3,182.7,660.3,184.2z"/>
	</g>
	<g>
		<g>
			<path fill="#69C3C6" d="M517.3,212.8c-18.4,0-33.3-14.9-33.3-33.3s14.9-33.3,33.3-33.3s33.3,14.9,33.3,33.3
				S535.7,212.8,517.3,212.8z"/>
			<path fill="#FFFFFF" d="M517.3,147.2c17.8,0,32.3,14.5,32.3,32.3s-14.5,32.3-32.3,32.3c-17.8,0-32.3-14.5-32.3-32.3
				S499.5,147.2,517.3,147.2 M517.3,145.2c-18.9,0-34.3,15.4-34.3,34.3s15.4,34.3,34.3,34.3s34.3-15.4,34.3-34.3
				S536.2,145.2,517.3,145.2L517.3,145.2z"/>
		</g>
		<path fill="#FBFAFA" d="M529.3,188.6H522v7.2h-18.1v-32.6h22.6l3.6-3.6h-29.9v39.8h23.5l9-9v-13.6l-3.6,3.6V188.6z M537.8,164.4
			l-2.4-2.4c-0.3-0.3-0.8-0.5-1.3-0.5c-0.5,0-0.9,0.2-1.3,0.5c0,0,0,0,0,0l-1.7,1.7l5,5l1.7-1.7c0,0,0,0,0,0
			c0.3-0.4,0.5-0.8,0.5-1.3C538.3,165.2,538.1,164.8,537.8,164.4z M516.2,188.6l0.4-0.4l-5-5l-0.4,0.4v5H516.2z M513,181.8l5,5
			l16.6-16.7l-5-5L513,181.8z"/>
	</g>
	<g>
		<path fill="#3E4F5B" d="M578,110.3h-3.3V84.7h-9v-2.9h21.4v2.9h-9V110.3z"/>
		<path fill="#3E4F5B" d="M608.1,110.3l-3.9-12.6c-0.2-0.8-0.7-2.5-1.4-5.2h-0.2c-0.5,2.3-1,4-1.4,5.3l-4,12.5h-3.8l-5.8-21.4h3.4
			c1.4,5.4,2.4,9.5,3.2,12.3s1.1,4.7,1.2,5.7h0.2c0.1-0.7,0.4-1.7,0.7-2.9s0.6-2.1,0.8-2.8l3.9-12.3h3.5l3.8,12.3
			c0.7,2.2,1.2,4.1,1.5,5.6h0.2c0.1-0.5,0.2-1.2,0.4-2.2s1.6-6.2,4.1-15.8h3.4l-5.9,21.4H608.1z"/>
		<path fill="#3E4F5B" d="M621.3,83.1c0-0.7,0.2-1.3,0.5-1.6s0.8-0.5,1.4-0.5c0.5,0,1,0.2,1.3,0.5s0.6,0.9,0.6,1.6s-0.2,1.3-0.6,1.6
			s-0.8,0.5-1.3,0.5c-0.5,0-1-0.2-1.4-0.5S621.3,83.9,621.3,83.1z M624.8,110.3h-3.2V88.9h3.2V110.3z"/>
		<path fill="#3E4F5B" d="M638.4,108.1c0.6,0,1.1,0,1.7-0.1s1-0.2,1.3-0.3v2.5c-0.4,0.2-0.9,0.3-1.6,0.4s-1.3,0.2-1.8,0.2
			c-4.1,0-6.2-2.2-6.2-6.5V91.4h-3.1v-1.6l3.1-1.3l1.4-4.6h1.9v5h6.2v2.5H635V104c0,1.3,0.3,2.3,0.9,3S637.3,108.1,638.4,108.1z"/>
		<path fill="#3E4F5B" d="M652.3,108.1c0.6,0,1.1,0,1.7-0.1s1-0.2,1.3-0.3v2.5c-0.4,0.2-0.9,0.3-1.6,0.4s-1.3,0.2-1.8,0.2
			c-4.1,0-6.2-2.2-6.2-6.5V91.4h-3.1v-1.6l3.1-1.3L647,84h1.9v5h6.2v2.5h-6.2V104c0,1.3,0.3,2.3,0.9,3S651.3,108.1,652.3,108.1z"/>
		<path fill="#3E4F5B" d="M668.4,110.7c-3.2,0-5.7-1-7.5-2.9s-2.7-4.6-2.7-8c0-3.5,0.8-6.2,2.5-8.2s4-3,6.8-3c2.7,0,4.8,0.9,6.4,2.6
			s2.3,4.1,2.3,7v2.1h-14.7c0.1,2.5,0.7,4.4,1.9,5.7s2.9,2,5.1,2c2.3,0,4.6-0.5,6.8-1.4v2.9c-1.1,0.5-2.2,0.8-3.3,1.1
			S669.8,110.7,668.4,110.7z M667.5,91.3c-1.7,0-3.1,0.6-4.1,1.7s-1.6,2.7-1.8,4.6h11.2c0-2-0.5-3.6-1.4-4.7S669.2,91.3,667.5,91.3z
			"/>
		<path fill="#3E4F5B" d="M691.3,88.5c1,0,1.8,0.1,2.6,0.2l-0.4,3c-0.9-0.2-1.7-0.3-2.3-0.3c-1.7,0-3.2,0.7-4.4,2.1
			s-1.8,3.2-1.8,5.3v11.5h-3.2V88.9h2.7l0.4,4h0.2c0.8-1.4,1.8-2.5,2.9-3.2S690,88.5,691.3,88.5z"/>
	</g>
	<g>
		<g>
			<path fill="#5AB0E3" d="M517.1,128.5c-18.4,0-33.3-14.9-33.3-33.3s14.9-33.3,33.3-33.3s33.3,14.9,33.3,33.3
				S535.5,128.5,517.1,128.5z"/>
			<path fill="#FFFFFF" d="M517.1,62.9c17.8,0,32.3,14.5,32.3,32.3c0,17.8-14.5,32.3-32.3,32.3c-17.8,0-32.3-14.5-32.3-32.3
				C484.8,77.4,499.2,62.9,517.1,62.9 M517.1,60.9c-18.9,0-34.3,15.4-34.3,34.3s15.4,34.3,34.3,34.3s34.3-15.4,34.3-34.3
				S536,60.9,517.1,60.9L517.1,60.9z"/>
		</g>
		<path fill="#FBFAFA" d="M536.2,85.3c-1.4,0.6-2.9,1-4.5,1.2c1.6-1,2.9-2.5,3.5-4.3c-1.5,0.9-3.2,1.6-5,1.9
			c-1.4-1.5-3.5-2.5-5.7-2.5c-4.3,0-7.9,3.5-7.9,7.9c0,0.6,0.1,1.2,0.2,1.8c-6.5-0.3-12.3-3.5-16.2-8.2c-0.7,1.2-1.1,2.5-1.1,3.9
			c0,2.7,1.4,5.1,3.5,6.5c-1.3,0-2.5-0.4-3.6-1c0,0,0,0.1,0,0.1c0,3.8,2.7,7,6.3,7.7c-0.7,0.2-1.4,0.3-2.1,0.3c-0.5,0-1,0-1.5-0.1
			c1,3.1,3.9,5.4,7.3,5.5c-2.7,2.1-6.1,3.4-9.8,3.4c-0.6,0-1.3,0-1.9-0.1c3.5,2.2,7.6,3.5,12,3.5c14.5,0,22.4-12,22.4-22.4
			c0-0.3,0-0.7,0-1C533.8,88.3,535.2,86.9,536.2,85.3z"/>
	</g>
	<g>
		<path fill="#3E4F5B" d="M836.6,187.4h-3.3v-28.6h15.9v2.9h-12.6v10.4h11.8v2.9h-11.8V187.4z"/>
		<path fill="#3E4F5B" d="M871.7,176.7c0,3.5-0.9,6.2-2.6,8.2s-4.2,2.9-7.3,2.9c-1.9,0-3.6-0.4-5.1-1.3s-2.6-2.2-3.4-3.9
			s-1.2-3.6-1.2-5.9c0-3.5,0.9-6.2,2.6-8.2s4.2-2.9,7.3-2.9c3,0,5.4,1,7.1,3S871.7,173.3,871.7,176.7z M855.4,176.7
			c0,2.7,0.5,4.8,1.6,6.2s2.7,2.1,4.8,2.1s3.7-0.7,4.8-2.1s1.7-3.5,1.7-6.3c0-2.7-0.5-4.8-1.7-6.2s-2.7-2.1-4.9-2.1
			c-2.1,0-3.7,0.7-4.8,2.1S855.4,173.9,855.4,176.7z"/>
		<path fill="#3E4F5B" d="M887,165.6c1,0,1.8,0.1,2.6,0.2l-0.4,3c-0.9-0.2-1.7-0.3-2.3-0.3c-1.7,0-3.2,0.7-4.4,2.1s-1.8,3.2-1.8,5.3
			v11.5h-3.2V166h2.7l0.4,4h0.2c0.8-1.4,1.8-2.5,2.9-3.2S885.6,165.6,887,165.6z"/>
		<path fill="#3E4F5B" d="M896.4,166v13.9c0,1.7,0.4,3,1.2,3.9s2,1.3,3.7,1.3c2.2,0,3.9-0.6,4.9-1.8s1.6-3.2,1.6-6V166h3.2v21.4
			h-2.7l-0.5-2.9h-0.2c-0.7,1.1-1.6,1.9-2.8,2.4s-2.5,0.8-4,0.8c-2.6,0-4.6-0.6-5.8-1.9s-1.9-3.2-1.9-5.9v-14H896.4z"/>
		<path fill="#3E4F5B" d="M945,187.4v-13.9c0-1.7-0.4-3-1.1-3.8s-1.9-1.3-3.4-1.3c-2,0-3.5,0.6-4.5,1.7s-1.4,2.9-1.4,5.4v12h-3.2
			v-13.9c0-1.7-0.4-3-1.1-3.8s-1.9-1.3-3.4-1.3c-2,0-3.5,0.6-4.5,1.8s-1.4,3.2-1.4,6v11.2h-3.2V166h2.6l0.5,2.9h0.2
			c0.6-1,1.5-1.9,2.6-2.4s2.4-0.9,3.7-0.9c3.3,0,5.5,1.2,6.6,3.6h0.2c0.6-1.1,1.6-2,2.8-2.7s2.6-1,4.1-1c2.4,0,4.2,0.6,5.4,1.9
			s1.8,3.2,1.8,6v14H945z"/>
		<path fill="#3E4F5B" d="M968.5,181.6c0,2-0.7,3.5-2.2,4.6s-3.6,1.6-6.2,1.6c-2.8,0-5.1-0.4-6.6-1.3v-3c1,0.5,2.1,0.9,3.3,1.2
			s2.3,0.4,3.4,0.4c1.7,0,3-0.3,3.9-0.8s1.4-1.4,1.4-2.5c0-0.8-0.4-1.5-1.1-2.1s-2.1-1.3-4.2-2.1c-2-0.7-3.4-1.4-4.2-1.9
			s-1.5-1.2-1.9-1.9s-0.6-1.5-0.6-2.5c0-1.7,0.7-3.1,2.1-4.1s3.4-1.5,5.8-1.5c2.3,0,4.6,0.5,6.8,1.4l-1.2,2.6
			c-2.1-0.9-4.1-1.3-5.8-1.3c-1.5,0-2.7,0.2-3.5,0.7s-1.2,1.1-1.2,2c0,0.6,0.1,1.1,0.4,1.5s0.8,0.8,1.4,1.2s1.9,0.9,3.8,1.6
			c2.5,0.9,4.3,1.9,5.1,2.8S968.5,180.2,968.5,181.6z"/>
	</g>
	<g>
		<path fill="#3E4F5B" d="M271.3,110.8H268V82.2h15.9v2.9h-12.6v10.4h11.8v2.9h-11.8V110.8z"/>
		<path fill="#3E4F5B" d="M301.1,110.8l-0.6-3h-0.2c-1.1,1.3-2.1,2.2-3.2,2.7c-1.1,0.5-2.4,0.7-4,0.7c-2.1,0-3.8-0.5-5-1.6
			s-1.8-2.7-1.8-4.7c0-4.3,3.5-6.6,10.4-6.8l3.6-0.1v-1.3c0-1.7-0.4-2.9-1.1-3.7s-1.9-1.2-3.5-1.2c-1.8,0-3.8,0.5-6.1,1.6l-1-2.5
			c1.1-0.6,2.2-1,3.5-1.3c1.3-0.3,2.5-0.5,3.8-0.5c2.6,0,4.4,0.6,5.7,1.7s1.8,2.9,1.8,5.4v14.6H301.1z M293.8,108.5
			c2,0,3.6-0.6,4.8-1.7c1.2-1.1,1.7-2.7,1.7-4.6v-1.9l-3.2,0.1c-2.6,0.1-4.4,0.5-5.6,1.2c-1.1,0.7-1.7,1.8-1.7,3.3
			c0,1.2,0.4,2.1,1.1,2.7C291.5,108.2,292.5,108.5,293.8,108.5z"/>
		<path fill="#3E4F5B" d="M318.5,111.1c-3.1,0-5.5-1-7.2-2.9c-1.7-1.9-2.5-4.6-2.5-8.1c0-3.6,0.9-6.3,2.6-8.3s4.2-2.9,7.4-2.9
			c1,0,2.1,0.1,3.1,0.3c1,0.2,1.8,0.5,2.4,0.8l-1,2.8c-0.7-0.3-1.5-0.5-2.3-0.7c-0.8-0.2-1.6-0.3-2.2-0.3c-4.3,0-6.5,2.8-6.5,8.3
			c0,2.6,0.5,4.6,1.6,6.1s2.6,2.1,4.7,2.1c1.8,0,3.6-0.4,5.5-1.2v2.9C322.5,110.8,320.7,111.1,318.5,111.1z"/>
		<path fill="#3E4F5B" d="M337.9,111.1c-3.2,0-5.7-1-7.5-2.9c-1.8-1.9-2.7-4.6-2.7-8c0-3.5,0.8-6.2,2.5-8.2s4-3,6.8-3
			c2.7,0,4.8,0.9,6.4,2.6c1.6,1.8,2.3,4.1,2.3,7v2.1H331c0.1,2.5,0.7,4.4,1.9,5.7c1.2,1.3,2.9,2,5.1,2c2.3,0,4.6-0.5,6.8-1.4v2.9
			c-1.1,0.5-2.2,0.8-3.3,1.1S339.3,111.1,337.9,111.1z M337,91.7c-1.7,0-3.1,0.6-4.1,1.7c-1,1.1-1.6,2.7-1.8,4.6h11.2
			c0-2-0.5-3.6-1.4-4.7C340,92.2,338.7,91.7,337,91.7z"/>
		<path fill="#3E4F5B" d="M361,89c2.8,0,5,1,6.6,2.9c1.6,1.9,2.3,4.6,2.3,8.2s-0.8,6.2-2.4,8.2c-1.6,1.9-3.7,2.9-6.5,2.9
			c-1.4,0-2.7-0.3-3.8-0.8c-1.2-0.5-2.1-1.3-2.9-2.4h-0.2l-0.7,2.8h-2.3V80.4h3.2v7.4c0,1.7-0.1,3.1-0.2,4.5h0.2
			C355.8,90.1,358,89,361,89z M360.5,91.7c-2.2,0-3.8,0.6-4.8,1.9s-1.5,3.4-1.5,6.4s0.5,5.2,1.5,6.5c1,1.3,2.6,1.9,4.8,1.9
			c2,0,3.5-0.7,4.5-2.2c1-1.5,1.5-3.5,1.5-6.3c0-2.8-0.5-4.9-1.5-6.2S362.6,91.7,360.5,91.7z"/>
		<path fill="#3E4F5B" d="M393.8,100c0,3.5-0.9,6.2-2.6,8.2c-1.8,2-4.2,2.9-7.3,2.9c-1.9,0-3.6-0.4-5.1-1.3s-2.6-2.2-3.4-3.9
			s-1.2-3.6-1.2-5.9c0-3.5,0.9-6.2,2.6-8.2c1.7-1.9,4.2-2.9,7.3-2.9c3,0,5.4,1,7.1,3S393.8,96.6,393.8,100z M377.5,100
			c0,2.7,0.5,4.8,1.6,6.2c1.1,1.4,2.7,2.1,4.8,2.1s3.7-0.7,4.8-2.1s1.7-3.5,1.7-6.3c0-2.7-0.5-4.8-1.7-6.2c-1.1-1.4-2.7-2.1-4.9-2.1
			c-2.1,0-3.7,0.7-4.8,2.1C378.1,95.2,377.5,97.3,377.5,100z"/>
		<path fill="#3E4F5B" d="M417.8,100c0,3.5-0.9,6.2-2.6,8.2c-1.8,2-4.2,2.9-7.3,2.9c-1.9,0-3.6-0.4-5.1-1.3s-2.6-2.2-3.4-3.9
			s-1.2-3.6-1.2-5.9c0-3.5,0.9-6.2,2.6-8.2c1.7-1.9,4.2-2.9,7.3-2.9c3,0,5.4,1,7.1,3S417.8,96.6,417.8,100z M401.5,100
			c0,2.7,0.5,4.8,1.6,6.2c1.1,1.4,2.7,2.1,4.8,2.1s3.7-0.7,4.8-2.1s1.7-3.5,1.7-6.3c0-2.7-0.5-4.8-1.7-6.2c-1.1-1.4-2.7-2.1-4.9-2.1
			c-2.1,0-3.7,0.7-4.8,2.1C402,95.2,401.5,97.3,401.5,100z"/>
		<path fill="#3E4F5B" d="M426.5,99.8c0.6-0.8,1.4-1.8,2.6-3.1l6.9-7.3h3.8l-8.7,9.1l9.3,12.3h-3.9l-7.6-10.1l-2.4,2.1v8h-3.2V80.4
			h3.2v16.1c0,0.7-0.1,1.8-0.2,3.3H426.5z"/>
	</g>
	<g>
		<path fill="#3E4F5B" d="M290.3,190.2h-3.8l-15.6-24h-0.2c0.2,2.8,0.3,5.4,0.3,7.7v16.2H268v-28.6h3.8l15.6,23.9h0.2
			c0-0.4-0.1-1.5-0.2-3.4s-0.1-3.3-0.1-4.1v-16.4h3.1V190.2z"/>
		<path fill="#3E4F5B" d="M306.5,190.6c-3.2,0-5.7-1-7.5-2.9s-2.7-4.6-2.7-8c0-3.5,0.8-6.2,2.5-8.2s4-3,6.8-3c2.7,0,4.8,0.9,6.4,2.6
			s2.3,4.1,2.3,7v2.1h-14.7c0.1,2.5,0.7,4.4,1.9,5.7s2.9,2,5.1,2c2.3,0,4.6-0.5,6.8-1.4v2.9c-1.1,0.5-2.2,0.8-3.3,1.1
			S307.9,190.6,306.5,190.6z M305.6,171.1c-1.7,0-3.1,0.6-4.1,1.7s-1.6,2.7-1.8,4.6h11.2c0-2-0.5-3.6-1.4-4.7
			S307.3,171.1,305.6,171.1z"/>
		<path fill="#3E4F5B" d="M337.2,190.2l-3.9-12.6c-0.2-0.8-0.7-2.5-1.4-5.2h-0.2c-0.5,2.3-1,4-1.4,5.3l-4,12.5h-3.8l-5.8-21.4h3.4
			c1.4,5.4,2.4,9.5,3.2,12.3s1.1,4.7,1.2,5.7h0.2c0.1-0.7,0.4-1.7,0.7-2.9s0.6-2.1,0.8-2.8l3.9-12.3h3.5l3.8,12.3
			c0.7,2.2,1.2,4.1,1.5,5.6h0.2c0.1-0.5,0.2-1.2,0.4-2.2s1.6-6.2,4.1-15.8h3.4l-5.9,21.4H337.2z"/>
		<path fill="#3E4F5B" d="M364.4,184.4c0,2-0.7,3.5-2.2,4.6s-3.6,1.6-6.2,1.6c-2.8,0-5.1-0.4-6.6-1.3v-3c1,0.5,2.1,0.9,3.3,1.2
			s2.3,0.4,3.4,0.4c1.7,0,3-0.3,3.9-0.8s1.4-1.4,1.4-2.5c0-0.8-0.4-1.5-1.1-2.1s-2.1-1.3-4.2-2.1c-2-0.7-3.4-1.4-4.2-1.9
			s-1.5-1.2-1.9-1.9s-0.6-1.5-0.6-2.5c0-1.7,0.7-3.1,2.1-4.1s3.4-1.5,5.8-1.5c2.3,0,4.6,0.5,6.8,1.4l-1.2,2.6
			c-2.1-0.9-4.1-1.3-5.8-1.3c-1.5,0-2.7,0.2-3.5,0.7s-1.2,1.1-1.2,2c0,0.6,0.1,1.1,0.4,1.5s0.8,0.8,1.4,1.2s1.9,0.9,3.8,1.6
			c2.5,0.9,4.3,1.9,5.1,2.8S364.4,183,364.4,184.4z"/>
	</g>
	<g>
		<g>
			<path fill="#2D2B73" d="M215.8,212.8c-18.4,0-33.3-14.9-33.3-33.3s14.9-33.3,33.3-33.3s33.3,14.9,33.3,33.3
				S234.2,212.8,215.8,212.8z"/>
			<path fill="#FFFFFF" d="M215.8,147.2c17.8,0,32.3,14.5,32.3,32.3s-14.5,32.3-32.3,32.3s-32.3-14.5-32.3-32.3
				S198,147.2,215.8,147.2 M215.8,145.2c-18.9,0-34.3,15.4-34.3,34.3s15.4,34.3,34.3,34.3s34.3-15.4,34.3-34.3
				S234.8,145.2,215.8,145.2L215.8,145.2z"/>
		</g>
		<path fill="#FFFFFF" d="M206.7,185.5c-2.3,0-4.2,1.9-4.2,4.2c0,2.3,1.9,4.2,4.2,4.2c2.3,0,4.2-1.9,4.2-4.2
			C210.9,187.3,209,185.5,206.7,185.5z M202.5,174.3v5.2c7.9,0,14.3,6.4,14.3,14.3h5.2C222,183.1,213.3,174.3,202.5,174.3z
			 M202.5,163.2v5.2c14,0,25.4,11.4,25.4,25.4h5.2C233.1,176.9,219.4,163.2,202.5,163.2z"/>
	</g>
	<g>
		<g>
			<path fill="#3E4F5B" d="M781.1,212.8c-18.4,0-33.3-14.9-33.3-33.3s14.9-33.3,33.3-33.3s33.3,14.9,33.3,33.3
				S799.5,212.8,781.1,212.8z"/>
			<path fill="#FFFFFF" d="M781.1,147.2c17.8,0,32.3,14.5,32.3,32.3s-14.5,32.3-32.3,32.3s-32.3-14.5-32.3-32.3
				S763.3,147.2,781.1,147.2 M781.1,145.2c-18.9,0-34.3,15.4-34.3,34.3s15.4,34.3,34.3,34.3s34.3-15.4,34.3-34.3
				S800.1,145.2,781.1,145.2L781.1,145.2z"/>
		</g>
		<path fill="#FBFAFA" d="M775,185.3c-2.4,0-4-1.6-4-4v-12h-4.4c-1.6,0-2.9,1.3-2.9,2.9v14.5c0,1.6,1.3,2.9,2.9,2.9h1.5v5.8l6.2-5.8
			h12.7c1.4,0,2.5-0.9,2.8-2.2l-2.4-2.2H775z M795.7,163.5h-20.3c-1.6,0-2.9,1.3-2.9,2.9V181c0,1.6,1.3,2.9,2.9,2.9H788l6.2,5.8
			v-5.8h1.5c1.6,0,2.9-1.3,2.9-2.9v-14.5C798.6,164.8,797.3,163.5,795.7,163.5z M796.4,181c0,0.4-0.3,0.7-0.7,0.7H792v2.5l-2.7-2.5
			h-14c-0.4,0-0.7-0.3-0.7-0.7v-14.5c0-0.4,0.3-0.7,0.7-0.7h20.3c0.4,0,0.7,0.3,0.7,0.7V181z"/>
	</g>
	<g>
		<g>
			<path fill="#4A73B8" d="M215.8,128.5c-18.4,0-33.3-14.9-33.3-33.3s14.9-33.3,33.3-33.3s33.3,14.9,33.3,33.3
				S234.2,128.5,215.8,128.5z"/>
			<path fill="#FFFFFF" d="M215.8,62.9c17.8,0,32.3,14.5,32.3,32.3c0,17.8-14.5,32.3-32.3,32.3s-32.3-14.5-32.3-32.3
				C183.5,77.4,198,62.9,215.8,62.9 M215.8,60.9c-18.9,0-34.3,15.4-34.3,34.3s15.4,34.3,34.3,34.3s34.3-15.4,34.3-34.3
				S234.8,60.9,215.8,60.9L215.8,60.9z"/>
		</g>
		<path id="f_3_" fill="#FFFFFF" d="M218.9,114.7V96.9h6l0.9-6.9h-6.9v-4.4c0-2,0.6-3.4,3.4-3.4l3.7,0V76c-0.6-0.1-2.8-0.3-5.4-0.3
			c-5.3,0-8.9,3.2-8.9,9.2V90h-6v6.9h6v17.8H218.9z"/>
	</g>
	<g>
		<g>
			<path fill="#E84132" d="M779.7,128.5c-18.4,0-33.3-14.9-33.3-33.3s14.9-33.3,33.3-33.3S813,76.8,813,95.2S798,128.5,779.7,128.5z
				"/>
			<path fill="#FFFFFF" d="M779.7,62.9c17.8,0,32.3,14.5,32.3,32.3c0,17.8-14.5,32.3-32.3,32.3s-32.3-14.5-32.3-32.3
				C747.4,77.4,761.8,62.9,779.7,62.9 M779.7,60.9c-18.9,0-34.3,15.4-34.3,34.3s15.4,34.3,34.3,34.3S814,114.1,814,95.2
				S798.6,60.9,779.7,60.9L779.7,60.9z"/>
		</g>
		<path fill="#FBFAFA" d="M762.8,111.5h-4.2v-4.2h4.2V111.5z M762.8,102h-4.2v-4.2h4.2V102z M762.8,92.6h-4.2v-4.2h4.2V92.6z
			 M762.8,83.1h-4.2v-4.2h4.2V83.1z M773.4,105.7v-21l17.4,10.5L773.4,105.7z M800.7,111.5h-4.2v-4.2h4.2V111.5z M800.7,102h-4.2
			v-4.2h4.2V102z M800.7,92.6h-4.2v-4.2h4.2V92.6z M800.7,83.1h-4.2v-4.2h4.2V83.1z"/>
	</g>
	<line fill="none" stroke="#3E4F5B" stroke-width="2" stroke-miterlimit="10" x1="133.2" y1="6.3" x2="1018.8" y2="6.3"/>
	<g>
		<path fill="#3E4F5B" d="M852,87h3.6l-10.3,28.6H842L831.8,87h3.5l6.6,18.5c0.8,2.1,1.4,4.2,1.8,6.2c0.5-2.1,1.1-4.2,1.8-6.3
			L852,87z"/>
		<path fill="#3E4F5B" d="M858.6,88.3c0-0.7,0.2-1.3,0.5-1.6s0.8-0.5,1.4-0.5c0.5,0,1,0.2,1.3,0.5s0.6,0.9,0.6,1.6s-0.2,1.3-0.6,1.6
			s-0.8,0.5-1.3,0.5c-0.5,0-1-0.2-1.4-0.5S858.6,89.1,858.6,88.3z M862.1,115.5h-3.2V94.1h3.2V115.5z"/>
		<path fill="#3E4F5B" d="M883.3,112.7h-0.2c-1.5,2.2-3.7,3.3-6.7,3.3c-2.8,0-5-1-6.5-2.9s-2.3-4.6-2.3-8.2s0.8-6.3,2.3-8.2
			s3.7-2.9,6.5-2.9c2.9,0,5.1,1.1,6.7,3.2h0.3l-0.1-1.5l-0.1-1.5v-8.7h3.2v30.4h-2.6L883.3,112.7z M876.9,113.2
			c2.2,0,3.8-0.6,4.8-1.8s1.5-3.1,1.5-5.8v-0.7c0-3-0.5-5.2-1.5-6.5s-2.6-1.9-4.8-1.9c-1.9,0-3.4,0.7-4.4,2.2s-1.5,3.6-1.5,6.3
			c0,2.7,0.5,4.8,1.5,6.2S874.9,113.2,876.9,113.2z"/>
		<path fill="#3E4F5B" d="M902.1,115.9c-3.2,0-5.7-1-7.5-2.9s-2.7-4.6-2.7-8c0-3.5,0.8-6.2,2.5-8.2s4-3,6.8-3c2.7,0,4.8,0.9,6.4,2.6
			s2.3,4.1,2.3,7v2.1h-14.7c0.1,2.5,0.7,4.4,1.9,5.7s2.9,2,5.1,2c2.3,0,4.6-0.5,6.8-1.4v2.9c-1.1,0.5-2.2,0.8-3.3,1.1
			S903.6,115.9,902.1,115.9z M901.2,96.5c-1.7,0-3.1,0.6-4.1,1.7s-1.6,2.7-1.8,4.6h11.2c0-2-0.5-3.6-1.4-4.7S902.9,96.5,901.2,96.5z
			"/>
		<path fill="#3E4F5B" d="M933.8,104.8c0,3.5-0.9,6.2-2.6,8.2s-4.2,2.9-7.3,2.9c-1.9,0-3.6-0.4-5.1-1.3s-2.6-2.2-3.4-3.9
			s-1.2-3.6-1.2-5.9c0-3.5,0.9-6.2,2.6-8.2s4.2-2.9,7.3-2.9c3,0,5.4,1,7.1,3S933.8,101.4,933.8,104.8z M917.5,104.8
			c0,2.7,0.5,4.8,1.6,6.2s2.7,2.1,4.8,2.1s3.7-0.7,4.8-2.1s1.7-3.5,1.7-6.3c0-2.7-0.5-4.8-1.7-6.2s-2.7-2.1-4.9-2.1
			c-2.1,0-3.7,0.7-4.8,2.1S917.5,102.1,917.5,104.8z"/>
		<path fill="#3E4F5B" d="M953.1,109.7c0,2-0.7,3.5-2.2,4.6s-3.6,1.6-6.2,1.6c-2.8,0-5.1-0.4-6.6-1.3v-3c1,0.5,2.1,0.9,3.3,1.2
			s2.3,0.4,3.4,0.4c1.7,0,3-0.3,3.9-0.8s1.4-1.4,1.4-2.5c0-0.8-0.4-1.5-1.1-2.1s-2.1-1.3-4.2-2.1c-2-0.7-3.4-1.4-4.2-1.9
			s-1.5-1.2-1.9-1.9s-0.6-1.5-0.6-2.5c0-1.7,0.7-3.1,2.1-4.1s3.4-1.5,5.8-1.5c2.3,0,4.6,0.5,6.8,1.4l-1.2,2.6
			c-2.1-0.9-4.1-1.3-5.8-1.3c-1.5,0-2.7,0.2-3.5,0.7s-1.2,1.1-1.2,2c0,0.6,0.1,1.1,0.4,1.5s0.8,0.8,1.4,1.2s1.9,0.9,3.8,1.6
			c2.5,0.9,4.3,1.9,5.1,2.8S953.1,108.3,953.1,109.7z"/>
	</g>
</g>
<g id="Icon">
</g>
<g id="Layer_1">
</g>
<g id="Isolation_Mode">
</g>
<g id="_x2014_ÎÓÈ_1">
</g>
<g id="_x3C_Layer_x3E_">
</g>
<g id="icons">
</g>
<g id="_x2014_ÎÓÈ_x5F_1">
</g>
</svg>
