<?xml version="1.0" encoding="utf-8"?>
<!-- Generator: Adobe Illustrator 19.1.0, SVG Export Plug-In . SVG Version: 6.00 Build 0)  -->
<svg version="1.1" xmlns="http://www.w3.org/2000/svg" xmlns:xlink="http://www.w3.org/1999/xlink" x="0px" y="0px"
	 viewBox="0 0 1152 864" enable-background="new 0 0 1152 864" xml:space="preserve">
<g id="Workings" display="none">
	<g display="inline">
		<g>
			<g>
				<path fill="#1D1D1B" d="M3468.1,1566.6c8.7,0,15,6.6,15,15.3s-6.6,15.3-15,15.3c-8.4,0-15-6.6-15-15.3
					C3453.1,1573.2,3459.4,1566.6,3468.1,1566.6z M3468.1,1594c6.6,0,11.6-5,11.6-12.1c0-6.8-5-12.1-11.6-12.1s-11.6,5.3-11.6,12.1
					C3456.5,1589,3461.5,1594,3468.1,1594z"/>
				<path fill="#1D1D1B" d="M3505.2,1583v13.7h-3.4V1583c0-3.4-2.1-5.5-5.3-5.5c-3.4,0-5.8,2.4-5.8,6.1v13.4h-3.4v-21.9h3.2v3.2
					c1.1-2.1,3.4-3.7,6.6-3.7C3502.6,1574.3,3505.2,1578.2,3505.2,1583z"/>
				<path fill="#1D1D1B" d="M3510.8,1566.4h3.4v30.6h-3.4V1566.4z"/>
				<path fill="#1D1D1B" d="M3522.9,1604.3l3.2-7.6l-9-21.6h3.7l6.8,17.6l6.8-17.6h3.4l-11.9,29.5h-3.2V1604.3z"/>
				<path fill="#1D1D1B" d="M3550.8,1569.3l5-2.1h2.9v29.5h-3.4v-26.1l-3.4,1.3L3550.8,1569.3z"/>
				<path fill="#1D1D1B" d="M3577.4,1566.9c1.3,0,2.4,1.1,2.4,2.4c0,1.3-1.1,2.4-2.4,2.4s-2.4-1.1-2.4-2.4
					C3575,1567.9,3576.1,1566.9,3577.4,1566.9z M3575.8,1574.8h3.4v21.9h-3.4V1574.8z"/>
				<path fill="#1D1D1B" d="M3602.1,1583v13.7h-3.2V1583c0-3.4-2.1-5.5-5.3-5.5c-3.4,0-5.8,2.4-5.8,6.1v13.4h-3.4v-21.9h3.2v3.2
					c1.1-2.1,3.4-3.7,6.6-3.7C3599.8,1574.3,3602.1,1578.2,3602.1,1583z"/>
				<path fill="#1D1D1B" d="M3632.4,1587.7c0-3.7-2.4-6.6-6.3-6.6c-2.4,0-3.7,1.1-5,1.8l-2.9-0.5l0.5-15.3h15v3.2h-11.9l-0.5,9.2
					c1.3-0.8,2.9-1.3,5-1.3c5.5,0,9.2,4,9.2,9.5c0,5.5-3.7,10-9.2,10c-5.8,0-8.4-3.4-9.2-6.3l2.9-1.1c0.8,2.4,2.6,4.2,6.3,4.2
					C3630.3,1594.3,3632.4,1591.1,3632.4,1587.7z"/>
				<path fill="#1D1D1B" d="M3651.7,1567.2h6.1c10,0,15.8,5.5,15.8,14.7c0,9.7-6.1,14.7-15.8,14.7h-6.1V1567.2z M3658.5,1593.8
					c7.1,0,11.6-4,11.6-11.9c0-7.4-4.5-11.6-11.6-11.6h-3.4v23.4H3658.5z"/>
				<path fill="#1D1D1B" d="M3688,1574.3c6.6,0,11.3,5,11.3,11.6s-5,11.6-11.6,11.6s-11.3-4.7-11.3-11.6
					C3676.7,1579.3,3681.7,1574.3,3688,1574.3z M3688,1594.3c4.7,0,8.2-3.7,8.2-8.4s-3.4-8.4-8.2-8.4s-7.9,3.7-7.9,8.4
					C3680.1,1590.9,3683.3,1594.3,3688,1594.3z"/>
				<path fill="#1D1D1B" d="M3720.1,1580.1c-0.8-1.1-3.2-2.9-6.6-2.9c-4.5,0-7.9,3.7-7.9,8.4c0,4.7,3.4,8.4,7.9,8.4
					c3.4,0,5.5-2.1,6.6-2.9l1.1,2.9c-0.8,1.1-3.7,3.2-7.6,3.2c-6.6,0-11.3-5-11.3-11.6s4.7-11.6,11.3-11.6c4,0,6.6,1.8,7.6,2.9
					L3720.1,1580.1z"/>
				<path fill="#1D1D1B" d="M3725.7,1570.3h3.4v4.5h4.7v2.9h-4.7v11.3c0,4.2,1.1,5,4,5c0.5,0,1.1,0,1.1,0v2.9c0,0-0.8,0-2.1,0
					c-4.5,0-6.3-2.9-6.3-7.9v-11.6h-2.6v-2.9h2.6V1570.3z"/>
				<path fill="#1D1D1B" d="M3747.8,1574.3c6.6,0,11.3,5,11.3,11.6s-5,11.6-11.6,11.6s-11.3-4.7-11.3-11.6
					C3736.2,1579.3,3741.2,1574.3,3747.8,1574.3z M3747.8,1594.3c4.7,0,8.2-3.7,8.2-8.4s-3.4-8.4-8.2-8.4s-7.9,3.7-7.9,8.4
					C3739.6,1590.9,3743,1594.3,3747.8,1594.3z"/>
				<path fill="#1D1D1B" d="M3773.3,1577.7c-5,0-6.6,4-6.6,8.7v10.5h-3.4v-21.9h3.2v3.7c0.8-2.1,3.2-4.2,6.6-4.2v3.2H3773.3z"/>
				<path fill="#1D1D1B" d="M3777.6,1591.1c1.1,1.8,2.4,3.4,5.5,3.4c2.1,0,4-1.3,4-3.4c0-5-11.1-3.4-11.1-10.8
					c0-3.7,3.2-6.1,7.1-6.1c4.2,0,6.3,2.6,6.8,4.2l-2.4,1.3c-0.5-1.1-1.8-2.9-4.5-2.9c-2.1,0-3.7,1.1-3.7,3.2
					c0,5,11.1,3.2,11.1,10.8c0,4-3.2,6.6-7.4,6.6c-4.5,0-6.6-2.6-7.6-4.7L3777.6,1591.1z"/>
				<path fill="#1D1D1B" d="M3805.5,1570.3h3.4v4.5h4.7v2.9h-4.7v11.3c0,4.2,1.1,5,4,5c0.5,0,1.1,0,1.1,0v2.9c0,0-0.8,0-2.1,0
					c-4.5,0-6.3-2.9-6.3-7.9v-11.6h-2.6v-2.9h2.6V1570.3z"/>
				<path fill="#1D1D1B" d="M3835.2,1583v13.7h-3.4V1583c0-3.4-2.1-5.5-5.3-5.5c-3.4,0-5.8,2.4-5.8,6.1v13.4h-3.2v-30.6h3.4v11.9
					c1.1-2.1,3.4-3.7,6.6-3.7C3832.6,1574.3,3835.2,1578.2,3835.2,1583z"/>
				<path fill="#1D1D1B" d="M3842.3,1566.9c1.3,0,2.4,1.1,2.4,2.4c0,1.3-1.1,2.4-2.4,2.4s-2.4-1.1-2.4-2.4
					C3840.2,1567.9,3841,1566.9,3842.3,1566.9z M3840.8,1574.8h3.4v21.9h-3.4V1574.8z"/>
				<path fill="#1D1D1B" d="M3867.4,1583v13.7h-3.4V1583c0-3.4-2.1-5.5-5.3-5.5c-3.4,0-5.8,2.4-5.8,6.1v13.4h-3.4v-21.9h3.2v3.2
					c1.1-2.1,3.4-3.7,6.6-3.7C3864.7,1574.3,3867.4,1578.2,3867.4,1583z"/>
				<path fill="#1D1D1B" d="M3872.9,1566.4h3.4v17.9l9-9.5h4.2l-9.5,9.7l10,12.1h-4.2l-9.5-11.6v11.6h-3.4V1566.4z"/>
				<path fill="#1D1D1B" d="M3471.8,1642v13.7h-3.4V1642c0-3.4-2.1-5.5-5.3-5.5c-3.4,0-5.8,2.4-5.8,6.1v13.4h-3.4v-30.6h3.4v11.9
					c1.1-2.1,3.4-3.7,6.6-3.7C3469.1,1633.3,3471.8,1637.2,3471.8,1642z"/>
				<path fill="#1D1D1B" d="M3486.5,1633.3c6.3,0,10.5,4.7,10.5,11.3c0,0,0,0.5,0,1.1h-17.6c0,5,3.4,7.9,7.9,7.9
					c3.7,0,5.8-1.8,6.8-3.4l2.1,1.6c-1.3,2.1-4.2,4.7-9,4.7c-6.6,0-11.3-4.7-11.3-11.3C3476,1638,3480.7,1633.3,3486.5,1633.3z
					 M3493.6,1643c-0.3-4.5-3.4-6.8-7.1-6.8s-6.8,2.6-7.1,6.8H3493.6z"/>
				<path fill="#1D1D1B" d="M3508.1,1641.7c2.9,0,5,1.1,5.8,2.1v-2.6c0-3.2-2.1-4.7-5.3-4.7c-2.6,0-5,1.1-6.3,1.8l-1.3-2.4
					c1.6-1.1,4.5-2.4,8.2-2.4c6.1,0,8.4,3.4,8.4,7.9v14.5h-2.9l-0.3-1.8c-1.1,1.3-2.9,2.4-6.1,2.4c-4.7,0-8.4-3.2-8.4-7.4
					C3499.7,1644.9,3503.1,1641.7,3508.1,1641.7z M3508.7,1653.5c3.2,0,5.5-1.8,5.5-4.5c0-2.6-2.1-4.5-5.5-4.5s-5.5,1.8-5.5,4.5
					C3503.1,1651.4,3505.2,1653.5,3508.7,1653.5z"/>
				<path fill="#1D1D1B" d="M3522.6,1625.4h3.4v30.6h-3.4V1625.4z"/>
				<path fill="#1D1D1B" d="M3532.1,1629.3h3.4v4.5h4.7v2.9h-4.7v11.3c0,4.2,1.1,5,4,5c0.5,0,1.1,0,1.1,0v2.9c0,0-0.8,0-2.1,0
					c-4.5,0-6.3-2.9-6.3-7.9v-11.6h-2.6v-2.9h2.6V1629.3z"/>
				<path fill="#1D1D1B" d="M3561.9,1642v13.7h-3.4V1642c0-3.4-2.1-5.5-5.3-5.5c-3.4,0-5.8,2.4-5.8,6.1v13.4h-3.4v-30.6h3.4v11.9
					c1.1-2.1,3.4-3.7,6.6-3.7C3559,1633.3,3561.9,1637.2,3561.9,1642z"/>
				<path fill="#1D1D1B" d="M3585,1641.7c2.9,0,5,1.1,5.8,2.1v-2.6c0-3.2-2.1-4.7-5.3-4.7c-2.6,0-5,1.1-6.3,1.8l-1.3-2.4
					c1.6-1.1,4.5-2.4,8.2-2.4c6.1,0,8.4,3.4,8.4,7.9v14.5h-3.4l-0.3-1.8c-1.1,1.3-2.9,2.4-6.1,2.4c-4.7,0-8.4-3.2-8.4-7.4
					C3576.6,1644.9,3580,1641.7,3585,1641.7z M3585.3,1653.5c3.2,0,5.5-1.8,5.5-4.5c0-2.6-2.1-4.5-5.5-4.5s-5.5,1.8-5.5,4.5
					C3580,1651.4,3582.1,1653.5,3585.3,1653.5z"/>
				<path fill="#1D1D1B" d="M3616.9,1642v13.7h-3.4V1642c0-3.4-2.1-5.5-5.3-5.5c-3.4,0-5.8,2.4-5.8,6.1v13.4h-3.4v-21.9h3.2v3.2
					c1.1-2.1,3.4-3.7,6.6-3.7C3614.3,1633.3,3616.9,1637.2,3616.9,1642z"/>
				<path fill="#1D1D1B" d="M3642.7,1655.7h-3.2v-3.4c-0.5,0.8-2.9,4-7.6,4c-6.3,0-10.8-4.7-10.8-11.6c0-6.8,4.2-11.6,10.5-11.6
					c4.5,0,7.1,2.9,7.6,4.2v-12.1h3.4V1655.7L3642.7,1655.7z M3631.9,1636.4c-4.2,0-7.4,3.4-7.4,8.4c0,5,3.2,8.4,7.4,8.4
					c4.5,0,7.4-4,7.4-8.4C3639.3,1639.6,3635.9,1636.4,3631.9,1636.4z"/>
				<path fill="#1D1D1B" d="M3659,1625.4h3.4v30.6h-3.4V1625.4z"/>
				<path fill="#1D1D1B" d="M3669.8,1625.9c1.3,0,2.4,1.1,2.4,2.4c0,1.3-1.1,2.4-2.4,2.4s-2.4-1.1-2.4-2.4
					C3667.5,1626.9,3668.5,1625.9,3669.8,1625.9z M3668,1633.8h3.4v21.9h-3.4V1633.8z"/>
				<path fill="#1D1D1B" d="M3677.7,1636.7h-2.4v-2.9h2.4v-1.1c0-5.5,3.4-7.4,6.8-7.4c0.8,0,1.3,0,1.3,0v2.9c0,0-0.5,0-1.1,0
					c-2.4,0-4,1.3-4,4.5v1.1h4.7v2.9h-4.7v19.2h-3.4v-19.2H3677.7z"/>
				<path fill="#1D1D1B" d="M3698.3,1633.3c6.3,0,10.5,4.7,10.5,11.3c0,0,0,0.5,0,1.1h-17.6c0,5,3.4,7.9,7.9,7.9
					c3.7,0,5.8-1.8,6.8-3.4l2.1,1.6c-1.3,2.1-4.2,4.7-9,4.7c-6.6,0-11.3-4.7-11.3-11.3C3687.7,1638,3692.5,1633.3,3698.3,1633.3z
					 M3705.4,1643c-0.3-4.5-3.4-6.8-7.1-6.8c-3.7,0-6.8,2.6-7.1,6.8H3705.4z"/>
				<path fill="#1D1D1B" d="M3713.6,1650.1c1.1,1.8,2.4,3.4,5.5,3.4c2.1,0,4-1.3,4-3.4c0-5-11.1-3.4-11.1-10.8
					c0-3.7,3.2-6.1,7.1-6.1c4.2,0,6.3,2.6,6.8,4.2l-2.4,1.3c-0.5-1.1-1.8-2.9-4.5-2.9c-2.1,0-3.7,1.1-3.7,3.2
					c0,5,11.1,3.2,11.1,10.8c0,4-3.2,6.6-7.4,6.6c-4.5,0-6.6-2.6-7.6-4.7L3713.6,1650.1z"/>
				<path fill="#1D1D1B" d="M3730.7,1629.3h3.4v4.5h4.7v2.9h-4.7v11.3c0,4.2,1.1,5,4,5c0.5,0,1.1,0,1.1,0v2.9c0,0-0.8,0-2.1,0
					c-4.5,0-6.3-2.9-6.3-7.9v-11.6h-2.6v-2.9h2.6V1629.3z"/>
				<path fill="#1D1D1B" d="M3747.3,1663.3l3.2-7.6l-9-21.6h3.7l6.8,17.6l6.8-17.6h3.4l-11.9,29.5h-3.2V1663.3z"/>
				<path fill="#1D1D1B" d="M3765.7,1625.4h3.4v30.6h-3.4V1625.4z"/>
				<path fill="#1D1D1B" d="M3783.9,1633.3c6.3,0,10.5,4.7,10.5,11.3c0,0,0,0.5,0,1.1h-17.6c0,5,3.4,7.9,7.9,7.9
					c3.7,0,5.8-1.8,6.8-3.4l2.1,1.6c-1.3,2.1-4.2,4.7-9,4.7c-6.6,0-11.3-4.7-11.3-11.3C3773.3,1638,3778.1,1633.3,3783.9,1633.3z
					 M3790.7,1643c-0.3-4.5-3.4-6.8-7.1-6.8s-6.8,2.6-7.1,6.8H3790.7z"/>
				<path fill="#1D1D1B" d="M3816.3,1641.7c2.9,0,5,1.1,5.8,2.1v-2.6c0-3.2-2.1-4.7-5.3-4.7c-2.6,0-5,1.1-6.3,1.8l-1.3-2.4
					c1.6-1.1,4.5-2.4,8.2-2.4c6.1,0,8.4,3.4,8.4,7.9v14.5h-2.9l-0.3-1.8c-1.1,1.3-2.9,2.4-6.1,2.4c-4.7,0-8.4-3.2-8.4-7.4
					C3807.8,1644.9,3811.3,1641.7,3816.3,1641.7z M3816.5,1653.5c3.2,0,5.5-1.8,5.5-4.5c0-2.6-2.1-4.5-5.5-4.5s-5.5,1.8-5.5,4.5
					C3811,1651.4,3813.4,1653.5,3816.5,1653.5z"/>
				<path fill="#1D1D1B" d="M3830.8,1633.8h3.2v3.4c0.5-0.8,2.9-4,7.6-4c6.3,0,10.8,4.7,10.8,11.6c0,6.8-4.2,11.6-10.5,11.6
					c-4.5,0-7.1-2.9-7.6-4.2v11.3h-3.4V1633.8z M3841.3,1653.3c4.2,0,7.4-3.4,7.4-8.4c0-5.3-3.2-8.4-7.4-8.4c-4.5,0-7.4,4-7.4,8.4
					C3833.9,1650.1,3837.3,1653.3,3841.3,1653.3z"/>
				<path fill="#1D1D1B" d="M3856.6,1633.8h3.2v3.4c0.5-0.8,2.9-4,7.6-4c6.3,0,10.8,4.7,10.8,11.6c0,6.8-4.2,11.6-10.5,11.6
					c-4.5,0-7.1-2.9-7.6-4.2v11.3h-3.4V1633.8L3856.6,1633.8z M3867.1,1653.3c4.2,0,7.4-3.4,7.4-8.4c0-5.3-3.2-8.4-7.4-8.4
					c-4.5,0-7.4,4-7.4,8.4C3859.7,1650.1,3863.1,1653.3,3867.1,1653.3z"/>
				<path fill="#1D1D1B" d="M3882.9,1650.1c1.1,1.8,2.4,3.4,5.5,3.4c2.1,0,4-1.3,4-3.4c0-5-11.1-3.4-11.1-10.8
					c0-3.7,3.2-6.1,7.1-6.1c4.2,0,6.3,2.6,6.8,4.2l-2.4,1.3c-0.5-1.1-1.8-2.9-4.5-2.9c-2.1,0-3.7,1.1-3.7,3.2
					c0,5,11.1,3.2,11.1,10.8c0,4-3.2,6.6-7.4,6.6c-4.5,0-6.6-2.6-7.6-4.7L3882.9,1650.1z"/>
				<path fill="#1D1D1B" d="M3461.2,1700.7c2.9,0,5,1.1,5.8,2.1v-2.6c0-3.2-2.1-4.7-5.3-4.7c-2.6,0-5,1.1-6.3,1.8l-1.3-2.4
					c1.6-1.1,4.5-2.4,8.2-2.4c6.1,0,8.4,3.4,8.4,7.9v14.5h-2.9l-0.3-1.8c-1.1,1.3-2.9,2.4-6.1,2.4c-4.7,0-8.4-3.2-8.4-7.4
					C3452.8,1703.8,3456.2,1700.7,3461.2,1700.7z M3461.8,1712.5c3.2,0,5.5-1.8,5.5-4.5c0-2.6-2.1-4.5-5.5-4.5s-5.5,1.8-5.5,4.5
					C3456.2,1710.4,3458.3,1712.5,3461.8,1712.5z"/>
				<path fill="#1D1D1B" d="M3485.5,1695.7c-5,0-6.6,4-6.6,8.7v10.5h-3.4v-22.1h3.2v3.7c0.8-2.1,3.2-4.2,6.6-4.2v3.4H3485.5z"/>
				<path fill="#1D1D1B" d="M3497.6,1692.3c6.3,0,10.5,4.7,10.5,11.3c0,0,0,0.5,0,1.1h-17.6c0,5,3.4,7.9,7.9,7.9
					c3.7,0,5.8-1.8,6.8-3.4l2.1,1.6c-1.3,2.1-4.2,4.7-9,4.7c-6.6,0-11.3-4.7-11.3-11.3C3487.1,1697,3491.8,1692.3,3497.6,1692.3z
					 M3504.7,1702c-0.3-4.5-3.4-6.8-7.1-6.8c-3.7,0-6.8,2.6-7.1,6.8H3504.7z"/>
				<path fill="#1D1D1B" d="M3522.9,1692.8h3.4v22.6c0,5.5-3.2,7.4-6.8,7.4c-0.5,0-1.1,0-1.1,0v-2.9c0,0,0.5,0,1.1,0
					c2.4,0,3.7-1.3,3.7-4.5v-22.6H3522.9z M3524.7,1684.9c1.3,0,2.4,1.1,2.4,2.4c0,1.3-1.1,2.4-2.4,2.4c-1.3,0-2.4-1.1-2.4-2.4
					C3522.3,1685.9,3523.4,1684.9,3524.7,1684.9z"/>
				<path fill="#1D1D1B" d="M3531.8,1706.5v-13.7h3.4v13.7c0,3.4,2.1,5.5,5.3,5.5c3.4,0,5.8-2.4,5.8-6.1v-13.2h3.4v21.9h-3.4v-3.2
					c-1.1,2.1-3.4,3.7-6.6,3.7C3534.5,1715.4,3531.8,1711.5,3531.8,1706.5z"/>
				<path fill="#1D1D1B" d="M3555.5,1709.1c1.1,1.8,2.4,3.4,5.5,3.4c2.1,0,4-1.3,4-3.4c0-5-11.1-3.4-11.1-10.8
					c0-3.7,3.2-6.1,7.1-6.1c4.2,0,6.3,2.6,6.8,4.2l-2.4,1.3c-0.5-1.1-1.8-2.9-4.5-2.9c-2.1,0-3.7,1.1-3.7,3.2
					c0,5,11.1,3.2,11.1,10.8c0,4-3.2,6.6-7.4,6.6c-4.5,0-6.6-2.6-7.6-4.7L3555.5,1709.1z"/>
				<path fill="#1D1D1B" d="M3572.7,1688.3h3.4v4.5h4.7v2.9h-4.7v11.3c0,4.2,1.1,5,4,5c0.5,0,1.1,0,1.1,0v2.9c0,0-0.8,0-2.1,0
					c-4.5,0-6.3-2.9-6.3-7.9v-11.6h-2.6v-2.6h2.6V1688.3z"/>
				<path fill="#1D1D1B" d="M3602.7,1700.7c2.9,0,5,1.1,5.8,2.1v-2.6c0-3.2-2.1-4.7-5.3-4.7c-2.6,0-5,1.1-6.3,1.8l-1.3-2.4
					c1.6-1.1,4.5-2.4,8.2-2.4c6.1,0,8.4,3.4,8.4,7.9v14.5h-2.9l-0.3-1.8c-1.1,1.3-2.9,2.4-6.1,2.4c-4.7,0-8.4-3.2-8.4-7.4
					C3594.2,1703.8,3597.7,1700.7,3602.7,1700.7z M3603.2,1712.5c3.2,0,5.5-1.8,5.5-4.5c0-2.6-2.1-4.5-5.5-4.5
					c-3.4,0-5.5,1.8-5.5,4.5C3597.7,1710.4,3599.8,1712.5,3603.2,1712.5z"/>
				<path fill="#1D1D1B" d="M3628.5,1695.7h-2.4v-2.9h2.4v-1.1c0-5.5,3.4-7.4,6.8-7.4c0.8,0,1.3,0,1.3,0v2.9c0,0-0.5,0-1.1,0
					c-2.4,0-4,1.3-4,4.5v1.1h4.7v2.9h-4.7v19h-3.4v-19H3628.5z"/>
				<path fill="#1D1D1B" d="M3647.2,1700.7c2.9,0,5,1.1,5.8,2.1v-2.6c0-3.2-2.1-4.7-5.3-4.7c-2.6,0-5,1.1-6.3,1.8l-1.3-2.4
					c1.6-1.1,4.5-2.4,8.2-2.4c6.1,0,8.4,3.4,8.4,7.9v14.5h-2.9l-0.3-1.8c-1.1,1.3-2.9,2.4-6.1,2.4c-4.7,0-8.4-3.2-8.4-7.4
					C3638.8,1703.8,3642.2,1700.7,3647.2,1700.7z M3647.7,1712.5c3.2,0,5.5-1.8,5.5-4.5c0-2.6-2.1-4.5-5.5-4.5
					c-3.4,0-5.5,1.8-5.5,4.5C3642.2,1710.4,3644.3,1712.5,3647.7,1712.5z"/>
				<path fill="#1D1D1B" d="M3681.7,1714.6h-3.2v-3.4c-0.5,0.8-2.9,4-7.6,4c-6.3,0-10.8-4.7-10.8-11.6c0-6.8,4.2-11.6,10.5-11.6
					c4.5,0,7.1,2.9,7.6,4.2v-12.1h3.4V1714.6L3681.7,1714.6z M3671.2,1695.4c-4.2,0-7.4,3.4-7.4,8.4c0,5,3.2,8.4,7.4,8.4
					c4.5,0,7.4-4,7.4-8.4C3678.5,1698.6,3675.1,1695.4,3671.2,1695.4z"/>
				<path fill="#1D1D1B" d="M3709.1,1683h3.2l-12.6,36.1h-3.2L3709.1,1683z"/>
				<path fill="#1D1D1B" d="M3727,1688.3h3.4v4.5h4.7v2.9h-4.7v11.3c0,4.2,1.1,5,4,5c0.5,0,1.1,0,1.1,0v2.9c0,0-0.8,0-2.1,0
					c-4.5,0-6.3-2.9-6.3-7.9v-11.6h-2.6v-2.6h2.6V1688.3z"/>
				<path fill="#1D1D1B" d="M3749.1,1695.7c-5,0-6.6,4-6.6,8.7v10.5h-3.4v-22.1h3.2v3.7c0.8-2.1,3.2-4.2,6.6-4.2v3.4H3749.1z"/>
				<path fill="#1D1D1B" d="M3761.2,1692.3c6.3,0,10.5,4.7,10.5,11.3c0,0,0,0.5,0,1.1h-17.6c0,5,3.4,7.9,7.9,7.9
					c3.7,0,5.8-1.8,6.8-3.4l2.1,1.6c-1.3,2.1-4.2,4.7-9,4.7c-6.6,0-11.3-4.7-11.3-11.3C3750.4,1697,3755.4,1692.3,3761.2,1692.3z
					 M3768.1,1702c-0.3-4.5-3.4-6.8-7.1-6.8s-6.8,2.6-7.1,6.8H3768.1z"/>
				<path fill="#1D1D1B" d="M3793.4,1700.9v13.7h-3.4v-13.7c0-3.4-2.1-5.5-5.3-5.5c-3.4,0-5.8,2.4-5.8,6.1v13.4h-3.4v-22.1h3.2v3.2
					c1.1-2.1,3.4-3.7,6.6-3.7C3790.7,1692.3,3793.4,1696.2,3793.4,1700.9z"/>
				<path fill="#1D1D1B" d="M3818.9,1714.6h-3.2v-3.4c-0.5,0.8-2.9,4-7.6,4c-6.3,0-10.8-4.7-10.8-11.6c0-6.8,4.2-11.6,10.5-11.6
					c4.5,0,7.1,2.9,7.6,4.2v-12.1h3.4V1714.6L3818.9,1714.6z M3808.1,1695.4c-4.2,0-7.4,3.4-7.4,8.4c0,5,3.2,8.4,7.4,8.4
					c4.5,0,7.4-4,7.4-8.4C3815.7,1698.6,3812.3,1695.4,3808.1,1695.4z"/>
			</g>
		</g>
		<g>
			<path fill="#72B1C8" d="M3454.9,1428.6l20.8-7.4h18.2v110.6H3472v-88.5l-11.6,4L3454.9,1428.6z"/>
			<path fill="#72B1C8" d="M3546.6,1419.9c5,0,8.7,3.7,8.7,8.4c0,5-3.7,8.7-8.7,8.7c-4.7,0-8.4-3.7-8.4-8.7
				C3537.9,1423.9,3541.8,1419.9,3546.6,1419.9z M3540.3,1449.7h12.4v82.2h-12.4V1449.7z"/>
			<path fill="#72B1C8" d="M3632.2,1480.5v51.4h-12.4V1480c0-13.2-8.2-21.1-19.5-21.1c-12.6,0-21.3,9.2-21.3,22.9v50h-12.4v-82.2
				h12.4v11.9c4-7.4,13.2-14,24.5-14C3622.4,1447.6,3632.2,1461.8,3632.2,1480.5z"/>
			<path fill="#72B1C8" d="M3694.3,1484.5l-18.4-3.2l2.4-60h62.4v19.5H3698l-1.1,22.6c5-2.6,10-3.7,15.8-3.7
				c18.7,0,34.5,14,34.5,34.5c0,23.2-15.5,39.8-37.7,39.8c-23.7,0-34.5-15.5-37.7-27.1l19.2-6.1c2.1,7.6,7.9,12.9,17.1,12.9
				c9.7,0,16.3-7.4,16.3-17.6c0-8.7-5.5-17.6-17.6-17.6C3700.6,1478.4,3696.7,1482.1,3694.3,1484.5z"/>
		</g>
		<g>
			<g>
				<polygon fill="#F6BF39" points="2747.5,1549 2746.5,1549.8 2871.8,1935.3 3075.1,1655.4 				"/>
				<path fill="#FFFFFF" d="M2871.3,1938.2l-0.8-2.4l-125.6-386.6l2.4-1.6l0.5,0.3l329.5,106.9L2871.3,1938.2z M2748,1550.6
					l124,381.9l200.7-276.3L2748,1550.6z"/>
			</g>
			<g>
				<polygon fill="#7CB4CC" points="3075.7,1655.4 3403.3,1549 3075.4,1310.9 3075.4,1655.1 				"/>
				<path fill="#FFFFFF" d="M3075.1,1657l-1.1-1.3v-347.4l332.1,241.2L3075.1,1657z M3076.7,1313.3v340.3l323.7-105.1L3076.7,1313.3
					z"/>
			</g>
			<g>
				<polygon fill="#F6BF39" points="3075.1,1655.4 3075.4,1655.1 3075.4,1310.9 2747.5,1549 				"/>
				<path fill="#FFFFFF" d="M3075.7,1657l-0.8-0.3l-330.3-107.2l2.1-1.6l330-239.7v347.4L3075.7,1657z M2750.4,1548.5l323.7,105.1
					v-340.3L2750.4,1548.5z"/>
			</g>
			<g>
				<polygon fill="#F6BF39" points="3279,1935.3 3404.1,1549.8 3403.3,1549 3075.7,1655.4 				"/>
				<path fill="#FFFFFF" d="M3279.3,1938.2l-1.6-2.1l-204.4-281.3l1.8-0.5l328.4-106.7l2.4,1.6L3279.3,1938.2z M3077.8,1656.2
					l200.7,276.3l124-381.9L3077.8,1656.2z"/>
			</g>
			<g>
				<polygon fill="#F6BF39" points="3075.4,1655.7 3075.1,1655.4 2871.8,1935.3 2872.1,1936.4 3278.5,1936.4 3279,1935.3 
					3075.7,1655.4 				"/>
				<path fill="#FFFFFF" d="M3279.5,1937.7H2871l-0.8-2.6l0.3-0.5l203.8-280.8l0.8,0.3l0.5-0.3l0.8,0.8l203.8,280.5L3279.5,1937.7z
					 M2873.7,1935.1h403.5l-201.7-277.6L2873.7,1935.1z"/>
			</g>
			<polygon fill="#F6BF39" points="3075.7,1655.4 3075.4,1655.1 3075.4,1655.7 			"/>
			<polygon fill="#F6BF39" points="3075.4,1655.1 3075.1,1655.4 3075.4,1655.7 			"/>
			<g>
				<path fill="#E89536" d="M3018.5,1774.4v108c0,5.5,4.5,10.3,10.3,10.3h53.5c5.5,0,10.3-4.5,10.3-10.3v-108
					c0-5.5-4.5-10.3-10.3-10.3h-53.5C3023.3,1764.2,3018.5,1768.9,3018.5,1774.4z M3025.6,1789.2h59.8v70.1h-59.5v-70.1H3025.6z
					 M3085.4,1774.4v7.6h-59.5v-7.6c0-1.6,1.3-3.2,3.2-3.2h53.5C3084.1,1771.3,3085.4,1772.8,3085.4,1774.4z M3025.6,1882.4v-16.1
					h59.8v16.1c0,1.6-1.3,3.2-3.2,3.2h-53.5C3027.2,1885.3,3025.6,1884,3025.6,1882.4z"/>
				<circle fill="#E89536" cx="3055.7" cy="1875.3" r="4.5"/>
			</g>
			<g>
				<path fill="#E89536" d="M3116.5,1800.8h21.3l2.4,6.1h3.7l-3.4-8.4c-0.3-0.5-0.8-1.1-1.6-1.1h-23.7c-0.8,0-1.3,0.5-1.6,1.1
					l-3.2,8.4h3.7L3116.5,1800.8z"/>
				<path fill="#E89536" d="M3138.1,1861.9h-21.3l-2.4-6.1h-3.7l3.2,8.4c0.3,0.5,0.8,1.1,1.6,1.1h23.7c0.8,0,1.3-0.5,1.6-1.1
					l3.4-8.4h-3.7L3138.1,1861.9z"/>
				<path fill="#E89536" d="M3144.1,1810h-34c-2.6,0-4.7,2.1-4.7,4.7v33.4c0,2.6,2.1,4.7,4.7,4.7h34c2.6,0,4.7-2.1,4.7-4.7V1815
					C3149.2,1812.4,3146.8,1810,3144.1,1810z M3145.7,1848.2c0,0.8-0.5,1.3-1.3,1.3h-34c-0.8,0-1.3-0.5-1.3-1.3V1815
					c0-0.8,0.5-1.3,1.3-1.3h34c0.8,0,1.3,0.5,1.3,1.3V1848.2z"/>
				<path fill="#E89536" d="M3113.9,1829.7h11.3v-11.3h-11.3V1829.7z M3117.3,1821.6h4.7v4.7h-4.7V1821.6z"/>
				<path fill="#E89536" d="M3129.4,1829.7h11.3v-11.3h-11.3V1829.7z M3132.6,1821.6h4.7v4.7h-4.7V1821.6z"/>
				<path fill="#E89536" d="M3113.9,1844.7h11.3v-11.3h-11.3V1844.7z M3117.3,1836.6h4.7v4.7h-4.7V1836.6z"/>
				<path fill="#E89536" d="M3129.4,1844.7h11.3v-11.3h-11.3V1844.7z M3132.6,1836.6h4.7v4.7h-4.7V1836.6z"/>
			</g>
			<g>
				<path fill="#E89536" d="M2914.8,1456v108c0,5.5,4.5,10.3,10.3,10.3h53.5c5.5,0,10.3-4.5,10.3-10.3v-108
					c0-5.5-4.5-10.3-10.3-10.3H2925C2919.5,1445.7,2914.8,1450.5,2914.8,1456z M2921.9,1470.8h59.5v70.1h-59.5V1470.8z M2981.7,1456
					v7.6h-59.8v-7.6c0-1.6,1.3-3.2,3.2-3.2h53.5C2980.3,1452.9,2981.7,1454.4,2981.7,1456z M2921.9,1563.7v-15.8h59.5v16.1
					c0,1.6-1.3,3.2-3.2,3.2H2925C2923.4,1566.9,2921.9,1565.6,2921.9,1563.7z"/>
				<circle fill="#E89536" cx="2951.9" cy="1556.9" r="4.5"/>
			</g>
			<g>
				<path fill="#E89536" d="M3012.7,1506.1h21.3l2.4,6.1h3.7l-3.4-8.4c-0.3-0.5-0.8-1.1-1.6-1.1h-23.7c-0.8,0-1.3,0.5-1.6,1.1
					l-3.2,8.4h3.7L3012.7,1506.1z"/>
				<path fill="#E89536" d="M3034.3,1567.2H3013l-2.4-6.1h-3.7l3.2,8.4c0.3,0.5,0.8,1.1,1.6,1.1h23.7c0.8,0,1.3-0.5,1.6-1.1l3.4-8.4
					h-3.7L3034.3,1567.2z"/>
				<path fill="#E89536" d="M3040.6,1515.3h-34c-2.6,0-4.7,2.1-4.7,4.7v33.2c0,2.6,2.1,4.7,4.7,4.7h34c2.6,0,4.7-2.1,4.7-4.7V1520
					C3045.4,1517.4,3043,1515.3,3040.6,1515.3z M3042,1553.5c0,0.8-0.5,1.3-1.3,1.3h-34c-0.8,0-1.3-0.5-1.3-1.3V1520
					c0-0.8,0.5-1.3,1.3-1.3h34c0.8,0,1.3,0.5,1.3,1.3V1553.5z"/>
				<path fill="#E89536" d="M3010.1,1535h11.3v-11.3h-11.3V1535z M3013.5,1526.9h4.7v4.7h-4.7V1526.9z"/>
				<path fill="#E89536" d="M3025.6,1535h11.3v-11.3h-11.3V1535z M3029.1,1526.9h4.7v4.7h-4.7V1526.9z"/>
				<path fill="#E89536" d="M3010.1,1550h11.3v-11.3h-11.3V1550z M3013.5,1541.9h4.7v4.7h-4.7V1541.9z"/>
				<path fill="#E89536" d="M3025.6,1550h11.3v-11.3h-11.3V1550z M3029.1,1541.9h4.7v4.7h-4.7V1541.9z"/>
			</g>
			<g>
				<path fill="#E89536" d="M2846.3,1647v108c0,5.5,4.5,10.3,10.3,10.3h53.5c5.5,0,10.3-4.5,10.3-10.3v-108
					c0-5.5-4.5-10.3-10.3-10.3h-53.7C2850.8,1636.7,2846.3,1641.4,2846.3,1647z M2853.4,1661.7h59.5v70.1h-59.5V1661.7z
					 M2912.9,1647v7.6h-59.5v-7.6c0-1.6,1.3-3.2,3.2-3.2h53.5C2911.6,1643.8,2912.9,1645.4,2912.9,1647z M2853.4,1754.9v-16.1h59.5
					v16.1c0,1.6-1.3,3.2-3.2,3.2h-53.5C2854.7,1757.8,2853.4,1756.5,2853.4,1754.9z"/>
				<circle fill="#E89536" cx="2883.2" cy="1747.8" r="4.5"/>
			</g>
			<g>
				<path fill="#E89536" d="M2944,1697h21.3l2.4,6.1h3.7l-3.4-8.4c-0.3-0.5-0.8-1.1-1.6-1.1h-23.7c-0.8,0-1.3,0.5-1.6,1.1l-3.2,8.4
					h3.7L2944,1697z"/>
				<path fill="#E89536" d="M2965.6,1758.1h-21.3l-2.4-6.1h-3.7l3.2,8.4c0.3,0.5,0.8,1.1,1.6,1.1h23.7c0.8,0,1.3-0.5,1.6-1.1
					l3.4-8.4h-3.7L2965.6,1758.1z"/>
				<path fill="#E89536" d="M2971.9,1706.2h-34c-2.6,0-4.7,2.1-4.7,4.7v33.2c0,2.6,2.1,4.7,4.7,4.7h34c2.6,0,4.7-2.1,4.7-4.7V1711
					C2976.6,1708.3,2974.5,1706.2,2971.9,1706.2z M2973.2,1744.4c0,0.8-0.5,1.3-1.3,1.3h-34c-0.8,0-1.3-0.5-1.3-1.3v-33.2
					c0-0.8,0.5-1.3,1.3-1.3h34c0.8,0,1.3,0.5,1.3,1.3V1744.4z"/>
				<path fill="#E89536" d="M2941.4,1726h11.3v-11.3h-11.3V1726z M2944.8,1717.8h4.7v4.7h-4.7V1717.8z"/>
				<path fill="#E89536" d="M2956.9,1726h11.3v-11.3h-11.3V1726z M2960.3,1717.8h4.7v4.7h-4.7V1717.8z"/>
				<path fill="#E89536" d="M2941.4,1741h11.3v-11.3h-11.3V1741z M2944.8,1732.8h4.7v4.7h-4.7V1732.8z"/>
				<path fill="#E89536" d="M2956.9,1741h11.3v-11.3h-11.3V1741z M2960.3,1732.8h4.7v4.7h-4.7V1732.8z"/>
			</g>
			<g>
				<path fill="#E89536" d="M3180.5,1647v108c0,5.5,4.5,10.3,10.3,10.3h53.5c5.5,0,10.3-4.5,10.3-10.3v-108
					c0-5.5-4.5-10.3-10.3-10.3h-53.5C3185.2,1636.7,3180.5,1641.4,3180.5,1647z M3187.6,1661.7h59.5v70.1h-59.5V1661.7z
					 M3247.4,1647v7.6h-59.5v-7.6c0-1.6,1.3-3.2,3.2-3.2h53.5C3246.1,1643.8,3247.4,1645.4,3247.4,1647z M3187.6,1754.9v-16.1h59.5
					v16.1c0,1.6-1.3,3.2-3.2,3.2h-53.2C3189.2,1757.8,3187.6,1756.5,3187.6,1754.9z"/>
				<circle fill="#E89536" cx="3217.6" cy="1747.8" r="4.5"/>
			</g>
			<g>
				<path fill="#E89536" d="M3278.5,1697h21.3l2.4,6.1h3.7l-3.4-8.4c-0.3-0.5-0.8-1.1-1.6-1.1h-23.7c-0.8,0-1.3,0.5-1.6,1.1
					l-3.2,8.4h3.7L3278.5,1697z"/>
				<path fill="#E89536" d="M3300.1,1758.1h-21.3l-2.4-6.1h-3.7l3.2,8.4c0.3,0.5,0.8,1.1,1.6,1.1h23.7c0.8,0,1.3-0.5,1.6-1.1
					l3.4-8.4h-3.7L3300.1,1758.1z"/>
				<path fill="#E89536" d="M3306.4,1706.2h-34c-2.6,0-4.7,2.1-4.7,4.7v33.2c0,2.6,2.1,4.7,4.7,4.7h34c2.6,0,4.7-2.1,4.7-4.7V1711
					C3311.1,1708.3,3309,1706.2,3306.4,1706.2z M3307.7,1744.4c0,0.8-0.5,1.3-1.3,1.3h-34c-0.8,0-1.3-0.5-1.3-1.3v-33.2
					c0-0.8,0.5-1.3,1.3-1.3h34c0.8,0,1.3,0.5,1.3,1.3V1744.4z"/>
				<path fill="#E89536" d="M3275.8,1726h11.3v-11.3h-11.3V1726z M3279.3,1717.8h4.7v4.7h-4.7V1717.8z"/>
				<path fill="#E89536" d="M3291.4,1726h11.3v-11.3h-11.3V1726z M3294.8,1717.8h4.7v4.7h-4.7V1717.8z"/>
				<path fill="#E89536" d="M3275.8,1741h11.3v-11.3h-11.3V1741z M3279.3,1732.8h4.7v4.7h-4.7V1732.8z"/>
				<path fill="#E89536" d="M3291.4,1741h11.3v-11.3h-11.3V1741z M3294.8,1732.8h4.7v4.7h-4.7V1732.8z"/>
			</g>
			<g>
				<path fill="#5093AA" d="M3153.1,1443.4c0-2.9,2.4-5,5-5h17.4c2.9,0,5,2.4,5,5v8.7h7.9v-8.7c0-7.1-5.8-12.9-12.9-12.9h-17.4
					c-7.1,0-12.9,5.8-12.9,12.9v8.7h7.9V1443.4z"/>
				<path fill="#5093AA" d="M3170.8,1459.7v-12.6h-7.9v12.6c-30,1.8-53.7,26.9-53.7,57.4c0,31.9,25.8,57.7,57.7,57.7
					c31.9,0,57.7-25.8,57.7-57.7C3224.5,1486.6,3200.8,1461.8,3170.8,1459.7z M3166.8,1566.9c-27.4,0-49.8-22.4-49.8-49.8
					c0-27.4,22.4-49.8,49.8-49.8c27.4,0,49.8,22.4,49.8,49.8C3216.6,1544.5,3194.2,1566.9,3166.8,1566.9z"/>
				<path fill="#5093AA" d="M3166.8,1475.2v7.9c18.7,0,34,15.3,34,34c0,18.7-15.3,34-34,34c-5.8,0-11.1-1.3-15.8-4l-6.1,5.5
					c6.3,4,14,6.3,21.9,6.3c23.2,0,41.9-18.7,41.9-41.9C3208.7,1493.9,3190,1475.2,3166.8,1475.2z"/>
				<path fill="#5093AA" d="M3217.1,1474.5l6.1-5c-4.7-5.5-10-10.3-16.1-14.2l-4.2,6.6C3208.4,1465.2,3213.2,1469.4,3217.1,1474.5z"
					/>
				<path fill="#5093AA" d="M3166.8,1529.2c6.6,0,12.1-5.5,12.1-12.1s-5.5-12.1-12.1-12.1c-6.6,0-12.1,5.5-12.1,12.1
					c0,1.8,0.3,3.4,1.1,5l-19.2,17.4c-1.6,1.6-1.6,4-0.3,5.5c0.8,0.8,1.8,1.3,2.9,1.3s1.8-0.3,2.6-1.1l19.2-17.6
					C3162.8,1528.7,3164.7,1529.2,3166.8,1529.2z M3166.8,1512.9c2.4,0,4.2,1.8,4.2,4.2c0,2.4-1.8,4.2-4.2,4.2
					c-2.4,0-4.2-1.8-4.2-4.2C3162.6,1514.7,3164.4,1512.9,3166.8,1512.9z"/>
			</g>
		</g>
	</g>
	<g id="kPyYDa.tif" display="inline">
		
			<image overflow="visible" width="1039" height="1151" id="Layer_1_1_" xlink:href="81CC40B8D1977E21.png"  transform="matrix(2.6612 0 0 2.6612 1366 285.9442)">
		</image>
	</g>
</g>
<g id="Slider">
	<rect x="10" y="10" fill="#3A4F5A" width="1132" height="180"/>
	<g>
		<path fill="#FFFFFF" d="M93.1,124.2c0,3.5-1.3,6.3-3.8,8.4c-2.6,2-6.1,3.1-10.6,3.1c-4.2,0-7.9-0.8-11.1-2.4v-7.7
			c2.6,1.2,4.9,2,6.7,2.5c1.8,0.5,3.5,0.7,5,0.7c1.8,0,3.2-0.3,4.2-1c1-0.7,1.5-1.7,1.5-3.1c0-0.8-0.2-1.5-0.6-2.1
			c-0.4-0.6-1.1-1.2-1.9-1.7c-0.8-0.6-2.5-1.4-5.1-2.7c-2.4-1.1-4.2-2.2-5.4-3.2c-1.2-1-2.2-2.2-2.9-3.6c-0.7-1.4-1.1-3-1.1-4.8
			c0-3.5,1.2-6.2,3.5-8.2c2.4-2,5.6-3,9.8-3c2,0,4,0.2,5.8,0.7c1.9,0.5,3.8,1.2,5.8,2l-2.7,6.5c-2.1-0.9-3.8-1.5-5.2-1.8
			c-1.4-0.3-2.7-0.5-4-0.5c-1.6,0-2.8,0.4-3.6,1.1c-0.8,0.7-1.3,1.7-1.3,2.9c0,0.7,0.2,1.4,0.5,1.9c0.3,0.5,0.9,1.1,1.6,1.6
			c0.7,0.5,2.5,1.4,5.3,2.8c3.7,1.8,6.2,3.5,7.5,5.3C92.4,119.5,93.1,121.7,93.1,124.2z"/>
		<path fill="#FFFFFF" d="M112.2,112l8.2-16.2h9l-13,24v15.3H108v-15L95,95.9h9L112.2,112z"/>
		<path fill="#FFFFFF" d="M150.6,135.1l-9.5-30.8h-0.2c0.3,6.3,0.5,10.4,0.5,12.5v18.3H134V95.9h11.3l9.3,30h0.2l9.9-30H176v39.3
			h-7.8v-18.6c0-0.9,0-1.9,0-3c0-1.1,0.1-4.2,0.4-9.1h-0.2l-10.1,30.7H150.6z"/>
		<path fill="#FFFFFF" d="M212.7,108.1c0,4.2-1.3,7.5-4,9.7c-2.6,2.2-6.4,3.4-11.3,3.4h-3.6v14h-8.3V95.9h12.5c4.8,0,8.4,1,10.9,3.1
			C211.5,101,212.7,104.1,212.7,108.1z M193.9,114.3h2.7c2.6,0,4.5-0.5,5.7-1.5c1.3-1,1.9-2.5,1.9-4.4c0-2-0.5-3.4-1.6-4.3
			c-1.1-0.9-2.7-1.4-5-1.4h-3.8V114.3z"/>
		<path fill="#FFFFFF" d="M235,135.1h-8.3v-32.3H216v-6.9h29.6v6.9H235V135.1z"/>
		<path fill="#FFFFFF" d="M287.1,115.4c0,6.5-1.6,11.5-4.8,15s-7.8,5.2-13.9,5.2s-10.6-1.7-13.9-5.2s-4.8-8.5-4.8-15
			c0-6.5,1.6-11.5,4.8-15c3.2-3.4,7.9-5.2,13.9-5.2c6,0,10.6,1.7,13.8,5.2C285.5,103.9,287.1,108.9,287.1,115.4z M258.4,115.4
			c0,4.4,0.8,7.7,2.5,9.9c1.7,2.2,4.2,3.3,7.5,3.3c6.6,0,10-4.4,10-13.2c0-8.8-3.3-13.3-9.9-13.3c-3.3,0-5.8,1.1-7.5,3.3
			C259.2,107.8,258.4,111.1,258.4,115.4z"/>
		<path fill="#FFFFFF" d="M311.5,135.1l-9.5-30.8h-0.2c0.3,6.3,0.5,10.4,0.5,12.5v18.3h-7.4V95.9h11.3l9.3,30h0.2l9.9-30h11.3v39.3
			h-7.8v-18.6c0-0.9,0-1.9,0-3c0-1.1,0.1-4.2,0.4-9.1h-0.2l-10.1,30.7H311.5z"/>
		<path fill="#FFFFFF" d="M369.7,124.2c0,3.5-1.3,6.3-3.8,8.4c-2.6,2-6.1,3.1-10.6,3.1c-4.2,0-7.9-0.8-11.1-2.4v-7.7
			c2.6,1.2,4.9,2,6.7,2.5c1.8,0.5,3.5,0.7,5,0.7c1.8,0,3.2-0.3,4.2-1c1-0.7,1.5-1.7,1.5-3.1c0-0.8-0.2-1.5-0.6-2.1
			c-0.4-0.6-1.1-1.2-1.9-1.7c-0.8-0.6-2.5-1.4-5.1-2.7c-2.4-1.1-4.2-2.2-5.4-3.2c-1.2-1-2.2-2.2-2.9-3.6c-0.7-1.4-1.1-3-1.1-4.8
			c0-3.5,1.2-6.2,3.5-8.2c2.4-2,5.6-3,9.8-3c2,0,4,0.2,5.8,0.7c1.9,0.5,3.8,1.2,5.8,2l-2.7,6.5c-2.1-0.9-3.8-1.5-5.2-1.8
			c-1.4-0.3-2.7-0.5-4-0.5c-1.6,0-2.8,0.4-3.6,1.1c-0.8,0.7-1.3,1.7-1.3,2.9c0,0.7,0.2,1.4,0.5,1.9c0.3,0.5,0.9,1.1,1.6,1.6
			c0.7,0.5,2.5,1.4,5.3,2.8c3.7,1.8,6.2,3.5,7.5,5.3C369,119.5,369.7,121.7,369.7,124.2z"/>
		<path fill="#FFFFFF" d="M426.2,115.4c0,6.5-1.6,11.5-4.8,15s-7.8,5.2-13.9,5.2s-10.6-1.7-13.9-5.2s-4.8-8.5-4.8-15
			c0-6.5,1.6-11.5,4.8-15c3.2-3.4,7.9-5.2,13.9-5.2c6,0,10.6,1.7,13.8,5.2C424.6,103.9,426.2,108.9,426.2,115.4z M397.5,115.4
			c0,4.4,0.8,7.7,2.5,9.9c1.7,2.2,4.2,3.3,7.5,3.3c6.6,0,10-4.4,10-13.2c0-8.8-3.3-13.3-9.9-13.3c-3.3,0-5.8,1.1-7.5,3.3
			C398.4,107.8,397.5,111.1,397.5,115.4z"/>
		<path fill="#FFFFFF" d="M442.4,120.1v15.1H434V95.9h11.4c5.3,0,9.3,1,11.8,2.9c2.6,1.9,3.8,4.9,3.8,8.8c0,2.3-0.6,4.4-1.9,6.2
			c-1.3,1.8-3.1,3.2-5.4,4.2c5.9,8.8,9.8,14.5,11.5,17.1h-9.2l-9.4-15.1H442.4z M442.4,113.3h2.7c2.6,0,4.6-0.4,5.8-1.3
			c1.3-0.9,1.9-2.3,1.9-4.1c0-1.9-0.6-3.2-1.9-4c-1.3-0.8-3.3-1.2-5.9-1.2h-2.5V113.3z"/>
		<path fill="#FFFFFF" d="M508.1,135.1l-2.8-9.3H491l-2.8,9.3h-9L493,95.7h10.2l13.9,39.4H508.1z M503.3,118.8
			c-2.6-8.5-4.1-13.3-4.4-14.4c-0.3-1.1-0.6-2-0.7-2.6c-0.6,2.3-2.3,8-5.1,17H503.3z"/>
		<path fill="#FFFFFF" d="M560,135.1h-9.5l-5.3-20.6c-0.2-0.7-0.5-2.3-1-4.6c-0.5-2.3-0.7-3.8-0.8-4.6c-0.1,1-0.4,2.5-0.8,4.7
			c-0.4,2.1-0.8,3.7-1,4.6l-5.3,20.6h-9.5l-10-39.3h8.2l5,21.4c0.9,4,1.5,7.4,1.9,10.3c0.1-1,0.4-2.6,0.7-4.7c0.4-2.1,0.7-3.8,1.1-5
			l5.7-22h7.9l5.7,22c0.3,1,0.6,2.5,0.9,4.5c0.4,2,0.7,3.8,0.9,5.2c0.2-1.4,0.5-3.1,0.9-5.2c0.4-2.1,0.8-3.8,1.1-5.1l5-21.4h8.2
			L560,135.1z"/>
		<path fill="#FFFFFF" d="M598.7,135.1l-2.8-9.3h-14.3l-2.8,9.3h-9l13.9-39.4h10.2l13.9,39.4H598.7z M593.9,118.8
			c-2.6-8.5-4.1-13.3-4.4-14.4c-0.3-1.1-0.6-2-0.7-2.6c-0.6,2.3-2.3,8-5.1,17H593.9z"/>
		<path fill="#FFFFFF" d="M620.6,120.1v15.1h-8.3V95.9h11.4c5.3,0,9.3,1,11.8,2.9c2.6,1.9,3.8,4.9,3.8,8.8c0,2.3-0.6,4.4-1.9,6.2
			c-1.3,1.8-3.1,3.2-5.4,4.2c5.9,8.8,9.8,14.5,11.5,17.1h-9.2l-9.4-15.1H620.6z M620.6,113.3h2.7c2.6,0,4.6-0.4,5.8-1.3
			c1.3-0.9,1.9-2.3,1.9-4.1c0-1.9-0.6-3.2-1.9-4c-1.3-0.8-3.3-1.2-5.9-1.2h-2.5V113.3z"/>
		<path fill="#FFFFFF" d="M671,135.1h-22.6V95.9H671v6.8h-14.3v8.6H670v6.8h-13.3v10.1H671V135.1z"/>
		<path fill="#FFFFFF" d="M713.7,135.1h-10.6l-17.1-29.7h-0.2c0.3,5.2,0.5,9,0.5,11.2v18.5h-7.4V95.9h10.5l17.1,29.4h0.2
			c-0.3-5.1-0.4-8.7-0.4-10.8V95.9h7.5V135.1z"/>
		<path fill="#FFFFFF" d="M745.9,135.1h-22.6V95.9h22.6v6.8h-14.3v8.6h13.3v6.8h-13.3v10.1h14.3V135.1z"/>
		<path fill="#FFFFFF" d="M777,124.2c0,3.5-1.3,6.3-3.8,8.4c-2.6,2-6.1,3.1-10.6,3.1c-4.2,0-7.9-0.8-11.1-2.4v-7.7
			c2.6,1.2,4.9,2,6.7,2.5c1.8,0.5,3.5,0.7,5,0.7c1.8,0,3.2-0.3,4.2-1c1-0.7,1.5-1.7,1.5-3.1c0-0.8-0.2-1.5-0.6-2.1
			c-0.4-0.6-1.1-1.2-1.9-1.7c-0.8-0.6-2.5-1.4-5.1-2.7c-2.4-1.1-4.2-2.2-5.4-3.2c-1.2-1-2.2-2.2-2.9-3.6c-0.7-1.4-1.1-3-1.1-4.8
			c0-3.5,1.2-6.2,3.5-8.2c2.4-2,5.6-3,9.8-3c2,0,4,0.2,5.8,0.7c1.9,0.5,3.8,1.2,5.8,2l-2.7,6.5c-2.1-0.9-3.8-1.5-5.2-1.8
			c-1.4-0.3-2.7-0.5-4-0.5c-1.6,0-2.8,0.4-3.6,1.1c-0.8,0.7-1.3,1.7-1.3,2.9c0,0.7,0.2,1.4,0.5,1.9c0.3,0.5,0.9,1.1,1.6,1.6
			c0.7,0.5,2.5,1.4,5.3,2.8c3.7,1.8,6.2,3.5,7.5,5.3C776.3,119.5,777,121.7,777,124.2z"/>
		<path fill="#FFFFFF" d="M807,124.2c0,3.5-1.3,6.3-3.8,8.4c-2.6,2-6.1,3.1-10.6,3.1c-4.2,0-7.9-0.8-11.1-2.4v-7.7
			c2.6,1.2,4.9,2,6.7,2.5c1.8,0.5,3.5,0.7,5,0.7c1.8,0,3.2-0.3,4.2-1c1-0.7,1.5-1.7,1.5-3.1c0-0.8-0.2-1.5-0.6-2.1
			c-0.4-0.6-1.1-1.2-1.9-1.7c-0.8-0.6-2.5-1.4-5.1-2.7c-2.4-1.1-4.2-2.2-5.4-3.2c-1.2-1-2.2-2.2-2.9-3.6c-0.7-1.4-1.1-3-1.1-4.8
			c0-3.5,1.2-6.2,3.5-8.2c2.4-2,5.6-3,9.8-3c2,0,4,0.2,5.8,0.7c1.9,0.5,3.8,1.2,5.8,2l-2.7,6.5c-2.1-0.9-3.8-1.5-5.2-1.8
			c-1.4-0.3-2.7-0.5-4-0.5c-1.6,0-2.8,0.4-3.6,1.1c-0.8,0.7-1.3,1.7-1.3,2.9c0,0.7,0.2,1.4,0.5,1.9c0.3,0.5,0.9,1.1,1.6,1.6
			c0.7,0.5,2.5,1.4,5.3,2.8c3.7,1.8,6.2,3.5,7.5,5.3C806.4,119.5,807,121.7,807,124.2z"/>
	</g>
	<g>
		<path d="M95.2,267h-4.4l-17.9-27.6h-0.2c0.2,3.2,0.4,6.2,0.4,8.9V267h-3.5v-32.8h4.3l17.9,27.4h0.2c0-0.4-0.1-1.7-0.2-3.9
			c-0.1-2.2-0.1-3.8-0.1-4.7v-18.8h3.6V267z"/>
		<path d="M113.8,267.4c-3.6,0-6.5-1.1-8.6-3.3c-2.1-2.2-3.2-5.3-3.2-9.2c0-4,1-7.1,2.9-9.5s4.6-3.5,7.9-3.5c3.1,0,5.5,1,7.3,3
			c1.8,2,2.7,4.7,2.7,8v2.4h-17c0.1,2.9,0.8,5.1,2.2,6.6c1.4,1.5,3.3,2.2,5.9,2.2c2.7,0,5.3-0.6,7.9-1.7v3.3c-1.3,0.6-2.6,1-3.7,1.2
			C116.9,267.3,115.5,267.4,113.8,267.4z M112.8,245c-2,0-3.6,0.6-4.7,1.9c-1.2,1.3-1.9,3.1-2.1,5.3h12.9c0-2.4-0.5-4.2-1.6-5.4
			C116.2,245.6,114.7,245,112.8,245z"/>
		<path d="M139.4,267.4c-3.6,0-6.5-1.1-8.6-3.3c-2.1-2.2-3.2-5.3-3.2-9.2c0-4,1-7.1,2.9-9.5s4.6-3.5,7.9-3.5c3.1,0,5.5,1,7.3,3
			c1.8,2,2.7,4.7,2.7,8v2.4h-17c0.1,2.9,0.8,5.1,2.2,6.6c1.4,1.5,3.3,2.2,5.9,2.2c2.7,0,5.3-0.6,7.9-1.7v3.3c-1.3,0.6-2.6,1-3.7,1.2
			C142.5,267.3,141,267.4,139.4,267.4z M138.4,245c-2,0-3.6,0.6-4.7,1.9c-1.2,1.3-1.9,3.1-2.1,5.3h12.9c0-2.4-0.5-4.2-1.6-5.4
			C141.8,245.6,140.3,245,138.4,245z"/>
		<path d="M171.3,263.7h-0.2c-1.7,2.5-4.3,3.8-7.7,3.8c-3.2,0-5.7-1.1-7.5-3.3c-1.8-2.2-2.7-5.3-2.7-9.4c0-4.1,0.9-7.2,2.7-9.5
			s4.3-3.4,7.5-3.4c3.3,0,5.9,1.2,7.7,3.6h0.3l-0.2-1.8l-0.1-1.7v-10h3.7V267h-3L171.3,263.7z M163.9,264.3c2.5,0,4.4-0.7,5.5-2.1
			c1.1-1.4,1.7-3.6,1.7-6.7v-0.8c0-3.5-0.6-6-1.7-7.5c-1.2-1.5-3-2.2-5.6-2.2c-2.2,0-3.9,0.9-5,2.5c-1.2,1.7-1.7,4.1-1.7,7.2
			c0,3.1,0.6,5.5,1.7,7.1C159.9,263.5,161.6,264.3,163.9,264.3z"/>
		<path d="M205.3,245.2h-6.3V267h-3.7v-21.7h-4.4v-1.7l4.4-1.3v-1.4c0-6,2.6-9.1,7.9-9.1c1.3,0,2.8,0.3,4.6,0.8l-1,3
			c-1.4-0.5-2.7-0.7-3.7-0.7c-1.4,0-2.4,0.5-3.1,1.4c-0.7,0.9-1,2.4-1,4.5v1.6h6.3V245.2z"/>
		<path d="M230.8,254.6c0,4-1,7.1-3,9.4c-2,2.3-4.8,3.4-8.4,3.4c-2.2,0-4.2-0.5-5.9-1.5s-3-2.5-4-4.4c-0.9-1.9-1.4-4.2-1.4-6.8
			c0-4,1-7.1,3-9.4c2-2.2,4.8-3.4,8.4-3.4c3.4,0,6.2,1.1,8.2,3.4C229.8,247.6,230.8,250.7,230.8,254.6z M212.1,254.6
			c0,3.1,0.6,5.5,1.9,7.2c1.3,1.6,3.1,2.5,5.5,2.5c2.4,0,4.3-0.8,5.6-2.5c1.3-1.6,1.9-4,1.9-7.2c0-3.1-0.6-5.5-1.9-7.1
			c-1.3-1.6-3.1-2.4-5.6-2.4c-2.4,0-4.3,0.8-5.5,2.4C212.7,249.1,212.1,251.4,212.1,254.6z"/>
		<path d="M248.4,241.9c1.1,0,2.1,0.1,2.9,0.3l-0.5,3.5c-1-0.2-1.9-0.3-2.7-0.3c-2,0-3.7,0.8-5.1,2.4s-2.1,3.6-2.1,6V267h-3.7v-24.6
			h3.1l0.4,4.6h0.2c0.9-1.6,2-2.8,3.3-3.7C245.4,242.3,246.8,241.9,248.4,241.9z"/>
		<path d="M271.1,254.4c0.6-0.9,1.6-2.1,2.9-3.6l8-8.4h4.4l-10,10.5l10.7,14.1h-4.5l-8.7-11.6l-2.8,2.4v9.2h-3.7V232h3.7v18.5
			c0,0.8-0.1,2.1-0.2,3.8H271.1z"/>
		<path d="M308.2,267V251c0-2-0.5-3.5-1.4-4.5c-0.9-1-2.3-1.5-4.3-1.5c-2.6,0-4.5,0.7-5.7,2.1c-1.2,1.4-1.8,3.7-1.8,6.9V267h-3.7
			v-24.6h3l0.6,3.4h0.2c0.8-1.2,1.8-2.2,3.2-2.8c1.4-0.7,2.9-1,4.6-1c3,0,5.2,0.7,6.7,2.1c1.5,1.4,2.2,3.7,2.2,6.9V267H308.2z"/>
		<path d="M340.6,254.6c0,4-1,7.1-3,9.4c-2,2.3-4.8,3.4-8.4,3.4c-2.2,0-4.2-0.5-5.9-1.5s-3-2.5-4-4.4c-0.9-1.9-1.4-4.2-1.4-6.8
			c0-4,1-7.1,3-9.4c2-2.2,4.8-3.4,8.4-3.4c3.4,0,6.2,1.1,8.2,3.4C339.6,247.6,340.6,250.7,340.6,254.6z M321.8,254.6
			c0,3.1,0.6,5.5,1.9,7.2c1.3,1.6,3.1,2.5,5.5,2.5c2.4,0,4.3-0.8,5.6-2.5c1.3-1.6,1.9-4,1.9-7.2c0-3.1-0.6-5.5-1.9-7.1
			c-1.3-1.6-3.1-2.4-5.6-2.4c-2.4,0-4.3,0.8-5.5,2.4C322.4,249.1,321.8,251.4,321.8,254.6z"/>
		<path d="M367,267l-4.5-14.4c-0.3-0.9-0.8-2.9-1.6-6h-0.2c-0.6,2.6-1.1,4.6-1.6,6.1l-4.6,14.4h-4.3l-6.7-24.6h3.9
			c1.6,6.2,2.8,10.9,3.6,14.1s1.3,5.4,1.4,6.5h0.2c0.2-0.9,0.4-2,0.8-3.3c0.4-1.4,0.7-2.4,1-3.2l4.5-14.1h4l4.4,14.1
			c0.8,2.6,1.4,4.7,1.7,6.5h0.2c0.1-0.5,0.2-1.4,0.5-2.5c0.3-1.1,1.8-7.2,4.7-18.1h3.9l-6.8,24.6H367z"/>
		<path d="M386.2,267h-3.7V232h3.7V267z"/>
		<path d="M404.2,267.4c-3.6,0-6.5-1.1-8.6-3.3c-2.1-2.2-3.2-5.3-3.2-9.2c0-4,1-7.1,2.9-9.5s4.6-3.5,7.9-3.5c3.1,0,5.5,1,7.3,3
			c1.8,2,2.7,4.7,2.7,8v2.4h-17c0.1,2.9,0.8,5.1,2.2,6.6c1.4,1.5,3.3,2.2,5.9,2.2c2.7,0,5.3-0.6,7.9-1.7v3.3c-1.3,0.6-2.6,1-3.7,1.2
			C407.3,267.3,405.9,267.4,404.2,267.4z M403.2,245c-2,0-3.6,0.6-4.7,1.9c-1.2,1.3-1.9,3.1-2.1,5.3h12.9c0-2.4-0.5-4.2-1.6-5.4
			C406.7,245.6,405.2,245,403.2,245z"/>
		<path d="M436.2,263.7H436c-1.7,2.5-4.3,3.8-7.7,3.8c-3.2,0-5.7-1.1-7.5-3.3c-1.8-2.2-2.7-5.3-2.7-9.4c0-4.1,0.9-7.2,2.7-9.5
			s4.3-3.4,7.5-3.4c3.3,0,5.9,1.2,7.7,3.6h0.3l-0.2-1.8L436,242v-10h3.7V267h-3L436.2,263.7z M428.7,264.3c2.5,0,4.4-0.7,5.5-2.1
			c1.1-1.4,1.7-3.6,1.7-6.7v-0.8c0-3.5-0.6-6-1.7-7.5c-1.2-1.5-3-2.2-5.6-2.2c-2.2,0-3.9,0.9-5,2.5c-1.2,1.7-1.7,4.1-1.7,7.2
			c0,3.1,0.6,5.5,1.7,7.1C424.8,263.5,426.5,264.3,428.7,264.3z"/>
		<path d="M467.5,242.3v2.4l-4.6,0.5c0.4,0.5,0.8,1.2,1.1,2.1c0.3,0.8,0.5,1.8,0.5,2.9c0,2.4-0.8,4.3-2.5,5.8
			c-1.6,1.4-3.9,2.2-6.8,2.2c-0.7,0-1.4-0.1-2.1-0.2c-1.6,0.8-2.4,1.9-2.4,3.2c0,0.7,0.3,1.2,0.8,1.5c0.6,0.3,1.5,0.5,2.9,0.5h4.4
			c2.7,0,4.7,0.6,6.1,1.7c1.4,1.1,2.1,2.8,2.1,4.9c0,2.7-1.1,4.8-3.3,6.2c-2.2,1.4-5.4,2.1-9.6,2.1c-3.2,0-5.7-0.6-7.4-1.8
			c-1.7-1.2-2.6-2.9-2.6-5.1c0-1.5,0.5-2.8,1.4-3.9c1-1.1,2.3-1.8,4-2.2c-0.6-0.3-1.2-0.7-1.6-1.3c-0.4-0.6-0.6-1.3-0.6-2.1
			c0-0.9,0.2-1.7,0.7-2.4c0.5-0.7,1.2-1.3,2.3-2c-1.3-0.5-2.3-1.4-3.1-2.7c-0.8-1.3-1.2-2.7-1.2-4.3c0-2.7,0.8-4.8,2.4-6.2
			s3.9-2.2,6.9-2.2c1.3,0,2.4,0.1,3.5,0.4H467.5z M447.9,271.1c0,1.3,0.6,2.3,1.7,3c1.1,0.7,2.7,1,4.8,1c3.1,0,5.4-0.5,7-1.4
			c1.5-0.9,2.3-2.2,2.3-3.8c0-1.3-0.4-2.3-1.2-2.8c-0.8-0.5-2.4-0.8-4.6-0.8h-4.5c-1.7,0-3,0.4-4,1.2S447.9,269.6,447.9,271.1z
			 M449.9,250.2c0,1.7,0.5,3,1.5,3.9c1,0.9,2.3,1.3,4.1,1.3c3.6,0,5.5-1.8,5.5-5.3c0-3.7-1.8-5.5-5.5-5.5c-1.8,0-3.1,0.5-4,1.4
			S449.9,248.4,449.9,250.2z"/>
		<path d="M482.7,267.4c-3.6,0-6.5-1.1-8.6-3.3c-2.1-2.2-3.2-5.3-3.2-9.2c0-4,1-7.1,2.9-9.5s4.6-3.5,7.9-3.5c3.1,0,5.5,1,7.3,3
			c1.8,2,2.7,4.7,2.7,8v2.4h-17c0.1,2.9,0.8,5.1,2.2,6.6c1.4,1.5,3.3,2.2,5.9,2.2c2.7,0,5.3-0.6,7.9-1.7v3.3c-1.3,0.6-2.6,1-3.7,1.2
			C485.8,267.3,484.4,267.4,482.7,267.4z M481.7,245c-2,0-3.6,0.6-4.7,1.9c-1.2,1.3-1.9,3.1-2.1,5.3h12.9c0-2.4-0.5-4.2-1.6-5.4
			C485.2,245.6,483.7,245,481.7,245z"/>
		<path d="M530.9,254.6c0,4-1,7.1-3,9.4c-2,2.3-4.8,3.4-8.4,3.4c-2.2,0-4.2-0.5-5.9-1.5s-3-2.5-4-4.4c-0.9-1.9-1.4-4.2-1.4-6.8
			c0-4,1-7.1,3-9.4c2-2.2,4.8-3.4,8.4-3.4c3.4,0,6.2,1.1,8.2,3.4C529.9,247.6,530.9,250.7,530.9,254.6z M512.1,254.6
			c0,3.1,0.6,5.5,1.9,7.2c1.3,1.6,3.1,2.5,5.5,2.5c2.4,0,4.3-0.8,5.6-2.5c1.3-1.6,1.9-4,1.9-7.2c0-3.1-0.6-5.5-1.9-7.1
			c-1.3-1.6-3.1-2.4-5.6-2.4c-2.4,0-4.3,0.8-5.5,2.4C512.8,249.1,512.1,251.4,512.1,254.6z"/>
		<path d="M548.4,241.9c1.1,0,2.1,0.1,2.9,0.3l-0.5,3.5c-1-0.2-1.9-0.3-2.7-0.3c-2,0-3.7,0.8-5.1,2.4s-2.1,3.6-2.1,6V267h-3.7v-24.6
			h3.1l0.4,4.6h0.2c0.9-1.6,2-2.8,3.3-3.7C545.5,242.3,546.9,241.9,548.4,241.9z"/>
		<path d="M567.2,235.7c0-0.9,0.2-1.5,0.6-1.9c0.4-0.4,0.9-0.6,1.6-0.6c0.6,0,1.1,0.2,1.5,0.6c0.4,0.4,0.7,1,0.7,1.9
			c0,0.8-0.2,1.5-0.7,1.9c-0.4,0.4-1,0.6-1.5,0.6c-0.6,0-1.2-0.2-1.6-0.6C567.4,237.1,567.2,236.5,567.2,235.7z M571.2,267h-3.7
			v-24.6h3.7V267z"/>
		<path d="M595.7,267V251c0-2-0.5-3.5-1.4-4.5s-2.3-1.5-4.3-1.5c-2.6,0-4.5,0.7-5.7,2.1s-1.8,3.7-1.8,6.9V267h-3.7v-24.6h3l0.6,3.4
			h0.2c0.8-1.2,1.8-2.2,3.2-2.8c1.4-0.7,2.9-1,4.6-1c3,0,5.2,0.7,6.7,2.1c1.5,1.4,2.2,3.7,2.2,6.9V267H595.7z"/>
		<path d="M614.8,264.3c0.7,0,1.3,0,1.9-0.1c0.6-0.1,1.1-0.2,1.5-0.3v2.9c-0.4,0.2-1,0.4-1.8,0.5c-0.8,0.1-1.5,0.2-2.1,0.2
			c-4.8,0-7.1-2.5-7.1-7.5v-14.6h-3.5v-1.8l3.5-1.5l1.6-5.3h2.2v5.7h7.1v2.9h-7.1v14.5c0,1.5,0.4,2.6,1.1,3.4
			C612.6,263.9,613.6,264.3,614.8,264.3z"/>
		<path d="M633.3,267.4c-3.6,0-6.5-1.1-8.6-3.3c-2.1-2.2-3.2-5.3-3.2-9.2c0-4,1-7.1,2.9-9.5c2-2.3,4.6-3.5,7.9-3.5
			c3.1,0,5.5,1,7.3,3c1.8,2,2.7,4.7,2.7,8v2.4h-17c0.1,2.9,0.8,5.1,2.2,6.6c1.4,1.5,3.3,2.2,5.9,2.2c2.7,0,5.3-0.6,7.9-1.7v3.3
			c-1.3,0.6-2.6,1-3.7,1.2C636.4,267.3,634.9,267.4,633.3,267.4z M632.3,245c-2,0-3.6,0.6-4.7,1.9c-1.2,1.3-1.9,3.1-2.1,5.3h12.9
			c0-2.4-0.5-4.2-1.6-5.4C635.7,245.6,634.2,245,632.3,245z"/>
		<path d="M659.7,241.9c1.1,0,2.1,0.1,2.9,0.3l-0.5,3.5c-1-0.2-1.9-0.3-2.7-0.3c-2,0-3.7,0.8-5.1,2.4c-1.4,1.6-2.1,3.6-2.1,6V267
			h-3.7v-24.6h3.1l0.4,4.6h0.2c0.9-1.6,2-2.8,3.3-3.7C656.7,242.3,658.2,241.9,659.7,241.9z"/>
		<path d="M672.4,267l-9.3-24.6h4l5.3,14.6c1.2,3.4,1.9,5.6,2.1,6.6h0.2c0.2-0.8,0.7-2.4,1.6-4.9c0.9-2.5,2.8-7.9,5.9-16.3h4
			l-9.3,24.6H672.4z"/>
		<path d="M700.2,267.4c-3.6,0-6.5-1.1-8.6-3.3c-2.1-2.2-3.2-5.3-3.2-9.2c0-4,1-7.1,2.9-9.5c2-2.3,4.6-3.5,7.9-3.5
			c3.1,0,5.5,1,7.3,3c1.8,2,2.7,4.7,2.7,8v2.4h-17c0.1,2.9,0.8,5.1,2.2,6.6c1.4,1.5,3.3,2.2,5.9,2.2c2.7,0,5.3-0.6,7.9-1.7v3.3
			c-1.3,0.6-2.6,1-3.7,1.2C703.3,267.3,701.9,267.4,700.2,267.4z M699.2,245c-2,0-3.6,0.6-4.7,1.9c-1.2,1.3-1.9,3.1-2.1,5.3h12.9
			c0-2.4-0.5-4.2-1.6-5.4C702.7,245.6,701.2,245,699.2,245z"/>
		<path d="M732.2,267V251c0-2-0.5-3.5-1.4-4.5s-2.3-1.5-4.3-1.5c-2.6,0-4.5,0.7-5.7,2.1s-1.8,3.7-1.8,6.9V267h-3.7v-24.6h3l0.6,3.4
			h0.2c0.8-1.2,1.8-2.2,3.2-2.8c1.4-0.7,2.9-1,4.6-1c3,0,5.2,0.7,6.7,2.1c1.5,1.4,2.2,3.7,2.2,6.9V267H732.2z"/>
		<path d="M751.4,264.3c0.7,0,1.3,0,1.9-0.1c0.6-0.1,1.1-0.2,1.5-0.3v2.9c-0.4,0.2-1,0.4-1.8,0.5c-0.8,0.1-1.5,0.2-2.1,0.2
			c-4.8,0-7.1-2.5-7.1-7.5v-14.6h-3.5v-1.8l3.5-1.5l1.6-5.3h2.2v5.7h7.1v2.9h-7.1v14.5c0,1.5,0.4,2.6,1.1,3.4
			C749.2,263.9,750.1,264.3,751.4,264.3z"/>
		<path d="M759.1,235.7c0-0.9,0.2-1.5,0.6-1.9c0.4-0.4,0.9-0.6,1.6-0.6c0.6,0,1.1,0.2,1.5,0.6s0.7,1,0.7,1.9c0,0.8-0.2,1.5-0.7,1.9
			c-0.4,0.4-1,0.6-1.5,0.6c-0.6,0-1.2-0.2-1.6-0.6C759.3,237.1,759.1,236.5,759.1,235.7z M763.1,267h-3.7v-24.6h3.7V267z"/>
		<path d="M792.1,254.6c0,4-1,7.1-3,9.4c-2,2.3-4.8,3.4-8.4,3.4c-2.2,0-4.2-0.5-5.9-1.5s-3-2.5-4-4.4s-1.4-4.2-1.4-6.8
			c0-4,1-7.1,3-9.4c2-2.2,4.8-3.4,8.4-3.4c3.4,0,6.2,1.1,8.2,3.4C791.1,247.6,792.1,250.7,792.1,254.6z M773.3,254.6
			c0,3.1,0.6,5.5,1.9,7.2c1.3,1.6,3.1,2.5,5.5,2.5s4.3-0.8,5.6-2.5c1.3-1.6,1.9-4,1.9-7.2c0-3.1-0.6-5.5-1.9-7.1
			c-1.3-1.6-3.1-2.4-5.6-2.4c-2.4,0-4.3,0.8-5.5,2.4C773.9,249.1,773.3,251.4,773.3,254.6z"/>
		<path d="M815.2,267V251c0-2-0.5-3.5-1.4-4.5s-2.3-1.5-4.3-1.5c-2.6,0-4.5,0.7-5.7,2.1s-1.8,3.7-1.8,6.9V267h-3.7v-24.6h3l0.6,3.4
			h0.2c0.8-1.2,1.8-2.2,3.2-2.8c1.4-0.7,2.9-1,4.6-1c3,0,5.2,0.7,6.7,2.1c1.5,1.4,2.2,3.7,2.2,6.9V267H815.2z"/>
	</g>
	<g>
		<path d="M86.9,483.4l-3.6-9.1H71.9l-3.5,9.1H65l11.3-28.7h2.8l11.2,28.7H86.9z M82.3,471.3l-3.3-8.8c-0.4-1.1-0.9-2.5-1.3-4.1
			c-0.3,1.2-0.7,2.6-1.2,4.1l-3.4,8.8H82.3z"/>
		<path d="M107.4,477.5c0,2-0.7,3.5-2.2,4.6c-1.5,1.1-3.6,1.6-6.2,1.6c-2.8,0-5.1-0.4-6.6-1.3v-3c1,0.5,2.1,0.9,3.3,1.2
			c1.2,0.3,2.3,0.4,3.4,0.4c1.7,0,3-0.3,3.9-0.8c0.9-0.5,1.4-1.4,1.4-2.5c0-0.8-0.4-1.5-1.1-2.1c-0.7-0.6-2.1-1.3-4.2-2.1
			c-2-0.7-3.4-1.4-4.2-1.9c-0.8-0.6-1.5-1.2-1.9-1.9s-0.6-1.5-0.6-2.5c0-1.7,0.7-3.1,2.1-4.1c1.4-1,3.4-1.5,5.8-1.5
			c2.3,0,4.6,0.5,6.8,1.4l-1.2,2.6c-2.1-0.9-4.1-1.3-5.8-1.3c-1.5,0-2.7,0.2-3.5,0.7c-0.8,0.5-1.2,1.1-1.2,2c0,0.6,0.1,1.1,0.4,1.5
			c0.3,0.4,0.8,0.8,1.4,1.2c0.7,0.4,1.9,0.9,3.8,1.6c2.5,0.9,4.3,1.9,5.1,2.8C106.9,474.9,107.4,476.1,107.4,477.5z"/>
		<path d="M115.6,472.4c0.6-0.8,1.4-1.8,2.6-3.1l6.9-7.3h3.8l-8.7,9.1l9.3,12.3h-3.9l-7.6-10.1l-2.4,2.1v8h-3.2V453h3.2v16.1
			c0,0.7-0.1,1.8-0.2,3.3H115.6z"/>
		<path d="M153.1,464.5h-5.4v18.9h-3.2v-18.9h-3.8V463l3.8-1.2v-1.2c0-5.3,2.3-7.9,6.9-7.9c1.1,0,2.5,0.2,4,0.7l-0.8,2.6
			c-1.2-0.4-2.3-0.6-3.2-0.6c-1.2,0-2.1,0.4-2.7,1.2c-0.6,0.8-0.9,2.1-0.9,3.9v1.4h5.4V464.5z"/>
		<path d="M169.9,483.4l-0.6-3h-0.2c-1.1,1.3-2.1,2.2-3.2,2.7c-1.1,0.5-2.4,0.7-4,0.7c-2.1,0-3.8-0.5-5-1.6
			c-1.2-1.1-1.8-2.6-1.8-4.7c0-4.3,3.5-6.6,10.4-6.8l3.6-0.1v-1.3c0-1.7-0.4-2.9-1.1-3.7s-1.9-1.2-3.5-1.2c-1.8,0-3.8,0.5-6.1,1.6
			l-1-2.5c1.1-0.6,2.2-1,3.5-1.3c1.3-0.3,2.5-0.5,3.8-0.5c2.6,0,4.4,0.6,5.7,1.7s1.8,2.9,1.8,5.4v14.6H169.9z M162.6,481.1
			c2,0,3.6-0.6,4.8-1.7c1.2-1.1,1.7-2.7,1.7-4.6v-1.9l-3.2,0.1c-2.6,0.1-4.4,0.5-5.6,1.2c-1.1,0.7-1.7,1.8-1.7,3.3
			c0,1.2,0.4,2.1,1.1,2.7C160.3,480.8,161.3,481.1,162.6,481.1z"/>
		<path d="M206.1,483.4v-13.9c0-1.7-0.4-3-1.1-3.8c-0.7-0.9-1.9-1.3-3.4-1.3c-2,0-3.5,0.6-4.5,1.7c-1,1.2-1.4,2.9-1.4,5.4v12h-3.2
			v-13.9c0-1.7-0.4-3-1.1-3.8c-0.7-0.9-1.9-1.3-3.4-1.3c-2,0-3.5,0.6-4.5,1.8c-0.9,1.2-1.4,3.2-1.4,6v11.2h-3.2V462h2.6l0.5,2.9h0.2
			c0.6-1,1.5-1.9,2.6-2.4s2.4-0.9,3.7-0.9c3.3,0,5.5,1.2,6.6,3.6h0.2c0.6-1.1,1.6-2,2.8-2.7c1.2-0.7,2.6-1,4.1-1
			c2.4,0,4.2,0.6,5.4,1.9c1.2,1.2,1.8,3.2,1.8,6v14H206.1z"/>
		<path d="M215.6,456.2c0-0.7,0.2-1.3,0.5-1.6c0.4-0.3,0.8-0.5,1.4-0.5c0.5,0,1,0.2,1.3,0.5c0.4,0.4,0.6,0.9,0.6,1.6
			c0,0.7-0.2,1.3-0.6,1.6c-0.4,0.4-0.8,0.5-1.3,0.5c-0.5,0-1-0.2-1.4-0.5C215.7,457.4,215.6,456.9,215.6,456.2z M219.1,483.4h-3.2
			V462h3.2V483.4z"/>
		<path d="M229,483.4h-3.2V453h3.2V483.4z"/>
		<path d="M232.3,462h3.5l4.7,12.2c1,2.8,1.7,4.8,1.9,6h0.2c0.2-0.7,0.5-1.8,1.1-3.4c0.5-1.6,2.3-6.6,5.3-14.8h3.5l-9.2,24.4
			c-0.9,2.4-2,4.1-3.2,5.1c-1.2,1-2.7,1.5-4.5,1.5c-1,0-2-0.1-2.9-0.3v-2.6c0.7,0.2,1.5,0.2,2.4,0.2c2.2,0,3.8-1.2,4.8-3.8l1.2-3
			L232.3,462z"/>
		<path d="M279,483.4l-0.6-3h-0.2c-1.1,1.3-2.1,2.2-3.2,2.7c-1.1,0.5-2.4,0.7-4,0.7c-2.1,0-3.8-0.5-5-1.6c-1.2-1.1-1.8-2.6-1.8-4.7
			c0-4.3,3.5-6.6,10.4-6.8l3.6-0.1v-1.3c0-1.7-0.4-2.9-1.1-3.7s-1.9-1.2-3.5-1.2c-1.8,0-3.8,0.5-6.1,1.6l-1-2.5
			c1.1-0.6,2.2-1,3.5-1.3c1.3-0.3,2.5-0.5,3.8-0.5c2.6,0,4.4,0.6,5.7,1.7s1.8,2.9,1.8,5.4v14.6H279z M271.6,481.1
			c2,0,3.6-0.6,4.8-1.7c1.2-1.1,1.7-2.7,1.7-4.6v-1.9l-3.2,0.1c-2.6,0.1-4.4,0.5-5.6,1.2c-1.1,0.7-1.7,1.8-1.7,3.3
			c0,1.2,0.4,2.1,1.1,2.7C269.4,480.8,270.4,481.1,271.6,481.1z"/>
		<path d="M302.5,483.4v-13.8c0-1.7-0.4-3-1.2-3.9c-0.8-0.9-2-1.3-3.7-1.3c-2.2,0-3.9,0.6-4.9,1.8c-1,1.2-1.6,3.2-1.6,6v11.2h-3.2
			V462h2.6l0.5,2.9h0.2c0.7-1.1,1.6-1.9,2.8-2.5c1.2-0.6,2.5-0.9,4-0.9c2.6,0,4.5,0.6,5.8,1.9c1.3,1.2,2,3.2,2,6v14H302.5z"/>
		<path d="M326.8,480.5h-0.2c-1.5,2.2-3.7,3.3-6.7,3.3c-2.8,0-5-1-6.5-2.9c-1.6-1.9-2.3-4.6-2.3-8.2c0-3.5,0.8-6.3,2.3-8.2
			s3.7-2.9,6.5-2.9c2.9,0,5.1,1.1,6.7,3.2h0.3l-0.1-1.5l-0.1-1.5V453h3.2v30.4h-2.6L326.8,480.5z M320.3,481.1
			c2.2,0,3.8-0.6,4.8-1.8c1-1.2,1.5-3.1,1.5-5.8v-0.7c0-3-0.5-5.2-1.5-6.5c-1-1.3-2.6-1.9-4.8-1.9c-1.9,0-3.4,0.7-4.4,2.2
			c-1,1.5-1.5,3.6-1.5,6.3c0,2.7,0.5,4.8,1.5,6.2C316.9,480.4,318.4,481.1,320.3,481.1z"/>
		<path d="M356.4,464.5h-5.4v18.9h-3.2v-18.9h-3.8V463l3.8-1.2v-1.2c0-5.3,2.3-7.9,6.9-7.9c1.1,0,2.5,0.2,4,0.7l-0.8,2.6
			c-1.2-0.4-2.3-0.6-3.2-0.6c-1.2,0-2.1,0.4-2.7,1.2c-0.6,0.8-0.9,2.1-0.9,3.9v1.4h5.4V464.5z"/>
		<path d="M369.8,461.6c1,0,1.8,0.1,2.6,0.2l-0.4,3c-0.9-0.2-1.7-0.3-2.3-0.3c-1.7,0-3.2,0.7-4.4,2.1s-1.8,3.2-1.8,5.3v11.5h-3.2
			V462h2.7l0.4,4h0.2c0.8-1.4,1.8-2.5,2.9-3.2C367.3,462,368.5,461.6,369.8,461.6z"/>
		<path d="M375.9,456.2c0-0.7,0.2-1.3,0.5-1.6c0.4-0.3,0.8-0.5,1.4-0.5c0.5,0,1,0.2,1.3,0.5c0.4,0.4,0.6,0.9,0.6,1.6
			c0,0.7-0.2,1.3-0.6,1.6c-0.4,0.4-0.8,0.5-1.3,0.5c-0.5,0-1-0.2-1.4-0.5C376.1,457.4,375.9,456.9,375.9,456.2z M379.4,483.4h-3.2
			V462h3.2V483.4z"/>
		<path d="M395.1,483.8c-3.2,0-5.7-1-7.5-2.9c-1.8-1.9-2.7-4.6-2.7-8c0-3.5,0.8-6.2,2.5-8.2s4-3,6.8-3c2.7,0,4.8,0.9,6.4,2.6
			c1.6,1.8,2.3,4.1,2.3,7v2.1h-14.7c0.1,2.5,0.7,4.4,1.9,5.7c1.2,1.3,2.9,2,5.1,2c2.3,0,4.6-0.5,6.8-1.4v2.9
			c-1.1,0.5-2.2,0.8-3.3,1.1C397.8,483.7,396.6,483.8,395.1,483.8z M394.3,464.3c-1.7,0-3.1,0.6-4.1,1.7c-1,1.1-1.6,2.7-1.8,4.6
			h11.2c0-2-0.5-3.6-1.4-4.7C397.3,464.8,396,464.3,394.3,464.3z"/>
		<path d="M423,483.4v-13.8c0-1.7-0.4-3-1.2-3.9c-0.8-0.9-2-1.3-3.7-1.3c-2.2,0-3.9,0.6-4.9,1.8c-1,1.2-1.6,3.2-1.6,6v11.2h-3.2V462
			h2.6l0.5,2.9h0.2c0.7-1.1,1.6-1.9,2.8-2.5c1.2-0.6,2.5-0.9,4-0.9c2.6,0,4.5,0.6,5.8,1.9c1.3,1.2,2,3.2,2,6v14H423z"/>
		<path d="M447.3,480.5h-0.2c-1.5,2.2-3.7,3.3-6.7,3.3c-2.8,0-5-1-6.5-2.9c-1.6-1.9-2.3-4.6-2.3-8.2c0-3.5,0.8-6.3,2.3-8.2
			s3.7-2.9,6.5-2.9c2.9,0,5.1,1.1,6.7,3.2h0.3l-0.1-1.5l-0.1-1.5V453h3.2v30.4h-2.6L447.3,480.5z M440.8,481.1
			c2.2,0,3.8-0.6,4.8-1.8c1-1.2,1.5-3.1,1.5-5.8v-0.7c0-3-0.5-5.2-1.5-6.5c-1-1.3-2.6-1.9-4.8-1.9c-1.9,0-3.4,0.7-4.4,2.2
			c-1,1.5-1.5,3.6-1.5,6.3c0,2.7,0.5,4.8,1.5,6.2C437.4,480.4,438.8,481.1,440.8,481.1z"/>
		<path d="M470.8,477.5c0,2-0.7,3.5-2.2,4.6c-1.5,1.1-3.6,1.6-6.2,1.6c-2.8,0-5.1-0.4-6.6-1.3v-3c1,0.5,2.1,0.9,3.3,1.2
			c1.2,0.3,2.3,0.4,3.4,0.4c1.7,0,3-0.3,3.9-0.8c0.9-0.5,1.4-1.4,1.4-2.5c0-0.8-0.4-1.5-1.1-2.1c-0.7-0.6-2.1-1.3-4.2-2.1
			c-2-0.7-3.4-1.4-4.2-1.9c-0.8-0.6-1.5-1.2-1.9-1.9s-0.6-1.5-0.6-2.5c0-1.7,0.7-3.1,2.1-4.1c1.4-1,3.4-1.5,5.8-1.5
			c2.3,0,4.6,0.5,6.8,1.4l-1.2,2.6c-2.1-0.9-4.1-1.3-5.8-1.3c-1.5,0-2.7,0.2-3.5,0.7c-0.8,0.5-1.2,1.1-1.2,2c0,0.6,0.1,1.1,0.4,1.5
			c0.3,0.4,0.8,0.8,1.4,1.2c0.7,0.4,1.9,0.9,3.8,1.6c2.5,0.9,4.3,1.9,5.1,2.8C470.4,474.9,470.8,476.1,470.8,477.5z"/>
		<path d="M475.4,481.3c0-0.9,0.2-1.5,0.6-2c0.4-0.4,1-0.7,1.7-0.7c0.8,0,1.3,0.2,1.8,0.7c0.4,0.4,0.6,1.1,0.6,2
			c0,0.8-0.2,1.5-0.6,2c-0.4,0.5-1,0.7-1.8,0.7c-0.7,0-1.2-0.2-1.7-0.6C475.6,482.9,475.4,482.2,475.4,481.3z"/>
	</g>
	<g>
		<path d="M81.5,745.9h9.7v13.9c-1.5,0.5-3,0.8-4.6,1.1s-3.4,0.4-5.4,0.4c-4.3,0-7.7-1.3-10.1-3.9c-2.4-2.6-3.6-6.2-3.6-10.8
			c0-3,0.6-5.6,1.8-7.8c1.2-2.2,2.9-3.9,5.1-5.1c2.2-1.2,4.9-1.8,7.9-1.8c3,0,5.9,0.6,8.5,1.7l-1.3,2.9c-2.6-1.1-5.1-1.6-7.4-1.6
			c-3.5,0-6.2,1-8.1,3.1s-2.9,4.9-2.9,8.6c0,3.9,0.9,6.8,2.8,8.8c1.9,2,4.6,3,8.3,3c2,0,3.9-0.2,5.8-0.7v-8.8h-6.4V745.9z"/>
		<path d="M115.8,750.1c0,3.5-0.9,6.2-2.6,8.2c-1.8,2-4.2,2.9-7.3,2.9c-1.9,0-3.6-0.4-5.1-1.3s-2.6-2.2-3.4-3.9
			c-0.8-1.7-1.2-3.6-1.2-5.9c0-3.5,0.9-6.2,2.6-8.2c1.7-1.9,4.2-2.9,7.3-2.9c3,0,5.4,1,7.1,3C115,744,115.8,746.7,115.8,750.1z
			 M99.5,750.1c0,2.7,0.5,4.8,1.6,6.2c1.1,1.4,2.7,2.1,4.8,2.1c2.1,0,3.7-0.7,4.8-2.1c1.1-1.4,1.7-3.5,1.7-6.3
			c0-2.7-0.6-4.8-1.7-6.2c-1.1-1.4-2.7-2.1-4.9-2.1c-2.1,0-3.7,0.7-4.8,2.1C100.1,745.3,99.5,747.4,99.5,750.1z"/>
		<path d="M139.8,750.1c0,3.5-0.9,6.2-2.6,8.2c-1.8,2-4.2,2.9-7.3,2.9c-1.9,0-3.6-0.4-5.1-1.3s-2.6-2.2-3.4-3.9
			c-0.8-1.7-1.2-3.6-1.2-5.9c0-3.5,0.9-6.2,2.6-8.2c1.7-1.9,4.2-2.9,7.3-2.9c3,0,5.4,1,7.1,3C138.9,744,139.8,746.7,139.8,750.1z
			 M123.5,750.1c0,2.7,0.5,4.8,1.6,6.2c1.1,1.4,2.7,2.1,4.8,2.1c2.1,0,3.7-0.7,4.8-2.1c1.1-1.4,1.7-3.5,1.7-6.3
			c0-2.7-0.6-4.8-1.7-6.2c-1.1-1.4-2.7-2.1-4.9-2.1c-2.1,0-3.7,0.7-4.8,2.1C124,745.3,123.5,747.4,123.5,750.1z"/>
		<path d="M162.8,739.5v2.1l-4,0.5c0.4,0.5,0.7,1.1,1,1.8c0.3,0.7,0.4,1.6,0.4,2.5c0,2.1-0.7,3.8-2.1,5c-1.4,1.2-3.4,1.9-5.9,1.9
			c-0.6,0-1.2-0.1-1.8-0.2c-1.4,0.7-2.1,1.6-2.1,2.8c0,0.6,0.2,1,0.7,1.3c0.5,0.3,1.3,0.4,2.5,0.4h3.8c2.3,0,4.1,0.5,5.3,1.5
			c1.2,1,1.9,2.4,1.9,4.3c0,2.4-1,4.2-2.9,5.4c-1.9,1.2-4.7,1.9-8.3,1.9c-2.8,0-5-0.5-6.5-1.6c-1.5-1-2.3-2.5-2.3-4.4
			c0-1.3,0.4-2.4,1.2-3.4c0.8-1,2-1.6,3.5-1.9c-0.5-0.2-1-0.6-1.4-1.2c-0.4-0.5-0.6-1.1-0.6-1.8c0-0.8,0.2-1.5,0.6-2.1
			c0.4-0.6,1.1-1.2,2-1.7c-1.1-0.5-2-1.2-2.7-2.3c-0.7-1.1-1-2.3-1-3.8c0-2.3,0.7-4.2,2.1-5.4s3.4-1.9,6-1.9c1.1,0,2.1,0.1,3,0.4
			H162.8z M145.7,764.5c0,1.2,0.5,2,1.5,2.6s2.4,0.9,4.2,0.9c2.7,0,4.7-0.4,6-1.2s2-1.9,2-3.3c0-1.2-0.4-2-1.1-2.4
			c-0.7-0.4-2.1-0.7-4-0.7h-3.9c-1.5,0-2.6,0.4-3.4,1.1S145.7,763.1,145.7,764.5z M147.5,746.3c0,1.5,0.4,2.6,1.3,3.4
			c0.8,0.8,2,1.2,3.5,1.2c3.2,0,4.7-1.5,4.7-4.6c0-3.2-1.6-4.8-4.8-4.8c-1.5,0-2.7,0.4-3.5,1.2S147.5,744.7,147.5,746.3z"/>
		<path d="M170.2,760.9H167v-30.4h3.2V760.9z"/>
		<path d="M186,761.3c-3.2,0-5.7-1-7.5-2.9c-1.8-1.9-2.7-4.6-2.7-8c0-3.5,0.8-6.2,2.5-8.2s4-3,6.8-3c2.7,0,4.8,0.9,6.4,2.6
			c1.6,1.8,2.3,4.1,2.3,7v2.1h-14.7c0.1,2.5,0.7,4.4,1.9,5.7c1.2,1.3,2.9,2,5.1,2c2.3,0,4.6-0.5,6.8-1.4v2.9
			c-1.1,0.5-2.2,0.8-3.3,1.1C188.6,761.1,187.4,761.3,186,761.3z M185.1,741.8c-1.7,0-3.1,0.6-4.1,1.7c-1,1.1-1.6,2.7-1.8,4.6h11.2
			c0-2-0.5-3.6-1.4-4.7C188.1,742.3,186.8,741.8,185.1,741.8z"/>
		<path d="M223.2,755c0,2-0.7,3.5-2.2,4.6c-1.5,1.1-3.6,1.6-6.2,1.6c-2.8,0-5.1-0.4-6.6-1.3v-3c1,0.5,2.1,0.9,3.3,1.2
			c1.2,0.3,2.3,0.4,3.4,0.4c1.7,0,3-0.3,3.9-0.8c0.9-0.5,1.4-1.4,1.4-2.5c0-0.8-0.4-1.5-1.1-2.1c-0.7-0.6-2.1-1.3-4.2-2.1
			c-2-0.7-3.4-1.4-4.2-1.9c-0.8-0.6-1.5-1.2-1.9-1.9s-0.6-1.5-0.6-2.5c0-1.7,0.7-3.1,2.1-4.1c1.4-1,3.4-1.5,5.8-1.5
			c2.3,0,4.6,0.5,6.8,1.4l-1.2,2.6c-2.1-0.9-4.1-1.3-5.8-1.3c-1.5,0-2.7,0.2-3.5,0.7c-0.8,0.5-1.2,1.1-1.2,2c0,0.6,0.1,1.1,0.4,1.5
			c0.3,0.4,0.8,0.8,1.4,1.2c0.7,0.4,1.9,0.9,3.8,1.6c2.5,0.9,4.3,1.9,5.1,2.8C222.7,752.4,223.2,753.6,223.2,755z"/>
		<path d="M224.8,739.5h3.5l4.7,12.2c1,2.8,1.7,4.8,1.9,6h0.2c0.2-0.7,0.5-1.8,1.1-3.4c0.5-1.6,2.3-6.6,5.3-14.8h3.5l-9.2,24.4
			c-0.9,2.4-2,4.1-3.2,5.1c-1.2,1-2.7,1.5-4.5,1.5c-1,0-2-0.1-2.9-0.3v-2.6c0.7,0.2,1.5,0.2,2.4,0.2c2.2,0,3.8-1.2,4.8-3.8l1.2-3
			L224.8,739.5z"/>
		<path d="M275.5,760.9v-13.9c0-1.7-0.4-3-1.1-3.8c-0.7-0.9-1.9-1.3-3.4-1.3c-2,0-3.5,0.6-4.5,1.7c-1,1.2-1.4,2.9-1.4,5.4v12h-3.2
			v-13.9c0-1.7-0.4-3-1.1-3.8c-0.7-0.9-1.9-1.3-3.4-1.3c-2,0-3.5,0.6-4.5,1.8c-0.9,1.2-1.4,3.2-1.4,6v11.2h-3.2v-21.4h2.6l0.5,2.9
			h0.2c0.6-1,1.5-1.9,2.6-2.4s2.4-0.9,3.7-0.9c3.3,0,5.5,1.2,6.6,3.6h0.2c0.6-1.1,1.6-2,2.8-2.7c1.2-0.7,2.6-1,4.1-1
			c2.4,0,4.2,0.6,5.4,1.9c1.2,1.2,1.8,3.2,1.8,6v14H275.5z"/>
		<path d="M295.1,761.3c-1.4,0-2.7-0.3-3.8-0.8c-1.2-0.5-2.1-1.3-2.9-2.4h-0.2c0.2,1.2,0.2,2.4,0.2,3.6v8.8h-3.2v-31h2.6l0.4,2.9
			h0.2c0.8-1.2,1.8-2,2.9-2.5c1.1-0.5,2.4-0.8,3.8-0.8c2.8,0,5,1,6.6,2.9c1.5,1.9,2.3,4.7,2.3,8.2c0,3.5-0.8,6.2-2.4,8.2
			C300.1,760.3,297.9,761.3,295.1,761.3z M294.7,741.8c-2.2,0-3.8,0.6-4.7,1.8s-1.5,3.1-1.5,5.8v0.7c0,3,0.5,5.2,1.5,6.5
			c1,1.3,2.6,1.9,4.8,1.9c1.8,0,3.3-0.7,4.3-2.2c1-1.5,1.6-3.6,1.6-6.2c0-2.7-0.5-4.7-1.6-6.1C298.1,742.5,296.6,741.8,294.7,741.8z
			"/>
		<path d="M316.4,758.6c0.6,0,1.1,0,1.7-0.1c0.5-0.1,1-0.2,1.3-0.3v2.5c-0.4,0.2-0.9,0.3-1.6,0.4s-1.3,0.2-1.8,0.2
			c-4.1,0-6.2-2.2-6.2-6.5V742h-3.1v-1.6l3.1-1.3l1.4-4.6h1.9v5h6.2v2.5H313v12.6c0,1.3,0.3,2.3,0.9,3
			C314.5,758.2,315.3,758.6,316.4,758.6z"/>
		<path d="M341.9,750.1c0,3.5-0.9,6.2-2.6,8.2c-1.8,2-4.2,2.9-7.3,2.9c-1.9,0-3.6-0.4-5.1-1.3s-2.6-2.2-3.4-3.9
			c-0.8-1.7-1.2-3.6-1.2-5.9c0-3.5,0.9-6.2,2.6-8.2c1.7-1.9,4.2-2.9,7.3-2.9c3,0,5.4,1,7.1,3C341,744,341.9,746.7,341.9,750.1z
			 M325.6,750.1c0,2.7,0.5,4.8,1.6,6.2c1.1,1.4,2.7,2.1,4.8,2.1c2.1,0,3.7-0.7,4.8-2.1c1.1-1.4,1.7-3.5,1.7-6.3
			c0-2.7-0.6-4.8-1.7-6.2c-1.1-1.4-2.7-2.1-4.9-2.1c-2.1,0-3.7,0.7-4.8,2.1C326.1,745.3,325.6,747.4,325.6,750.1z"/>
		<path d="M374.7,760.9v-13.9c0-1.7-0.4-3-1.1-3.8c-0.7-0.9-1.9-1.3-3.4-1.3c-2,0-3.5,0.6-4.5,1.7c-1,1.2-1.4,2.9-1.4,5.4v12H361
			v-13.9c0-1.7-0.4-3-1.1-3.8c-0.7-0.9-1.9-1.3-3.4-1.3c-2,0-3.5,0.6-4.5,1.8c-0.9,1.2-1.4,3.2-1.4,6v11.2h-3.2v-21.4h2.6l0.5,2.9
			h0.2c0.6-1,1.5-1.9,2.6-2.4s2.4-0.9,3.7-0.9c3.3,0,5.5,1.2,6.6,3.6h0.2c0.6-1.1,1.6-2,2.8-2.7c1.2-0.7,2.6-1,4.1-1
			c2.4,0,4.2,0.6,5.4,1.9c1.2,1.2,1.8,3.2,1.8,6v14H374.7z"/>
		<path d="M398.2,755c0,2-0.7,3.5-2.2,4.6c-1.5,1.1-3.6,1.6-6.2,1.6c-2.8,0-5.1-0.4-6.6-1.3v-3c1,0.5,2.1,0.9,3.3,1.2
			c1.2,0.3,2.3,0.4,3.4,0.4c1.7,0,3-0.3,3.9-0.8c0.9-0.5,1.4-1.4,1.4-2.5c0-0.8-0.4-1.5-1.1-2.1c-0.7-0.6-2.1-1.3-4.2-2.1
			c-2-0.7-3.4-1.4-4.2-1.9c-0.8-0.6-1.5-1.2-1.9-1.9s-0.6-1.5-0.6-2.5c0-1.7,0.7-3.1,2.1-4.1c1.4-1,3.4-1.5,5.8-1.5
			c2.3,0,4.6,0.5,6.8,1.4l-1.2,2.6c-2.1-0.9-4.1-1.3-5.8-1.3c-1.5,0-2.7,0.2-3.5,0.7c-0.8,0.5-1.2,1.1-1.2,2c0,0.6,0.1,1.1,0.4,1.5
			c0.3,0.4,0.8,0.8,1.4,1.2c0.7,0.4,1.9,0.9,3.8,1.6c2.5,0.9,4.3,1.9,5.1,2.8C397.8,752.4,398.2,753.6,398.2,755z"/>
		<path d="M406.7,756.2l0.3,0.4c-0.3,1.3-0.8,2.8-1.5,4.5c-0.6,1.7-1.3,3.3-2,4.8h-2.4c0.4-1.4,0.7-3,1.2-5c0.4-2,0.7-3.6,0.9-4.8
			H406.7z"/>
		<path d="M433,761.3c-1.4,0-2.7-0.3-3.8-0.8c-1.2-0.5-2.1-1.3-2.9-2.4h-0.2c0.2,1.2,0.2,2.4,0.2,3.6v8.8h-3.2v-31h2.6l0.4,2.9h0.2
			c0.8-1.2,1.8-2,2.9-2.5c1.1-0.5,2.4-0.8,3.8-0.8c2.8,0,5,1,6.6,2.9c1.5,1.9,2.3,4.7,2.3,8.2c0,3.5-0.8,6.2-2.4,8.2
			C438,760.3,435.8,761.3,433,761.3z M432.6,741.8c-2.2,0-3.8,0.6-4.7,1.8s-1.5,3.1-1.5,5.8v0.7c0,3,0.5,5.2,1.5,6.5
			c1,1.3,2.6,1.9,4.8,1.9c1.8,0,3.3-0.7,4.3-2.2c1-1.5,1.6-3.6,1.6-6.2c0-2.7-0.5-4.7-1.6-6.1C435.9,742.5,434.5,741.8,432.6,741.8z
			"/>
		<path d="M465.9,750.1c0,3.5-0.9,6.2-2.6,8.2c-1.8,2-4.2,2.9-7.3,2.9c-1.9,0-3.6-0.4-5.1-1.3s-2.6-2.2-3.4-3.9
			c-0.8-1.7-1.2-3.6-1.2-5.9c0-3.5,0.9-6.2,2.6-8.2c1.7-1.9,4.2-2.9,7.3-2.9c3,0,5.4,1,7.1,3C465,744,465.9,746.7,465.9,750.1z
			 M449.5,750.1c0,2.7,0.5,4.8,1.6,6.2c1.1,1.4,2.7,2.1,4.8,2.1c2.1,0,3.7-0.7,4.8-2.1c1.1-1.4,1.7-3.5,1.7-6.3
			c0-2.7-0.6-4.8-1.7-6.2c-1.1-1.4-2.7-2.1-4.9-2.1c-2.1,0-3.7,0.7-4.8,2.1C450.1,745.3,449.5,747.4,449.5,750.1z"/>
		<path d="M485.1,755c0,2-0.7,3.5-2.2,4.6c-1.5,1.1-3.6,1.6-6.2,1.6c-2.8,0-5.1-0.4-6.6-1.3v-3c1,0.5,2.1,0.9,3.3,1.2
			c1.2,0.3,2.3,0.4,3.4,0.4c1.7,0,3-0.3,3.9-0.8c0.9-0.5,1.4-1.4,1.4-2.5c0-0.8-0.4-1.5-1.1-2.1c-0.7-0.6-2.1-1.3-4.2-2.1
			c-2-0.7-3.4-1.4-4.2-1.9c-0.8-0.6-1.5-1.2-1.9-1.9s-0.6-1.5-0.6-2.5c0-1.7,0.7-3.1,2.1-4.1c1.4-1,3.4-1.5,5.8-1.5
			c2.3,0,4.6,0.5,6.8,1.4l-1.2,2.6c-2.1-0.9-4.1-1.3-5.8-1.3c-1.5,0-2.7,0.2-3.5,0.7c-0.8,0.5-1.2,1.1-1.2,2c0,0.6,0.1,1.1,0.4,1.5
			c0.3,0.4,0.8,0.8,1.4,1.2c0.7,0.4,1.9,0.9,3.8,1.6c2.5,0.9,4.3,1.9,5.1,2.8C484.7,752.4,485.1,753.6,485.1,755z"/>
		<path d="M497.1,758.6c0.6,0,1.1,0,1.7-0.1c0.5-0.1,1-0.2,1.3-0.3v2.5c-0.4,0.2-0.9,0.3-1.6,0.4s-1.3,0.2-1.8,0.2
			c-4.1,0-6.2-2.2-6.2-6.5V742h-3.1v-1.6l3.1-1.3l1.4-4.6h1.9v5h6.2v2.5h-6.2v12.6c0,1.3,0.3,2.3,0.9,3
			C495.2,758.2,496.1,758.6,497.1,758.6z"/>
		<path d="M527.5,760.9l-0.6-3h-0.2c-1.1,1.3-2.1,2.2-3.2,2.7c-1.1,0.5-2.4,0.7-4,0.7c-2.1,0-3.8-0.5-5-1.6
			c-1.2-1.1-1.8-2.6-1.8-4.7c0-4.3,3.5-6.6,10.4-6.8l3.6-0.1v-1.3c0-1.7-0.4-2.9-1.1-3.7s-1.9-1.2-3.5-1.2c-1.8,0-3.8,0.5-6.1,1.6
			l-1-2.5c1.1-0.6,2.2-1,3.5-1.3c1.3-0.3,2.5-0.5,3.8-0.5c2.6,0,4.4,0.6,5.7,1.7s1.8,2.9,1.8,5.4v14.6H527.5z M520.2,758.6
			c2,0,3.6-0.6,4.8-1.7c1.2-1.1,1.7-2.7,1.7-4.6v-1.9l-3.2,0.1c-2.6,0.1-4.4,0.5-5.6,1.2c-1.1,0.7-1.7,1.8-1.7,3.3
			c0,1.2,0.4,2.1,1.1,2.7C517.9,758.3,518.9,758.6,520.2,758.6z"/>
		<path d="M546.3,739.1c2.8,0,5,1,6.6,2.9c1.6,1.9,2.3,4.6,2.3,8.2s-0.8,6.2-2.4,8.2c-1.6,1.9-3.7,2.9-6.5,2.9
			c-1.4,0-2.7-0.3-3.8-0.8c-1.2-0.5-2.1-1.3-2.9-2.4h-0.2l-0.7,2.8h-2.3v-30.4h3.2v7.4c0,1.7-0.1,3.1-0.2,4.5h0.2
			C541.1,740.2,543.4,739.1,546.3,739.1z M545.9,741.8c-2.2,0-3.8,0.6-4.8,1.9s-1.5,3.4-1.5,6.4s0.5,5.2,1.5,6.5
			c1,1.3,2.6,1.9,4.8,1.9c2,0,3.5-0.7,4.5-2.2c1-1.5,1.5-3.5,1.5-6.3c0-2.8-0.5-4.9-1.5-6.2S547.9,741.8,545.9,741.8z"/>
		<path d="M579.2,750.1c0,3.5-0.9,6.2-2.6,8.2c-1.8,2-4.2,2.9-7.3,2.9c-1.9,0-3.6-0.4-5.1-1.3s-2.6-2.2-3.4-3.9
			c-0.8-1.7-1.2-3.6-1.2-5.9c0-3.5,0.9-6.2,2.6-8.2c1.7-1.9,4.2-2.9,7.3-2.9c3,0,5.4,1,7.1,3S579.2,746.7,579.2,750.1z M562.9,750.1
			c0,2.7,0.5,4.8,1.6,6.2c1.1,1.4,2.7,2.1,4.8,2.1c2.1,0,3.7-0.7,4.8-2.1c1.1-1.4,1.7-3.5,1.7-6.3c0-2.7-0.6-4.8-1.7-6.2
			c-1.1-1.4-2.7-2.1-4.9-2.1c-2.1,0-3.7,0.7-4.8,2.1C563.4,745.3,562.9,747.4,562.9,750.1z"/>
		<path d="M587.7,739.5v13.9c0,1.7,0.4,3,1.2,3.9s2,1.3,3.7,1.3c2.2,0,3.9-0.6,4.9-1.8c1-1.2,1.6-3.2,1.6-6v-11.2h3.2v21.4h-2.7
			l-0.5-2.9H599c-0.7,1.1-1.6,1.9-2.8,2.4s-2.5,0.8-4,0.8c-2.6,0-4.6-0.6-5.8-1.9c-1.3-1.2-1.9-3.2-1.9-5.9v-14H587.7z"/>
		<path d="M615.9,758.6c0.6,0,1.1,0,1.7-0.1c0.5-0.1,1-0.2,1.3-0.3v2.5c-0.4,0.2-0.9,0.3-1.6,0.4s-1.3,0.2-1.8,0.2
			c-4.1,0-6.2-2.2-6.2-6.5V742h-3.1v-1.6l3.1-1.3l1.4-4.6h1.9v5h6.2v2.5h-6.2v12.6c0,1.3,0.3,2.3,0.9,3
			C614,758.2,614.8,758.6,615.9,758.6z"/>
		<path d="M646.9,755c0,2-0.7,3.5-2.2,4.6c-1.5,1.1-3.6,1.6-6.2,1.6c-2.8,0-5.1-0.4-6.6-1.3v-3c1,0.5,2.1,0.9,3.3,1.2
			c1.2,0.3,2.3,0.4,3.4,0.4c1.7,0,3-0.3,3.9-0.8c0.9-0.5,1.4-1.4,1.4-2.5c0-0.8-0.4-1.5-1.1-2.1c-0.7-0.6-2.1-1.3-4.2-2.1
			c-2-0.7-3.4-1.4-4.2-1.9c-0.8-0.6-1.5-1.2-1.9-1.9s-0.6-1.5-0.6-2.5c0-1.7,0.7-3.1,2.1-4.1c1.4-1,3.4-1.5,5.8-1.5
			c2.3,0,4.6,0.5,6.8,1.4l-1.2,2.6c-2.1-0.9-4.1-1.3-5.8-1.3c-1.5,0-2.7,0.2-3.5,0.7c-0.8,0.5-1.2,1.1-1.2,2c0,0.6,0.1,1.1,0.4,1.5
			c0.3,0.4,0.8,0.8,1.4,1.2c0.7,0.4,1.9,0.9,3.8,1.6c2.5,0.9,4.3,1.9,5.1,2.8S646.9,753.6,646.9,755z"/>
		<path d="M648.6,739.5h3.5l4.7,12.2c1,2.8,1.7,4.8,1.9,6h0.2c0.2-0.7,0.5-1.8,1.1-3.4c0.5-1.6,2.3-6.6,5.3-14.8h3.5l-9.2,24.4
			c-0.9,2.4-2,4.1-3.2,5.1s-2.7,1.5-4.5,1.5c-1,0-2-0.1-2.9-0.3v-2.6c0.7,0.2,1.5,0.2,2.4,0.2c2.2,0,3.8-1.2,4.8-3.8l1.2-3
			L648.6,739.5z"/>
		<path d="M699.2,760.9v-13.9c0-1.7-0.4-3-1.1-3.8c-0.7-0.9-1.9-1.3-3.4-1.3c-2,0-3.5,0.6-4.5,1.7c-1,1.2-1.4,2.9-1.4,5.4v12h-3.2
			v-13.9c0-1.7-0.4-3-1.1-3.8c-0.7-0.9-1.9-1.3-3.4-1.3c-2,0-3.5,0.6-4.5,1.8c-0.9,1.2-1.4,3.2-1.4,6v11.2h-3.2v-21.4h2.6l0.5,2.9
			h0.2c0.6-1,1.5-1.9,2.6-2.4s2.4-0.9,3.7-0.9c3.3,0,5.5,1.2,6.6,3.6h0.2c0.6-1.1,1.6-2,2.8-2.7c1.2-0.7,2.6-1,4.1-1
			c2.4,0,4.2,0.6,5.4,1.9c1.2,1.2,1.8,3.2,1.8,6v14H699.2z"/>
		<path d="M718.9,761.3c-1.4,0-2.7-0.3-3.8-0.8c-1.2-0.5-2.1-1.3-2.9-2.4H712c0.2,1.2,0.2,2.4,0.2,3.6v8.8H709v-31h2.6l0.4,2.9h0.2
			c0.8-1.2,1.8-2,2.9-2.5c1.1-0.5,2.4-0.8,3.8-0.8c2.8,0,5,1,6.6,2.9c1.5,1.9,2.3,4.7,2.3,8.2c0,3.5-0.8,6.2-2.4,8.2
			C723.9,760.3,721.7,761.3,718.9,761.3z M718.4,741.8c-2.2,0-3.8,0.6-4.7,1.8s-1.5,3.1-1.5,5.8v0.7c0,3,0.5,5.2,1.5,6.5
			c1,1.3,2.6,1.9,4.8,1.9c1.8,0,3.3-0.7,4.3-2.2c1-1.5,1.6-3.6,1.6-6.2c0-2.7-0.5-4.7-1.6-6.1S720.3,741.8,718.4,741.8z"/>
		<path d="M740.2,758.6c0.6,0,1.1,0,1.7-0.1c0.5-0.1,1-0.2,1.3-0.3v2.5c-0.4,0.2-0.9,0.3-1.6,0.4s-1.3,0.2-1.8,0.2
			c-4.1,0-6.2-2.2-6.2-6.5V742h-3.1v-1.6l3.1-1.3l1.4-4.6h1.9v5h6.2v2.5h-6.2v12.6c0,1.3,0.3,2.3,0.9,3
			C738.3,758.2,739.1,758.6,740.2,758.6z"/>
		<path d="M765.7,750.1c0,3.5-0.9,6.2-2.6,8.2c-1.8,2-4.2,2.9-7.3,2.9c-1.9,0-3.6-0.4-5.1-1.3s-2.6-2.2-3.4-3.9s-1.2-3.6-1.2-5.9
			c0-3.5,0.9-6.2,2.6-8.2c1.7-1.9,4.2-2.9,7.3-2.9c3,0,5.4,1,7.1,3S765.7,746.7,765.7,750.1z M749.4,750.1c0,2.7,0.5,4.8,1.6,6.2
			c1.1,1.4,2.7,2.1,4.8,2.1s3.7-0.7,4.8-2.1s1.7-3.5,1.7-6.3c0-2.7-0.5-4.8-1.7-6.2c-1.1-1.4-2.7-2.1-4.9-2.1
			c-2.1,0-3.7,0.7-4.8,2.1C749.9,745.3,749.4,747.4,749.4,750.1z"/>
		<path d="M798.4,760.9v-13.9c0-1.7-0.4-3-1.1-3.8c-0.7-0.9-1.9-1.3-3.4-1.3c-2,0-3.5,0.6-4.5,1.7c-1,1.2-1.4,2.9-1.4,5.4v12h-3.2
			v-13.9c0-1.7-0.4-3-1.1-3.8c-0.7-0.9-1.9-1.3-3.4-1.3c-2,0-3.5,0.6-4.5,1.8c-0.9,1.2-1.4,3.2-1.4,6v11.2h-3.2v-21.4h2.6l0.5,2.9
			h0.2c0.6-1,1.5-1.9,2.6-2.4s2.4-0.9,3.7-0.9c3.3,0,5.5,1.2,6.6,3.6h0.2c0.6-1.1,1.6-2,2.8-2.7c1.2-0.7,2.6-1,4.1-1
			c2.4,0,4.2,0.6,5.4,1.9c1.2,1.2,1.8,3.2,1.8,6v14H798.4z"/>
		<path d="M822,755c0,2-0.7,3.5-2.2,4.6c-1.5,1.1-3.6,1.6-6.2,1.6c-2.8,0-5.1-0.4-6.6-1.3v-3c1,0.5,2.1,0.9,3.3,1.2
			c1.2,0.3,2.3,0.4,3.4,0.4c1.7,0,3-0.3,3.9-0.8c0.9-0.5,1.4-1.4,1.4-2.5c0-0.8-0.4-1.5-1.1-2.1c-0.7-0.6-2.1-1.3-4.2-2.1
			c-2-0.7-3.4-1.4-4.2-1.9c-0.8-0.6-1.5-1.2-1.9-1.9s-0.6-1.5-0.6-2.5c0-1.7,0.7-3.1,2.1-4.1c1.4-1,3.4-1.5,5.8-1.5
			c2.3,0,4.6,0.5,6.8,1.4l-1.2,2.6c-2.1-0.9-4.1-1.3-5.8-1.3c-1.5,0-2.7,0.2-3.5,0.7c-0.8,0.5-1.2,1.1-1.2,2c0,0.6,0.1,1.1,0.4,1.5
			c0.3,0.4,0.8,0.8,1.4,1.2c0.7,0.4,1.9,0.9,3.8,1.6c2.5,0.9,4.3,1.9,5.1,2.8S822,753.6,822,755z"/>
		<path d="M826.6,758.8c0-0.9,0.2-1.5,0.6-2s1-0.7,1.7-0.7c0.8,0,1.3,0.2,1.8,0.7s0.6,1.1,0.6,2c0,0.8-0.2,1.5-0.6,2
			c-0.4,0.5-1,0.7-1.8,0.7c-0.7,0-1.2-0.2-1.7-0.6S826.6,759.7,826.6,758.8z"/>
	</g>
	<g>
		<path fill="#25B4FF" d="M86.1,402.9l-2.1-6.8H73.6l-2.1,6.8H65l10.1-28.7h7.4l10.1,28.7H86.1z M82.6,391c-1.9-6.2-3-9.6-3.2-10.4
			c-0.2-0.8-0.4-1.4-0.5-1.9c-0.4,1.7-1.7,5.8-3.7,12.4H82.6z"/>
		<path fill="#25B4FF" d="M121.3,402.9h-7.7l-12.4-21.6H101c0.2,3.8,0.4,6.5,0.4,8.2v13.4H96v-28.6h7.6l12.4,21.4h0.1
			c-0.2-3.7-0.3-6.3-0.3-7.9v-13.5h5.4V402.9z"/>
		<path fill="#25B4FF" d="M145.8,402.9l-2.1-6.8h-10.4l-2.1,6.8h-6.5l10.1-28.7h7.4l10.1,28.7H145.8z M142.3,391
			c-1.9-6.2-3-9.6-3.2-10.4c-0.2-0.8-0.4-1.4-0.5-1.9c-0.4,1.7-1.7,5.8-3.7,12.4H142.3z"/>
		<path fill="#25B4FF" d="M155.7,402.9v-28.6h6.1v23.6h11.6v5H155.7z"/>
		<path fill="#25B4FF" d="M204,388.6c0,4.7-1.2,8.4-3.5,10.9s-5.7,3.8-10.1,3.8s-7.7-1.3-10.1-3.8s-3.5-6.2-3.5-10.9
			c0-4.8,1.2-8.4,3.5-10.9c2.4-2.5,5.7-3.8,10.1-3.8c4.4,0,7.7,1.3,10.1,3.8C202.9,380.2,204,383.8,204,388.6z M183.2,388.6
			c0,3.2,0.6,5.6,1.8,7.2c1.2,1.6,3,2.4,5.4,2.4c4.8,0,7.2-3.2,7.2-9.6c0-6.4-2.4-9.6-7.2-9.6c-2.4,0-4.2,0.8-5.4,2.4
			C183.8,383,183.2,385.4,183.2,388.6z"/>
		<path fill="#25B4FF" d="M220.6,386.8h11.3v14.8c-1.8,0.6-3.6,1-5.2,1.3s-3.3,0.4-5,0.4c-4.3,0-7.6-1.3-9.9-3.8
			c-2.3-2.5-3.4-6.2-3.4-10.9c0-4.6,1.3-8.2,4-10.8s6.3-3.9,11-3.9c2.9,0,5.8,0.6,8.5,1.8l-2,4.8c-2.1-1-4.3-1.6-6.5-1.6
			c-2.6,0-4.7,0.9-6.3,2.6c-1.6,1.8-2.4,4.1-2.4,7.1c0,3.1,0.6,5.5,1.9,7.1c1.3,1.6,3.1,2.5,5.5,2.5c1.3,0,2.5-0.1,3.8-0.4v-6h-5.4
			V386.8z"/>
		<path fill="#25B4FF" d="M261.7,374.3v18.5c0,2.1-0.5,4-1.4,5.5c-0.9,1.6-2.3,2.8-4.1,3.7c-1.8,0.8-3.9,1.3-6.3,1.3
			c-3.7,0-6.5-0.9-8.6-2.8c-2-1.9-3-4.5-3-7.7v-18.4h6v17.5c0,2.2,0.4,3.8,1.3,4.8c0.9,1,2.4,1.5,4.4,1.5c2,0,3.4-0.5,4.3-1.6
			c0.9-1,1.3-2.7,1.3-4.9v-17.4H261.7z"/>
		<path fill="#25B4FF" d="M285,402.9h-16.4v-28.6H285v5h-10.4v6.3h9.7v5h-9.7v7.4H285V402.9z"/>
		<path fill="#25B4FF" d="M318.4,402.9l-2.1-6.8h-10.4l-2.1,6.8h-6.5l10.1-28.7h7.4l10.1,28.7H318.4z M314.9,391
			c-1.9-6.2-3-9.6-3.2-10.4c-0.2-0.8-0.4-1.4-0.5-1.9c-0.4,1.7-1.7,5.8-3.7,12.4H314.9z"/>
		<path fill="#25B4FF" d="M339.2,386.8h11.3v14.8c-1.8,0.6-3.6,1-5.2,1.3s-3.3,0.4-5,0.4c-4.3,0-7.6-1.3-9.9-3.8
			c-2.3-2.5-3.4-6.2-3.4-10.9c0-4.6,1.3-8.2,4-10.8s6.3-3.9,11-3.9c2.9,0,5.8,0.6,8.5,1.8l-2,4.8c-2.1-1-4.3-1.6-6.5-1.6
			c-2.6,0-4.7,0.9-6.3,2.6c-1.6,1.8-2.4,4.1-2.4,7.1c0,3.1,0.6,5.5,1.9,7.1c1.3,1.6,3.1,2.5,5.5,2.5c1.3,0,2.5-0.1,3.8-0.4v-6h-5.4
			V386.8z"/>
		<path fill="#25B4FF" d="M373.5,402.9h-16.4v-28.6h16.4v5h-10.4v6.3h9.7v5h-9.7v7.4h10.4V402.9z"/>
	</g>
	<g>
		<path fill="#25B4FF" d="M92.3,667.3c0,4.7-1.3,8.3-4,10.8s-6.5,3.8-11.6,3.8h-8.1v-28.6h9c4.7,0,8.3,1.2,10.9,3.7
			S92.3,662.9,92.3,667.3z M86,667.5c0-6.1-2.7-9.2-8.1-9.2h-3.2v18.6h2.6C83.1,676.9,86,673.7,86,667.5z"/>
		<path fill="#25B4FF" d="M98,681.9v-28.6h6.1v28.6H98z"/>
		<path fill="#25B4FF" d="M121.9,665.8h11.3v14.8c-1.8,0.6-3.6,1-5.2,1.3c-1.6,0.2-3.3,0.4-5,0.4c-4.3,0-7.6-1.3-9.9-3.8
			c-2.3-2.5-3.4-6.2-3.4-10.9c0-4.6,1.3-8.2,4-10.8s6.3-3.9,11-3.9c2.9,0,5.8,0.6,8.5,1.8l-2,4.8c-2.1-1-4.3-1.6-6.5-1.6
			c-2.6,0-4.7,0.9-6.3,2.6c-1.6,1.8-2.4,4.1-2.4,7.1c0,3.1,0.6,5.5,1.9,7.1c1.3,1.6,3.1,2.5,5.5,2.5c1.3,0,2.5-0.1,3.8-0.4v-6h-5.4
			V665.8z"/>
		<path fill="#25B4FF" d="M139.8,681.9v-28.6h6.1v28.6H139.8z"/>
		<path fill="#25B4FF" d="M163.9,681.9h-6.1v-23.5h-7.8v-5h21.6v5h-7.8V681.9z"/>
		<path fill="#25B4FF" d="M193.3,681.9l-2.1-6.8h-10.4l-2.1,6.8h-6.5l10.1-28.7h7.4l10.1,28.7H193.3z M189.8,670
			c-1.9-6.2-3-9.6-3.2-10.4c-0.2-0.8-0.4-1.4-0.5-1.9c-0.4,1.7-1.7,5.8-3.7,12.4H189.8z"/>
		<path fill="#25B4FF" d="M203.2,681.9v-28.6h6.1v23.6h11.6v5H203.2z"/>
		<path fill="#25B4FF" d="M253.3,681.9l-2.1-6.8h-10.4l-2.1,6.8h-6.5l10.1-28.7h7.4l10.1,28.7H253.3z M249.8,670
			c-1.9-6.2-3-9.6-3.2-10.4c-0.2-0.8-0.4-1.4-0.5-1.9c-0.4,1.7-1.7,5.8-3.7,12.4H249.8z"/>
		<path fill="#25B4FF" d="M274,665.8h11.3v14.8c-1.8,0.6-3.6,1-5.2,1.3c-1.6,0.2-3.3,0.4-5,0.4c-4.3,0-7.6-1.3-9.9-3.8
			c-2.3-2.5-3.4-6.2-3.4-10.9c0-4.6,1.3-8.2,4-10.8s6.3-3.9,11-3.9c2.9,0,5.8,0.6,8.5,1.8l-2,4.8c-2.1-1-4.3-1.6-6.5-1.6
			c-2.6,0-4.7,0.9-6.3,2.6c-1.6,1.8-2.4,4.1-2.4,7.1c0,3.1,0.6,5.5,1.9,7.1c1.3,1.6,3.1,2.5,5.5,2.5c1.3,0,2.5-0.1,3.8-0.4v-6H274
			V665.8z"/>
		<path fill="#25B4FF" d="M308.4,681.9H292v-28.6h16.4v5H298v6.3h9.7v5H298v7.4h10.4V681.9z"/>
	</g>
	
		<line fill="none" stroke="#3A4F5A" stroke-width="2" stroke-linecap="round" stroke-miterlimit="10" x1="65" y1="419.6" x2="873" y2="419.6"/>
	
		<line fill="none" stroke="#3A4F5A" stroke-width="2" stroke-linecap="round" stroke-miterlimit="10" x1="65" y1="700.6" x2="873" y2="700.6"/>
	<g>
		<circle fill="#25B4FF" cx="992" cy="419" r="92"/>
		<path fill="#25B4FF" d="M992,327c50.8,0,92,41.2,92,92s-41.2,92-92,92s-92-41.2-92-92S941.2,327,992,327 M992,315.7
			c-57,0-103.3,46.4-103.3,103.3S935,522.3,992,522.3S1095.3,476,1095.3,419S1049,315.7,992,315.7L992,315.7z"/>
		<path fill="#FFFFFF" d="M992,327c50.8,0,92,41.2,92,92s-41.2,92-92,92s-92-41.2-92-92S941.2,327,992,327 M992,318.5
			c-55.4,0-100.5,45.1-100.5,100.5S936.6,519.5,992,519.5s100.5-45.1,100.5-100.5S1047.4,318.5,992,318.5L992,318.5z"/>
	</g>
	<g>
		<circle fill="#25B4FF" cx="992" cy="700" r="92"/>
		<path fill="#25B4FF" d="M992,608c50.8,0,92,41.2,92,92s-41.2,92-92,92s-92-41.2-92-92S941.2,608,992,608 M992,596.7
			c-57,0-103.3,46.4-103.3,103.3S935,803.3,992,803.3S1095.3,757,1095.3,700S1049,596.7,992,596.7L992,596.7z"/>
		<path fill="#FFFFFF" d="M992,608c50.8,0,92,41.2,92,92s-41.2,92-92,92s-92-41.2-92-92S941.2,608,992,608 M992,599.5
			c-55.4,0-100.5,45.1-100.5,100.5S936.6,800.5,992,800.5s100.5-45.1,100.5-100.5S1047.4,599.5,992,599.5L992,599.5z"/>
	</g>
</g>
</svg>
