<?xml version="1.0" encoding="utf-8"?>
<!-- Generator: Adobe Illustrator 19.1.0, SVG Export Plug-In . SVG Version: 6.00 Build 0)  -->
<svg version="1.1" id="Layer_1" xmlns="http://www.w3.org/2000/svg" xmlns:xlink="http://www.w3.org/1999/xlink" x="0px" y="0px"
	 viewBox="25 0 100 50" style="enable-background:new 25 0 100 50;" xml:space="preserve">
<style type="text/css">
	.st0{fill:#25B4FF;}
	.st1{fill:#FFFFFF;}
	.st2{fill:#3A4F5A;}
</style>
<g>
	<circle class="st0" cx="50" cy="25" r="21.3"/>
	<g>
		<path class="st1" d="M53.9,18.7h-7.7c-0.5,0-1,0.4-1,1v4.8c0,0.5,0.4,1,1,1h1v1.9l2.2-1.9H54c0.5,0,1-0.4,1-1v-4.8
			C54.8,19.1,54.4,18.7,53.9,18.7z"/>
		<path class="st1" d="M59.7,13.9H40.3c-1.1,0-1.9,0.9-1.9,1.9v14.5c0,1.1,0.9,1.9,1.9,1.9h1.9v3.9l4.1-3.9h13.3
			c1.1,0,1.9-0.9,1.9-1.9V15.8C61.6,14.7,60.8,13.9,59.7,13.9z M57.7,27.4c0,0.5-0.4,1-1,1h-1.9v2.7l-2.7-2.7h-9c-0.5,0-1-0.4-1-1
			v-9.7c0-0.5,0.4-1,1-1h13.6c0.5,0,1,0.4,1,1V27.4z"/>
	</g>
</g>
<g>
	<circle class="st0" cx="100" cy="25" r="21.3"/>
	<g>
		<polygon class="st1" points="97.7,20.7 97.7,27 99,24.8 101.1,28.4 102.3,27.6 100.3,24.2 102.9,24.2 		"/>
		<path class="st1" d="M109.2,15.6H90.8c-1.3,0-2.3,1-2.3,2.3v14.9h23V17.9C111.5,16.6,110.4,15.6,109.2,15.6z M109.2,29.9
			c0,0.3-0.3,0.6-0.6,0.6H91.4c-0.3,0-0.6-0.3-0.6-0.6V18.4c0-0.3,0.3-0.6,0.6-0.6h17.2c0.3,0,0.6,0.3,0.6,0.6
			C109.2,18.4,109.2,29.9,109.2,29.9z"/>
		<path class="st1" d="M102.3,33.9v0.6c0,0.3-0.3,0.6-0.6,0.6h-3.4c-0.3,0-0.6-0.3-0.6-0.6v-0.6H86.2c0,0,0,0.5,0,1.1
			s0.5,1.1,1.1,1.1h25.2c0.6,0,1.1-0.5,1.1-1.1s0-1.1,0-1.1H102.3z M110.9,35.8c-0.4,0-0.7-0.3-0.7-0.7s0.3-0.7,0.7-0.7
			s0.7,0.3,0.7,0.7S111.3,35.8,110.9,35.8z"/>
	</g>
</g>
<g>
	<path class="st2" d="M50,50c-13.8,0-25-11.2-25-25S36.2,0,50,0s25,11.2,25,25S63.8,50,50,50z M50,1.9C37.3,1.9,26.9,12.3,26.9,25
		c0,12.7,10.4,23.1,23.1,23.1c12.7,0,23.1-10.4,23.1-23.1C73.1,12.3,62.7,1.9,50,1.9z"/>
</g>
<g>
	<path class="st2" d="M100,50c-13.8,0-25-11.2-25-25S86.2,0,100,0s25,11.2,25,25S113.8,50,100,50z M100,1.9
		C87.3,1.9,76.9,12.3,76.9,25c0,12.7,10.4,23.1,23.1,23.1c12.7,0,23.1-10.4,23.1-23.1C123.1,12.3,112.7,1.9,100,1.9z"/>
</g>
</svg>
