<?xml version="1.0" encoding="utf-8"?>
<!-- Generator: Adobe Illustrator 19.1.0, SVG Export Plug-In . SVG Version: 6.00 Build 0)  -->
<!DOCTYPE svg PUBLIC "-//W3C//DTD SVG 1.1//EN" "http://www.w3.org/Graphics/SVG/1.1/DTD/svg11.dtd">
<svg version="1.1" id="Layer_1" xmlns="http://www.w3.org/2000/svg" xmlns:xlink="http://www.w3.org/1999/xlink" x="0px" y="0px"
	 viewBox="-159 17.1 280.7 30.9" enable-background="new -159 17.1 280.7 30.9" xml:space="preserve">
<g>
	<path d="M-159,20.3c0-1.7,1.5-3.2,3.4-3.2c1.9,0,3.4,1.4,3.4,3.2c0,1.8-1.5,3.3-3.4,3.3C-157.5,23.6-159,22.2-159,20.3z"/>
	<path d="M-156.3,46h3.2c0.3,0,0.5-0.2,0.5-0.5V30.1c0-2.4-1-3.7-1.3-4h-4.1c-0.4,0-0.5,0.2-0.5,0.5v14.3
		C-158.5,44.4-156.7,45.7-156.3,46z"/>
	<path d="M-142.3,46h-3.2c-0.4-0.3-2.2-1.6-2.2-5.2V26.5c0-0.3,0.1-0.5,0.5-0.5h3.9c0.2,0.2,0.7,0.9,1.1,2.1
		c0.3-0.4,2.4-2.7,5.9-2.7c3.3,0,4.7,2,5.1,2.7c0.7-0.7,2.8-2.7,6.3-2.7c3.9,0,5.8,2.5,5.8,6v14c0,0.3-0.1,0.5-0.5,0.5h-3.2
		c-0.4-0.3-2.2-1.6-2.2-5.2v-7.6c0-0.5,0-1.3-0.3-2c-0.3-0.7-1-1-1.9-1c-1.5,0-2.7,1.3-3.2,1.9v13.4c0,0.3-0.2,0.5-0.5,0.5h-3.2
		c-0.4-0.3-2.2-1.6-2.2-5.2v-7.6c0-0.5,0-1.3-0.3-2c-0.3-0.5-0.8-1-1.9-1c-1.5,0-2.7,1.3-3.2,1.9v13.4
		C-141.8,45.8-141.9,46-142.3,46z"/>
	<path d="M-104.9,34.2c2.3,1.1,4.3,2.8,4.3,5.8c0,3.8-2.9,6.6-8,6.6c-3.2,0-6.1-1.3-6.6-1.5s-0.5-0.6-0.4-1l0.7-3.1
		c1.1,0.5,3.5,1.7,5.8,1.7c1.5,0,2.6-0.7,2.6-1.8c0-1.4-2-2-4.3-3.3c-2.6-1.4-4.3-3.1-4.3-6c0-3.5,2.8-6.3,7.3-6.3
		c2.4,0,4.8,0.7,5.9,1c0.3,0.1,0.6,0.3,0.5,0.9l-0.6,2.9c-0.4-0.2-2.6-1.1-4.4-1.1c-1.3,0-2.7,0.5-2.7,1.7c0,0.9,0.8,1.6,2.2,2.3
		C-106.4,33.5-105.3,34.1-104.9,34.2z"/>
	<g>
		<path d="M-4.9,42.1v-8.7c0-3.2-0.9-5.7-3.9-5.7c-2.4,0-4.6,1.6-6.7,3.4v15h-1.7c-0.4-1-0.6-3.4-0.6-4V17.7h1.7
			c0.4,1,0.6,3.1,0.6,3.8v7.4c2.2-1.9,4.4-3.2,7-3.2c3.1,0,5.8,2.1,5.8,6.9v7.9v5.6h-1.7C-4.7,45.1-4.9,42.8-4.9,42.1z"/>
		<path d="M-77.4,35.8c0-6.1,3.4-10.1,7.9-10.1c4.8,0,7.6,4,7.6,10.1v0.6h-13.2c0,4.5,2.4,8.2,7.1,8.2c1.8,0,3.5-0.6,4.9-1.4
			l0.8,1.7c-1.6,1.1-4,1.8-6,1.8C-74.2,46.6-77.4,41.8-77.4,35.8z M-64.4,34.4c-0.1-3.4-1.7-6.8-5.1-6.8c-3.3,0-5.4,3-5.5,6.8H-64.4
			z"/>
		<path d="M-46.8,43.7c-1.6,1.6-3.7,2.8-6.1,2.8c-3.6,0-6.2-2.2-6.2-6.1c0-2.7,1.4-4.5,3.4-5.4c1.4-0.6,2.9-0.8,4.9-0.9l4-0.1v-1.5
			c0-3.4-2-4.9-4.5-4.9c-2.6,0-4.2,0.9-5.6,1.8l-1-1.8c2.3-1.5,4.7-2,6.7-2c3.7,0,6.7,1.8,6.7,6.6v6.3c0,4.6,0.1,6.6,0.4,7.6h-2.1
			L-46.8,43.7z M-50.8,36.1c-1.9,0-3.1,0.3-4.1,0.8c-1.3,0.7-2,2-2,3.4c0,2.4,1.5,4.1,4,4.1c2.8,0,4.8-2,5.9-3.1v-5.4L-50.8,36.1z"
			/>
		<path d="M-39.6,17.7h1.7c0.4,1,0.6,3.1,0.6,3.8v20.6c0,1.8,0.5,2.2,1.6,2.2c0.4,0,1-0.1,1.2-0.3l0.5,1.8c-0.6,0.3-1.5,0.5-2.4,0.5
			c-2.1,0-3.2-1.4-3.2-3.5L-39.6,17.7L-39.6,17.7z"/>
		<path d="M-96.3,17.6h1.7c0.4,1,0.6,3.1,0.6,3.8v7.4c2.2-1.9,4.4-3.2,7-3.2c3.1,0,5.8,2.1,5.8,6.9v7.9v5.7H-83
			c-0.4-1-0.6-3.4-0.6-4v-8.6c0-3.2-0.9-5.7-3.9-5.7c-2.4,0-4.6,1.6-6.7,3.4v15h-1.7c-0.4-1-0.6-3.4-0.6-4L-96.3,17.6L-96.3,17.6z"
			/>
		<path d="M-29.7,42.2V28.1H-33v-2h3.3v-3.5l2.2-0.8v4.3h5.9l-0.8,2h-5.2V42c0,1.7,0.8,2.5,2.1,2.5c1.4,0,2.5-0.6,3.4-1.2l0.9,1.7
			c-1.2,0.8-2.7,1.6-4.7,1.6C-28.2,46.6-29.7,45-29.7,42.2z"/>
	</g>
	<g>
		<path d="M-0.3,18.2h-0.8v2.6h-0.6v-2.6h-0.9v-0.5h2.5L-0.3,18.2z"/>
		<path d="M2.7,20.8V19c0-0.1,0-0.2,0-0.3l0,0c0,0.1-0.1,0.2-0.2,0.3l-0.6,1H1.6l-0.7-1c0-0.1-0.1-0.2-0.2-0.3l0,0
			c0,0.1,0,0.2,0,0.3v1.9H0.1v-3.2h0.5L1.5,19c0.1,0.1,0.1,0.2,0.2,0.3l0,0c0-0.1,0.1-0.2,0.2-0.3l0.8-1.2h0.5v3.1L2.7,20.8
			L2.7,20.8z"/>
	</g>
</g>
<rect x="5.4" y="40.3" width="116.3" height="6.3"/>
</svg>
