<?xml version="1.0" encoding="utf-8"?>
<!-- Generator: Adobe Illustrator 19.1.0, SVG Export Plug-In . SVG Version: 6.00 Build 0)  -->
<svg version="1.1" xmlns="http://www.w3.org/2000/svg" xmlns:xlink="http://www.w3.org/1999/xlink" x="0px" y="0px"
	 viewBox="0 0 100 50" style="enable-background:new 0 0 100 50;" xml:space="preserve">
<style type="text/css">
	.st0{opacity:0.25;fill:#49ACE1;}
	.st1{fill:#FFFFFF;}
	.st2{fill:#25B4FF;}
	.st3{display:none;}
	.st4{display:inline;opacity:0.25;fill:#49ACE1;}
	.st5{display:inline;}
	.st6{fill:none;}
	.st7{fill:#FCFBFB;}
	.st8{display:inline;fill:#25B4FF;}
</style>
<g id="Layer_1">
	<polygon class="st0" points="41.7,50 0,50 0,31.6 0,10 41.7,10 50,31.6 	"/>
	<g>
		<path class="st1" d="M24.6,40.4c-0.6,0.3-1.7,1.1-2.8,2.1c1,0.6,2,1.3,3.2,1.9c24.2-13,9.7-31.1,0-22.5
			c-8.2-7.2-19.6,4.3-8.9,15.8l1.6-1.6c0.4-0.4,0.5-0.9,0.5-1.4c-0.2-1.9,2.1-7.5,2.5-10l0,0l0,0c0.1-0.5,0.4-0.7,0.5-0.7
			c0.4-0.2,1.1,0.6,1.2,0.9l0,0c0.3,0.8-0.1,2.1-0.2,3.4c0,0.8,0.6,1.2,1,0.7l5.4-5.4c0.4-0.4,1.1-0.4,1.5,0
			c0.4,0.4,0.4,0.9,0.1,1.4c0,0,0.1-0.1-4.8,4.8l0.2,0.2l6-6c0.4-0.4,1.2-0.4,1.6,0c0.4,0.4,0.4,1.2,0,1.6c-0.6,0.6-5.1,5.1-5.8,5.8
			l-0.2,0.2l0.2,0.2c0.6-0.6-0.2,0.2,1.4-1.4l4-4c0.4-0.4,1.2-0.4,1.6,0c0.4,0.4,0.4,1.2,0,1.6l-1.7,1.7c-0.8,0.8-2.9,2.9-3.6,3.6
			l0.2,0.2c1.3-1.3,2.3-2.3,3.7-3.7c0.7-0.7,2,0.2,1.4,1.2C34.3,31.2,27.4,39.2,24.6,40.4z"/>
	</g>
	<polygon class="st2" points="91.7,50 50,50 50,31.6 50,10 91.7,10 100,31.6 	"/>
	<g>
		<path class="st1" d="M74.6,40.4c-0.6,0.3-1.7,1.1-2.8,2.1c1,0.6,2,1.3,3.2,1.9c24.2-13,9.7-31.1,0-22.5
			c-8.2-7.2-19.6,4.3-8.9,15.8l1.6-1.6c0.4-0.4,0.5-0.9,0.5-1.4c-0.2-1.9,2.1-7.5,2.5-10l0,0l0,0c0.1-0.5,0.4-0.7,0.5-0.7
			c0.4-0.2,1.1,0.6,1.2,0.9l0,0c0.3,0.8-0.1,2.1-0.2,3.4c0,0.8,0.6,1.2,1,0.7l5.4-5.4c0.4-0.4,1.1-0.4,1.5,0
			c0.4,0.4,0.4,0.9,0.1,1.4c0,0,0.1-0.1-4.8,4.8l0.2,0.2l6-6c0.4-0.4,1.2-0.4,1.6,0c0.4,0.4,0.4,1.2,0,1.6c-0.6,0.6-5.1,5.1-5.8,5.8
			l-0.2,0.2l0.2,0.2c0.6-0.6-0.2,0.2,1.4-1.4l4-4c0.4-0.4,1.2-0.4,1.6,0c0.4,0.4,0.4,1.2,0,1.6l-1.7,1.7c-0.8,0.8-2.9,2.9-3.6,3.6
			l0.2,0.2c1.3-1.3,2.3-2.3,3.7-3.7c0.7-0.7,2,0.2,1.4,1.2C84.3,31.2,77.4,39.2,74.6,40.4z"/>
	</g>
</g>
<g id="Layer_2" class="st3">
	<polygon class="st4" points="50,50 0,50 10,31.6 0,10 50,10 60,31.6 	"/>
	<g class="st5">
		<circle class="st6" cx="30.9" cy="32.3" r="0.8"/>
		<circle class="st6" cx="28.5" cy="36" r="2.3"/>
		<path class="st6" d="M32.2,39.3c-0.6,0-1.2,0.4-1.3,1c0,0.1,0,0.2,0,0.3c0,0.1,0,0.2,0,0.3c0.1,0.6,0.7,1,1.3,1
			c0.7,0,1.3-0.6,1.3-1.3S32.9,39.3,32.2,39.3z"/>
		<path class="st7" d="M32.4,26.4L32.4,26.4l0-5.6h0.1c0.3,0,0.5-0.2,0.5-0.5c0-0.3-0.2-0.5-0.5-0.5h-0.3h-1.3h-2.4h-1
			c-0.3,0-0.5,0.2-0.5,0.5c0,0.3,0.2,0.5,0.5,0.5h0.1v5.6l0,0c0,0-4.6,13.1-4.6,15.5c0,2.4,2.8,2.8,2.8,2.8h2.8h2.4h1.3l2.1,0
			c0,0,2.8-0.4,2.8-2.8C37.1,39.5,32.4,26.4,32.4,26.4z M30.9,31.5c0.4,0,0.8,0.3,0.8,0.8c0,0.4-0.3,0.8-0.8,0.8
			c-0.4,0-0.8-0.3-0.8-0.8C30.2,31.9,30.5,31.5,30.9,31.5z M28.5,38.3c-1.3,0-2.3-1-2.3-2.3s1-2.3,2.3-2.3c1.3,0,2.3,1,2.3,2.3
			S29.8,38.3,28.5,38.3z M32.2,42c-0.6,0-1.2-0.4-1.3-1c0-0.1,0-0.2,0-0.3c0-0.1,0-0.2,0-0.3c0.1-0.6,0.7-1,1.3-1
			c0.7,0,1.3,0.6,1.3,1.3S32.9,42,32.2,42z"/>
		<path class="st7" d="M33.1,17.8c0.7,0,1.2-0.5,1.2-1.2c0-0.7-0.5-1.2-1.2-1.2c-0.4,0-0.7,0.2-0.9,0.4c-0.2,0.2-0.3,0.5-0.3,0.8
			c0,0.3,0.1,0.6,0.3,0.8C32.4,17.7,32.8,17.8,33.1,17.8z"/>
	</g>
	<polygon class="st8" points="110,50 60,50 70,31.6 60,10 110,10 120,31.6 	"/>
	<g class="st5">
		<circle class="st6" cx="90.9" cy="32.3" r="0.8"/>
		<circle class="st6" cx="88.5" cy="36" r="2.3"/>
		<path class="st6" d="M92.2,39.3c-0.6,0-1.2,0.4-1.3,1c0,0.1,0,0.2,0,0.3c0,0.1,0,0.2,0,0.3c0.1,0.6,0.7,1,1.3,1
			c0.7,0,1.3-0.6,1.3-1.3S92.9,39.3,92.2,39.3z"/>
		<path class="st7" d="M93.1,17.8c0.7,0,1.2-0.5,1.2-1.2c0-0.7-0.5-1.2-1.2-1.2c-0.4,0-0.7,0.2-0.9,0.4c-0.2,0.2-0.3,0.5-0.3,0.8
			c0,0.3,0.1,0.6,0.3,0.8C92.4,17.7,92.8,17.8,93.1,17.8z"/>
		<path class="st7" d="M92.4,26.4L92.4,26.4l0-5.6h0.1c0.3,0,0.5-0.2,0.5-0.5c0-0.3-0.2-0.5-0.5-0.5h-0.3h-1.3h-2.4h-1
			c-0.3,0-0.5,0.2-0.5,0.5c0,0.3,0.2,0.5,0.5,0.5h0.1v5.6l0,0c0,0-4.6,13.1-4.6,15.5c0,2.4,2.8,2.8,2.8,2.8h2.8h2.4h1.3l2.1,0
			c0,0,2.8-0.4,2.8-2.8C97.1,39.5,92.4,26.4,92.4,26.4z M90.9,31.5c0.4,0,0.8,0.3,0.8,0.8c0,0.4-0.3,0.8-0.8,0.8
			c-0.4,0-0.8-0.3-0.8-0.8C90.2,31.9,90.5,31.5,90.9,31.5z M88.5,38.3c-1.3,0-2.3-1-2.3-2.3s1-2.3,2.3-2.3c1.3,0,2.3,1,2.3,2.3
			S89.8,38.3,88.5,38.3z M92.2,42c-0.6,0-1.2-0.4-1.3-1c0-0.1,0-0.2,0-0.3c0-0.1,0-0.2,0-0.3c0.1-0.6,0.7-1,1.3-1
			c0.7,0,1.3,0.6,1.3,1.3S92.9,42,92.2,42z"/>
	</g>
</g>
<g id="Layer_3" class="st3">
	<polygon class="st4" points="50,50 0,50 10,31.6 0,10 50,10 60,31.6 	"/>
	<g class="st5">
		<g>
			<path class="st7" d="M41.6,22l-3.6,13.8c3.7,0.5,7.2-1.8,8.1-5.3C47.1,26.9,45.1,23.3,41.6,22z"/>
			<path class="st7" d="M38.3,31.4c0-0.7-0.2-1.3-0.5-1.9c-0.8-1.4-2.5-2.4-4.4-2.4l-1.5,0h-3.2l-1.5,0l-4.7,0
				c-2.7,0-4.9,1.9-4.9,4.3v0.7c0,2.4,2.2,4.3,4.9,4.3l4.7,0h1.5h4.7c2.7,0,4.9-1.9,4.9-4.3V31.4z M27.2,29.3l0,5.7l-4.7,0
				c-1.9,0-3.4-1.3-3.4-2.8v-0.7c0-1.6,1.5-2.8,3.4-2.8l4.7,0v0c4-0.1,8.7,0,9.1,1.1C36.4,29.6,34.5,29,27.2,29.3z"/>
			<path class="st7" d="M38.2,28.3l1.7-6.7c-0.2,0-0.3,0-0.5,0c-1.5,0-3.1,0.5-4.4,1.4c-1.2,0.8-2.1,2-2.6,3.3h1
				C35.3,26.3,37,27,38.2,28.3z"/>
		</g>
	</g>
	<polygon class="st8" points="110,50 60,50 70,31.6 60,10 110,10 120,31.6 	"/>
	<g class="st5">
		<g>
			<path class="st7" d="M101.6,22l-3.6,13.8c3.7,0.5,7.2-1.8,8.1-5.3C107.1,26.9,105.1,23.3,101.6,22z"/>
			<path class="st7" d="M98.3,31.4c0-0.7-0.2-1.3-0.5-1.9c-0.8-1.4-2.5-2.4-4.4-2.4l-1.5,0h-3.2l-1.5,0l-4.7,0
				c-2.7,0-4.9,1.9-4.9,4.3v0.7c0,2.4,2.2,4.3,4.9,4.3l4.7,0h1.5h4.7c2.7,0,4.9-1.9,4.9-4.3V31.4z M87.2,29.3l0,5.7l-4.7,0
				c-1.9,0-3.4-1.3-3.4-2.8v-0.7c0-1.6,1.5-2.8,3.4-2.8l4.7,0v0c4-0.1,8.7,0,9.1,1.1C96.4,29.6,94.5,29,87.2,29.3z"/>
			<path class="st7" d="M98.2,28.3l1.7-6.7c-0.2,0-0.3,0-0.5,0c-1.5,0-3.1,0.5-4.4,1.4c-1.2,0.8-2.1,2-2.6,3.3h1
				C95.3,26.3,97,27,98.2,28.3z"/>
		</g>
	</g>
</g>
<g id="Layer_4" class="st3">
	<polygon class="st4" points="50,50 0,50 10,31.6 0,10 50,10 60,31.6 	"/>
	<g class="st5">
		<g>
			<path class="st7" d="M28.7,20.7c0-0.3,0.2-0.5,0.4-0.5l3.6,0c0.2,0,0.4,0.2,0.4,0.5v2.2l2.1,0v-3.3c0-0.4-0.3-0.6-0.7-0.6l-6.8,0
				c-0.4,0-0.7,0.3-0.7,0.6v3.3l1.8,0V20.7z"/>
			<path class="st7" d="M39.8,23.6l-5.8,0l-1.5,0l-3.2,0h-1.4l-5.8,0c-1.1,0-1.9,0.9-1.9,1.9l0,11.5c0,1.1,0.9,1.9,1.9,1.9l17.6,0
				c1.1,0,1.9-0.9,1.9-1.9l0-11.5C41.7,24.5,40.9,23.6,39.8,23.6z M31,36.9c-3.1,0-5.6-2.5-5.6-5.6c0-3.1,2.5-5.6,5.6-5.6
				c3.1,0,5.6,2.5,5.6,5.6C36.6,34.4,34.1,36.9,31,36.9z"/>
			<path class="st7" d="M32.4,29.9v-2.2c0-0.3-0.1-0.5-0.3-0.5l-2.4,0c-0.1,0-0.3,0.2-0.3,0.5l0,2.2l-2.2,0c-0.3,0-0.5,0.1-0.5,0.3
				v2.4c0,0.1,0.2,0.3,0.5,0.3h2.2v2.2c0,0.3,0.1,0.5,0.3,0.5h2.4c0.1,0,0.3-0.2,0.3-0.5l0-2.2h2.2c0.3,0,0.5-0.1,0.5-0.3v-2.4
				c0-0.1-0.2-0.3-0.5-0.3L32.4,29.9z"/>
		</g>
	</g>
	<polygon class="st8" points="110,50 60,50 70,31.6 60,10 110,10 120,31.6 	"/>
	<g class="st5">
		<g>
			<path class="st7" d="M89.7,20.7c0-0.3,0.2-0.5,0.4-0.5l3.6,0c0.2,0,0.4,0.2,0.4,0.5v2.2l2.1,0v-3.3c0-0.4-0.3-0.6-0.7-0.6l-6.8,0
				c-0.4,0-0.7,0.3-0.7,0.6v3.3l1.8,0V20.7z"/>
			<path class="st7" d="M100.8,23.6l-5.8,0l-1.5,0l-3.2,0h-1.4l-5.8,0c-1.1,0-1.9,0.9-1.9,1.9v11.5c0,1.1,0.9,1.9,1.9,1.9l17.6,0
				c1.1,0,1.9-0.9,1.9-1.9V25.6C102.7,24.5,101.9,23.6,100.8,23.6z M92,36.9c-3.1,0-5.6-2.5-5.6-5.6c0-3.1,2.5-5.6,5.6-5.6
				c3.1,0,5.6,2.5,5.6,5.6C97.6,34.4,95.1,36.9,92,36.9z"/>
			<path class="st7" d="M93.4,29.9v-2.2c0-0.3-0.1-0.5-0.3-0.5l-2.4,0c-0.1,0-0.3,0.2-0.3,0.5v2.2l-2.2,0c-0.3,0-0.5,0.1-0.5,0.3
				v2.4c0,0.1,0.2,0.3,0.5,0.3h2.2v2.2c0,0.3,0.1,0.5,0.3,0.5h2.4c0.1,0,0.3-0.2,0.3-0.5v-2.2h2.2c0.3,0,0.5-0.1,0.5-0.3v-2.4
				c0-0.1-0.2-0.3-0.5-0.3L93.4,29.9z"/>
		</g>
	</g>
</g>
<g id="Layer_5" class="st3">
	<polygon class="st4" points="50,50 0,50 10,31.6 0,10 50,10 60,31.6 	"/>
	<g class="st5">
		<g>
			<path class="st7" d="M39.7,28c-2.6-0.1-4.8,1.9-4.9,4.6c-0.1,2.6,1.9,4.8,4.6,4.9c2.6,0.1,4.8-1.9,4.9-4.6
				C44.4,30.3,42.3,28.1,39.7,28z M39.4,36.3c-2-0.1-3.6-1.8-3.5-3.7c0.1-2,1.8-3.6,3.7-3.5c2,0.1,3.6,1.8,3.5,3.7
				C43.1,34.8,41.4,36.4,39.4,36.3z"/>
			<circle class="st7" cx="39.6" cy="32.7" r="2.5"/>
		</g>
		<path class="st7" d="M38.4,36.6c0,0.1-1.9,7.7-6.9,6.8c-3.9-0.7-4.3-6.3-4.3-8.8c1.2-0.1,2.3-0.7,3.2-1.6c2-2,2.6-5.6,2.8-7.9
			c0.1-0.5,0.1-1.3,0.1-2.2c0-0.1,0-0.2,0-0.2l0,0c-0.1-1.2-0.3-2.4-1-3.4c-0.5-0.7-1.2-1.1-2-1.2L30,19.7c0.4,0,0.8,0.2,1,0.6
			c0.5,0.7,0.7,1.8,0.7,2.9c0,0.4,0,1.1-0.1,1.9c0,0.1,0,0.1,0,0.2l0,0c-0.2,2.1-0.7,5.1-2.3,6.7c-0.8,0.8-1.7,1.2-2.9,1.2
			c-1.3,0-2.4-0.5-3.2-1.5c-2.5-2.9-1.9-8.9-1.9-9h0c0.1-1,0.4-2.2,0.9-2.8c0.3-0.3,0.6-0.5,1.1-0.5l0-1.5c-0.8,0-1.5,0.4-2.1,1
			c-1.6,1.9-1.4,5.7-1.3,6.1l0,0c0.1,2.3,0.5,5.6,2.3,7.7c1,1.1,2.2,1.8,3.6,2c0,1,0,2.4,0.3,3.9c0.7,3.7,2.5,5.9,5.2,6.4
			c0.3,0,0.5,0.1,0.8,0.1c2.3,0.1,4.4-1.2,6-3.8c1.3-2,1.8-4.2,1.8-4.3L38.4,36.6z"/>
		<path class="st7" d="M23.7,17.2c0,0-0.1,0-0.1,0c-1.1,0-1.9,0.7-1.9,1.6c0,0.8,0.8,1.5,1.8,1.5c0,0,0.1,0,0.1,0
			c0.5,0,0.9-0.2,1.3-0.4c0.4-0.3,0.6-0.7,0.6-1.2C25.5,17.9,24.7,17.2,23.7,17.2z"/>
		<path class="st7" d="M29.7,17.4c0,0-0.1,0-0.1,0c-1.1,0-1.9,0.7-1.9,1.6c0,0.8,0.8,1.5,1.8,1.5c0,0,0.1,0,0.1,0
			c0.5,0,0.9-0.2,1.3-0.4c0.4-0.3,0.6-0.7,0.6-1.1C31.5,18.1,30.7,17.5,29.7,17.4z"/>
	</g>
	<polygon class="st8" points="110,50 60,50 70,31.6 60,10 110,10 120,31.6 	"/>
	<g class="st5">
		<g>
			<path class="st7" d="M99.7,28c-2.6-0.1-4.8,1.9-4.9,4.6c-0.1,2.6,1.9,4.8,4.6,4.9c2.6,0.1,4.8-1.9,4.9-4.6
				C104.4,30.3,102.3,28.1,99.7,28z M99.4,36.3c-2-0.1-3.6-1.8-3.5-3.7c0.1-2,1.8-3.6,3.7-3.5c2,0.1,3.6,1.8,3.5,3.7
				C103.1,34.8,101.4,36.4,99.4,36.3z"/>
			<circle class="st7" cx="99.6" cy="32.7" r="2.5"/>
		</g>
		<path class="st7" d="M98.4,36.6c0,0.1-1.9,7.7-6.9,6.8c-3.9-0.7-4.3-6.3-4.3-8.8c1.2-0.1,2.3-0.7,3.2-1.6c2-2,2.6-5.6,2.8-7.9
			c0.1-0.5,0.1-1.3,0.1-2.2c0-0.1,0-0.2,0-0.2l0,0c-0.1-1.2-0.3-2.4-1-3.4c-0.5-0.7-1.2-1.1-2-1.2L90,19.7c0.4,0,0.8,0.2,1,0.6
			c0.5,0.7,0.7,1.8,0.7,2.9c0,0.4,0,1.1-0.1,1.9c0,0.1,0,0.1,0,0.2l0,0c-0.2,2.1-0.7,5.1-2.3,6.7c-0.8,0.8-1.7,1.2-2.9,1.2
			c-1.3,0-2.4-0.5-3.2-1.5c-2.5-2.9-1.9-8.9-1.9-9h0c0.1-1,0.4-2.2,0.9-2.8c0.3-0.3,0.6-0.5,1.1-0.5l0-1.5c-0.8,0-1.5,0.4-2.1,1
			c-1.6,1.9-1.4,5.7-1.3,6.1l0,0c0.1,2.3,0.5,5.6,2.3,7.7c1,1.1,2.2,1.8,3.6,2c0,1,0,2.4,0.3,3.9c0.7,3.7,2.5,5.9,5.2,6.4
			c0.3,0,0.5,0.1,0.8,0.1c2.3,0.1,4.4-1.2,6-3.8c1.3-2,1.8-4.2,1.8-4.3L98.4,36.6z"/>
		<path class="st7" d="M83.7,17.2c0,0-0.1,0-0.1,0c-1.1,0-1.9,0.7-1.9,1.6c0,0.8,0.8,1.5,1.8,1.5c0,0,0.1,0,0.1,0
			c0.5,0,0.9-0.2,1.3-0.4c0.4-0.3,0.6-0.7,0.6-1.2C85.5,17.9,84.7,17.2,83.7,17.2z"/>
		<path class="st7" d="M89.7,17.4c0,0-0.1,0-0.1,0c-1.1,0-1.9,0.7-1.9,1.6c0,0.8,0.8,1.5,1.8,1.5c0,0,0.1,0,0.1,0
			c0.5,0,0.9-0.2,1.3-0.4c0.4-0.3,0.6-0.7,0.6-1.1C91.5,18.1,90.7,17.5,89.7,17.4z"/>
	</g>
</g>
<g id="Layer_6">
	<polyline class="st2" points="77.1,0 73.1,4 69.1,0 	"/>
</g>
</svg>
